(module alpha_rotary_8 (layer F.Cu) (tedit 5E397C0D)
  (fp_text reference REF** (at -7.1628 -12.0904) (layer F.SilkS)
    (effects (font (size 1 1) (thickness 0.15)))
  )
  (fp_text value alpha_rotary_8 (at 3.7338 -12.2936) (layer F.Fab)
    (effects (font (size 1 1) (thickness 0.15)))
  )
  (fp_line (start -9.0932 9.1567) (end 9.0932 9.1567) (layer F.SilkS) (width 0.15))
  (fp_line (start 1.8542 7.5057) (end -1.8288 7.5057) (layer F.SilkS) (width 0.15))
  (fp_line (start -1.8288 7.5057) (end -1.8288 6.6167) (layer F.SilkS) (width 0.15))
  (fp_line (start -1.8288 6.6167) (end 1.8542 6.6167) (layer F.SilkS) (width 0.15))
  (fp_line (start 1.8542 6.6167) (end 1.8542 7.5057) (layer F.SilkS) (width 0.15))
  (fp_line (start 9.0932 9.1567) (end 9.0932 -11.0236) (layer F.SilkS) (width 0.15))
  (fp_line (start -9.0932 -11.0236) (end 9.0932 -11.0236) (layer F.SilkS) (width 0.15))
  (fp_circle (center 0 0) (end 3 0) (layer F.SilkS) (width 0.15))
  (fp_line (start -9.0932 9.1567) (end -9.0932 -11.0236) (layer F.SilkS) (width 0.15))
  (fp_circle (center 5.0038 11.1252) (end 5.3086 11.0744) (layer F.SilkS) (width 0.15))
  (pad 1 thru_hole oval (at 5.0038 9.1567) (size 1.3 2.5) (drill 1) (layers *.Cu *.Mask))
  (pad 5 thru_hole oval (at -5.0038 9.1567) (size 1.3 2.5) (drill 1) (layers *.Cu *.Mask))
  (pad 2 thru_hole oval (at 2.4892 9.1567) (size 1.3 2.5) (drill 1) (layers *.Cu *.Mask))
  (pad 4 thru_hole oval (at -2.5146 9.1567) (size 1.3 2.5) (drill 1) (layers *.Cu *.Mask))
  (pad 3 thru_hole oval (at 0 9.1567) (size 1.3 2.5) (drill 1) (layers *.Cu *.Mask))
  (pad 6 thru_hole oval (at -5.0038 -9.144) (size 1.3 2.5) (drill 1) (layers *.Cu *.Mask))
  (pad 7 thru_hole oval (at -2.5146 -9.144) (size 1.3 2.5) (drill 1) (layers *.Cu *.Mask))
  (pad 9 thru_hole oval (at 2.4892 -9.144) (size 1.3 2.5) (drill 1) (layers *.Cu *.Mask))
  (pad 8 thru_hole oval (at 0 -9.144) (size 1.3 2.5) (drill 1) (layers *.Cu *.Mask))
  (pad 10 thru_hole oval (at 5.0038 -9.144) (size 1.3 2.5) (drill 1) (layers *.Cu *.Mask))
  (pad "" thru_hole circle (at 8.001 -1.1049) (size 3 3) (drill 2) (layers *.Cu *.Mask))
  (pad "" thru_hole circle (at -8.001 -1.1049) (size 3 3) (drill 2) (layers *.Cu *.Mask))
)
