(module banana_hole (layer F.Cu) (tedit 5E372E64)
  (fp_text reference REF** (at 0 5.715) (layer F.SilkS)
    (effects (font (size 1 1) (thickness 0.15)))
  )
  (fp_text value banana_hole (at 0 -5.715) (layer F.Fab)
    (effects (font (size 1 1) (thickness 0.15)))
  )
  (fp_circle (center 0 0) (end 4.445 0) (layer F.SilkS) (width 0.15))
  (pad "" np_thru_hole circle (at 0 0) (size 8 8) (drill 8) (layers *.Cu *.Mask))
)
