G04 #@! TF.GenerationSoftware,KiCad,Pcbnew,5.1.5-52549c5~86~ubuntu18.04.1*
G04 #@! TF.CreationDate,2020-04-26T22:56:16+02:00*
G04 #@! TF.ProjectId,hardware,68617264-7761-4726-952e-6b696361645f,rev?*
G04 #@! TF.SameCoordinates,Original*
G04 #@! TF.FileFunction,Legend,Top*
G04 #@! TF.FilePolarity,Positive*
%FSLAX46Y46*%
G04 Gerber Fmt 4.6, Leading zero omitted, Abs format (unit mm)*
G04 Created by KiCad (PCBNEW 5.1.5-52549c5~86~ubuntu18.04.1) date 2020-04-26 22:56:16*
%MOMM*%
%LPD*%
G04 APERTURE LIST*
%ADD10C,0.200000*%
%ADD11C,0.300000*%
%ADD12C,0.120000*%
%ADD13C,0.150000*%
%ADD14C,0.100000*%
G04 APERTURE END LIST*
D10*
X98247380Y-29757714D02*
X98122380Y-30757714D01*
X98241428Y-29805333D02*
X98342619Y-29757714D01*
X98533095Y-29757714D01*
X98622380Y-29805333D01*
X98664047Y-29852952D01*
X98699761Y-29948190D01*
X98664047Y-30233904D01*
X98604523Y-30329142D01*
X98550952Y-30376761D01*
X98449761Y-30424380D01*
X98259285Y-30424380D01*
X98170000Y-30376761D01*
X99068809Y-30424380D02*
X99193809Y-29424380D01*
X99497380Y-30424380D02*
X99562857Y-29900571D01*
X99527142Y-29805333D01*
X99437857Y-29757714D01*
X99295000Y-29757714D01*
X99193809Y-29805333D01*
X99140238Y-29852952D01*
X100116428Y-30424380D02*
X100027142Y-30376761D01*
X99985476Y-30329142D01*
X99949761Y-30233904D01*
X99985476Y-29948190D01*
X100045000Y-29852952D01*
X100098571Y-29805333D01*
X100199761Y-29757714D01*
X100342619Y-29757714D01*
X100431904Y-29805333D01*
X100473571Y-29852952D01*
X100509285Y-29948190D01*
X100473571Y-30233904D01*
X100414047Y-30329142D01*
X100360476Y-30376761D01*
X100259285Y-30424380D01*
X100116428Y-30424380D01*
X100961666Y-29757714D02*
X100878333Y-30424380D01*
X100949761Y-29852952D02*
X101003333Y-29805333D01*
X101104523Y-29757714D01*
X101247380Y-29757714D01*
X101336666Y-29805333D01*
X101372380Y-29900571D01*
X101306904Y-30424380D01*
X102170000Y-30376761D02*
X102068809Y-30424380D01*
X101878333Y-30424380D01*
X101789047Y-30376761D01*
X101753333Y-30281523D01*
X101800952Y-29900571D01*
X101860476Y-29805333D01*
X101961666Y-29757714D01*
X102152142Y-29757714D01*
X102241428Y-29805333D01*
X102277142Y-29900571D01*
X102265238Y-29995809D01*
X101777142Y-30091047D01*
X102009285Y-29376761D02*
X102134285Y-29519619D01*
X102640238Y-30424380D02*
X102723571Y-29757714D01*
X102711666Y-29852952D02*
X102765238Y-29805333D01*
X102866428Y-29757714D01*
X103009285Y-29757714D01*
X103098571Y-29805333D01*
X103134285Y-29900571D01*
X103068809Y-30424380D01*
X103134285Y-29900571D02*
X103193809Y-29805333D01*
X103295000Y-29757714D01*
X103437857Y-29757714D01*
X103527142Y-29805333D01*
X103562857Y-29900571D01*
X103497380Y-30424380D01*
X104360476Y-30376761D02*
X104259285Y-30424380D01*
X104068809Y-30424380D01*
X103979523Y-30376761D01*
X103943809Y-30281523D01*
X103991428Y-29900571D01*
X104050952Y-29805333D01*
X104152142Y-29757714D01*
X104342619Y-29757714D01*
X104431904Y-29805333D01*
X104467619Y-29900571D01*
X104455714Y-29995809D01*
X103967619Y-30091047D01*
X104789047Y-30376761D02*
X104878333Y-30424380D01*
X105068809Y-30424380D01*
X105170000Y-30376761D01*
X105229523Y-30281523D01*
X105235476Y-30233904D01*
X105199761Y-30138666D01*
X105110476Y-30091047D01*
X104967619Y-30091047D01*
X104878333Y-30043428D01*
X104842619Y-29948190D01*
X104848571Y-29900571D01*
X104908095Y-29805333D01*
X105009285Y-29757714D01*
X105152142Y-29757714D01*
X105241428Y-29805333D01*
X98787142Y-64428714D02*
X98941904Y-65095380D01*
X99263333Y-64428714D01*
X100084761Y-65095380D02*
X99513333Y-65095380D01*
X99799047Y-65095380D02*
X99924047Y-64095380D01*
X99810952Y-64238238D01*
X99703809Y-64333476D01*
X99602619Y-64381095D01*
D11*
X98841214Y-57644000D02*
X99555500Y-57644000D01*
X98644785Y-58072571D02*
X99332285Y-56572571D01*
X99644785Y-58072571D01*
X100144785Y-58072571D02*
X100332285Y-56572571D01*
X100689428Y-56572571D01*
X100894785Y-56644000D01*
X101019785Y-56786857D01*
X101073357Y-56929714D01*
X101109071Y-57215428D01*
X101082285Y-57429714D01*
X100975142Y-57715428D01*
X100885857Y-57858285D01*
X100725142Y-58001142D01*
X100501928Y-58072571D01*
X100144785Y-58072571D01*
X102475142Y-56572571D02*
X102189428Y-56572571D01*
X102037642Y-56644000D01*
X101957285Y-56715428D01*
X101787642Y-56929714D01*
X101680500Y-57215428D01*
X101609071Y-57786857D01*
X101662642Y-57929714D01*
X101725142Y-58001142D01*
X101859071Y-58072571D01*
X102144785Y-58072571D01*
X102296571Y-58001142D01*
X102376928Y-57929714D01*
X102466214Y-57786857D01*
X102510857Y-57429714D01*
X102457285Y-57286857D01*
X102394785Y-57215428D01*
X102260857Y-57144000D01*
X101975142Y-57144000D01*
X101823357Y-57215428D01*
X101743000Y-57286857D01*
X101653714Y-57429714D01*
X103118000Y-56572571D02*
X104046571Y-56572571D01*
X103475142Y-57144000D01*
X103689428Y-57144000D01*
X103823357Y-57215428D01*
X103885857Y-57286857D01*
X103939428Y-57429714D01*
X103894785Y-57786857D01*
X103805500Y-57929714D01*
X103725142Y-58001142D01*
X103573357Y-58072571D01*
X103144785Y-58072571D01*
X103010857Y-58001142D01*
X102948357Y-57929714D01*
X104546571Y-56572571D02*
X105475142Y-56572571D01*
X104903714Y-57144000D01*
X105118000Y-57144000D01*
X105251928Y-57215428D01*
X105314428Y-57286857D01*
X105368000Y-57429714D01*
X105323357Y-57786857D01*
X105234071Y-57929714D01*
X105153714Y-58001142D01*
X105001928Y-58072571D01*
X104573357Y-58072571D01*
X104439428Y-58001142D01*
X104376928Y-57929714D01*
X98859071Y-60622571D02*
X98984071Y-59622571D01*
X98966214Y-59765428D02*
X99046571Y-59694000D01*
X99198357Y-59622571D01*
X99412642Y-59622571D01*
X99546571Y-59694000D01*
X99600142Y-59836857D01*
X99501928Y-60622571D01*
X99600142Y-59836857D02*
X99689428Y-59694000D01*
X99841214Y-59622571D01*
X100055500Y-59622571D01*
X100189428Y-59694000D01*
X100243000Y-59836857D01*
X100144785Y-60622571D01*
X101626928Y-59622571D02*
X101501928Y-60622571D01*
X100984071Y-59622571D02*
X100885857Y-60408285D01*
X100939428Y-60551142D01*
X101073357Y-60622571D01*
X101287642Y-60622571D01*
X101439428Y-60551142D01*
X101519785Y-60479714D01*
X102430500Y-60622571D02*
X102296571Y-60551142D01*
X102243000Y-60408285D01*
X102403714Y-59122571D01*
X102912642Y-59622571D02*
X103484071Y-59622571D01*
X103189428Y-59122571D02*
X103028714Y-60408285D01*
X103082285Y-60551142D01*
X103216214Y-60622571D01*
X103359071Y-60622571D01*
X103859071Y-60622571D02*
X103984071Y-59622571D01*
X104046571Y-59122571D02*
X103966214Y-59194000D01*
X104028714Y-59265428D01*
X104109071Y-59194000D01*
X104046571Y-59122571D01*
X104028714Y-59265428D01*
X104698357Y-59622571D02*
X104510857Y-61122571D01*
X104689428Y-59694000D02*
X104841214Y-59622571D01*
X105126928Y-59622571D01*
X105260857Y-59694000D01*
X105323357Y-59765428D01*
X105376928Y-59908285D01*
X105323357Y-60336857D01*
X105234071Y-60479714D01*
X105153714Y-60551142D01*
X105001928Y-60622571D01*
X104716214Y-60622571D01*
X104582285Y-60551142D01*
X106144785Y-60622571D02*
X106010857Y-60551142D01*
X105957285Y-60408285D01*
X106118000Y-59122571D01*
X106716214Y-60622571D02*
X106841214Y-59622571D01*
X106903714Y-59122571D02*
X106823357Y-59194000D01*
X106885857Y-59265428D01*
X106966214Y-59194000D01*
X106903714Y-59122571D01*
X106885857Y-59265428D01*
X108010857Y-60551142D02*
X107859071Y-60622571D01*
X107573357Y-60622571D01*
X107439428Y-60551142D01*
X107385857Y-60408285D01*
X107457285Y-59836857D01*
X107546571Y-59694000D01*
X107698357Y-59622571D01*
X107984071Y-59622571D01*
X108118000Y-59694000D01*
X108171571Y-59836857D01*
X108153714Y-59979714D01*
X107421571Y-60122571D01*
X108716214Y-60622571D02*
X108841214Y-59622571D01*
X108805500Y-59908285D02*
X108894785Y-59765428D01*
X108975142Y-59694000D01*
X109126928Y-59622571D01*
X109269785Y-59622571D01*
X111430500Y-60622571D02*
X111528714Y-59836857D01*
X111475142Y-59694000D01*
X111341214Y-59622571D01*
X111055500Y-59622571D01*
X110903714Y-59694000D01*
X111439428Y-60551142D02*
X111287642Y-60622571D01*
X110930500Y-60622571D01*
X110796571Y-60551142D01*
X110743000Y-60408285D01*
X110760857Y-60265428D01*
X110850142Y-60122571D01*
X111001928Y-60051142D01*
X111359071Y-60051142D01*
X111510857Y-59979714D01*
X112269785Y-59622571D02*
X112144785Y-60622571D01*
X112251928Y-59765428D02*
X112332285Y-59694000D01*
X112484071Y-59622571D01*
X112698357Y-59622571D01*
X112832285Y-59694000D01*
X112885857Y-59836857D01*
X112787642Y-60622571D01*
X114144785Y-60622571D02*
X114332285Y-59122571D01*
X114153714Y-60551142D02*
X114001928Y-60622571D01*
X113716214Y-60622571D01*
X113582285Y-60551142D01*
X113519785Y-60479714D01*
X113466214Y-60336857D01*
X113519785Y-59908285D01*
X113609071Y-59765428D01*
X113689428Y-59694000D01*
X113841214Y-59622571D01*
X114126928Y-59622571D01*
X114260857Y-59694000D01*
X99501928Y-63172571D02*
X99689428Y-61672571D01*
X99510857Y-63101142D02*
X99359071Y-63172571D01*
X99073357Y-63172571D01*
X98939428Y-63101142D01*
X98876928Y-63029714D01*
X98823357Y-62886857D01*
X98876928Y-62458285D01*
X98966214Y-62315428D01*
X99046571Y-62244000D01*
X99198357Y-62172571D01*
X99484071Y-62172571D01*
X99618000Y-62244000D01*
X100216214Y-63172571D02*
X100341214Y-62172571D01*
X100403714Y-61672571D02*
X100323357Y-61744000D01*
X100385857Y-61815428D01*
X100466214Y-61744000D01*
X100403714Y-61672571D01*
X100385857Y-61815428D01*
X100912642Y-62172571D02*
X101144785Y-63172571D01*
X101626928Y-62172571D01*
X102073357Y-63172571D02*
X102198357Y-62172571D01*
X102260857Y-61672571D02*
X102180500Y-61744000D01*
X102243000Y-61815428D01*
X102323357Y-61744000D01*
X102260857Y-61672571D01*
X102243000Y-61815428D01*
X103430500Y-63172571D02*
X103618000Y-61672571D01*
X103439428Y-63101142D02*
X103287642Y-63172571D01*
X103001928Y-63172571D01*
X102868000Y-63101142D01*
X102805500Y-63029714D01*
X102751928Y-62886857D01*
X102805500Y-62458285D01*
X102894785Y-62315428D01*
X102975142Y-62244000D01*
X103126928Y-62172571D01*
X103412642Y-62172571D01*
X103546571Y-62244000D01*
X104725142Y-63101142D02*
X104573357Y-63172571D01*
X104287642Y-63172571D01*
X104153714Y-63101142D01*
X104100142Y-62958285D01*
X104171571Y-62386857D01*
X104260857Y-62244000D01*
X104412642Y-62172571D01*
X104698357Y-62172571D01*
X104832285Y-62244000D01*
X104885857Y-62386857D01*
X104868000Y-62529714D01*
X104135857Y-62672571D01*
X105430500Y-63172571D02*
X105555500Y-62172571D01*
X105519785Y-62458285D02*
X105609071Y-62315428D01*
X105689428Y-62244000D01*
X105841214Y-62172571D01*
X105984071Y-62172571D01*
X99579869Y-54304428D02*
X98746535Y-54304428D01*
X98582845Y-55613952D02*
X98895345Y-53113952D01*
X100085821Y-53113952D01*
X101038202Y-53113952D02*
X100785226Y-55137761D01*
X100874511Y-55375857D01*
X100978678Y-55494904D01*
X101201892Y-55613952D01*
X101678083Y-55613952D01*
X101931059Y-55494904D01*
X102064988Y-55375857D01*
X102213797Y-55137761D01*
X102466773Y-53113952D01*
X103344750Y-55613952D02*
X103657250Y-53113952D01*
X104773321Y-55613952D01*
X105085821Y-53113952D01*
X107422130Y-55375857D02*
X107288202Y-55494904D01*
X106916178Y-55613952D01*
X106678083Y-55613952D01*
X106335821Y-55494904D01*
X106127488Y-55256809D01*
X106038202Y-55018714D01*
X105978678Y-54542523D01*
X106023321Y-54185380D01*
X106201892Y-53709190D01*
X106350702Y-53471095D01*
X106618559Y-53233000D01*
X106990583Y-53113952D01*
X107228678Y-53113952D01*
X107570940Y-53233000D01*
X107675107Y-53352047D01*
X109059035Y-56566333D02*
X108954869Y-56447285D01*
X108761416Y-56090142D01*
X108672130Y-55852047D01*
X108597726Y-55494904D01*
X108553083Y-54899666D01*
X108612607Y-54423476D01*
X108806059Y-53828238D01*
X108969750Y-53471095D01*
X109118559Y-53233000D01*
X109401297Y-52875857D01*
X109535226Y-52756809D01*
X111678083Y-56566333D02*
X111812011Y-56447285D01*
X112094750Y-56090142D01*
X112243559Y-55852047D01*
X112407250Y-55494904D01*
X112600702Y-54899666D01*
X112660226Y-54423476D01*
X112615583Y-53828238D01*
X112541178Y-53471095D01*
X112451892Y-53233000D01*
X112258440Y-52875857D01*
X112154273Y-52756809D01*
D12*
X116840000Y-58353000D02*
X115510000Y-58353000D01*
X115510000Y-58353000D02*
X115510000Y-57023000D01*
X118110000Y-58353000D02*
X118110000Y-55753000D01*
X118110000Y-55753000D02*
X115510000Y-55753000D01*
X115510000Y-55753000D02*
X115510000Y-53153000D01*
X120710000Y-53153000D02*
X115510000Y-53153000D01*
X120710000Y-58353000D02*
X120710000Y-53153000D01*
X120710000Y-58353000D02*
X118110000Y-58353000D01*
X126360000Y-83789759D02*
X125730000Y-83789759D01*
X126045000Y-83474759D02*
X126045000Y-84104759D01*
X124608000Y-90216000D02*
X123804000Y-90216000D01*
X124839000Y-90176000D02*
X123573000Y-90176000D01*
X125008000Y-90136000D02*
X123404000Y-90136000D01*
X125146000Y-90096000D02*
X123266000Y-90096000D01*
X125265000Y-90056000D02*
X123147000Y-90056000D01*
X125371000Y-90016000D02*
X123041000Y-90016000D01*
X125468000Y-89976000D02*
X122944000Y-89976000D01*
X125556000Y-89936000D02*
X122856000Y-89936000D01*
X125638000Y-89896000D02*
X122774000Y-89896000D01*
X125715000Y-89856000D02*
X122697000Y-89856000D01*
X125787000Y-89816000D02*
X122625000Y-89816000D01*
X125856000Y-89776000D02*
X122556000Y-89776000D01*
X125920000Y-89736000D02*
X122492000Y-89736000D01*
X125982000Y-89696000D02*
X122430000Y-89696000D01*
X126040000Y-89656000D02*
X122372000Y-89656000D01*
X126096000Y-89616000D02*
X122316000Y-89616000D01*
X126150000Y-89576000D02*
X122262000Y-89576000D01*
X126201000Y-89536000D02*
X122211000Y-89536000D01*
X126250000Y-89496000D02*
X122162000Y-89496000D01*
X126298000Y-89456000D02*
X122114000Y-89456000D01*
X126343000Y-89416000D02*
X122069000Y-89416000D01*
X126388000Y-89376000D02*
X122024000Y-89376000D01*
X126430000Y-89336000D02*
X121982000Y-89336000D01*
X126471000Y-89296000D02*
X121941000Y-89296000D01*
X123166000Y-89256000D02*
X121901000Y-89256000D01*
X126511000Y-89256000D02*
X125246000Y-89256000D01*
X123166000Y-89216000D02*
X121863000Y-89216000D01*
X126549000Y-89216000D02*
X125246000Y-89216000D01*
X123166000Y-89176000D02*
X121826000Y-89176000D01*
X126586000Y-89176000D02*
X125246000Y-89176000D01*
X123166000Y-89136000D02*
X121790000Y-89136000D01*
X126622000Y-89136000D02*
X125246000Y-89136000D01*
X123166000Y-89096000D02*
X121756000Y-89096000D01*
X126656000Y-89096000D02*
X125246000Y-89096000D01*
X123166000Y-89056000D02*
X121722000Y-89056000D01*
X126690000Y-89056000D02*
X125246000Y-89056000D01*
X123166000Y-89016000D02*
X121690000Y-89016000D01*
X126722000Y-89016000D02*
X125246000Y-89016000D01*
X123166000Y-88976000D02*
X121658000Y-88976000D01*
X126754000Y-88976000D02*
X125246000Y-88976000D01*
X123166000Y-88936000D02*
X121628000Y-88936000D01*
X126784000Y-88936000D02*
X125246000Y-88936000D01*
X123166000Y-88896000D02*
X121599000Y-88896000D01*
X126813000Y-88896000D02*
X125246000Y-88896000D01*
X123166000Y-88856000D02*
X121570000Y-88856000D01*
X126842000Y-88856000D02*
X125246000Y-88856000D01*
X123166000Y-88816000D02*
X121542000Y-88816000D01*
X126870000Y-88816000D02*
X125246000Y-88816000D01*
X123166000Y-88776000D02*
X121516000Y-88776000D01*
X126896000Y-88776000D02*
X125246000Y-88776000D01*
X123166000Y-88736000D02*
X121490000Y-88736000D01*
X126922000Y-88736000D02*
X125246000Y-88736000D01*
X123166000Y-88696000D02*
X121464000Y-88696000D01*
X126948000Y-88696000D02*
X125246000Y-88696000D01*
X123166000Y-88656000D02*
X121440000Y-88656000D01*
X126972000Y-88656000D02*
X125246000Y-88656000D01*
X123166000Y-88616000D02*
X121416000Y-88616000D01*
X126996000Y-88616000D02*
X125246000Y-88616000D01*
X123166000Y-88576000D02*
X121394000Y-88576000D01*
X127018000Y-88576000D02*
X125246000Y-88576000D01*
X123166000Y-88536000D02*
X121372000Y-88536000D01*
X127040000Y-88536000D02*
X125246000Y-88536000D01*
X123166000Y-88496000D02*
X121350000Y-88496000D01*
X127062000Y-88496000D02*
X125246000Y-88496000D01*
X123166000Y-88456000D02*
X121330000Y-88456000D01*
X127082000Y-88456000D02*
X125246000Y-88456000D01*
X123166000Y-88416000D02*
X121310000Y-88416000D01*
X127102000Y-88416000D02*
X125246000Y-88416000D01*
X123166000Y-88376000D02*
X121290000Y-88376000D01*
X127122000Y-88376000D02*
X125246000Y-88376000D01*
X123166000Y-88336000D02*
X121272000Y-88336000D01*
X127140000Y-88336000D02*
X125246000Y-88336000D01*
X123166000Y-88296000D02*
X121254000Y-88296000D01*
X127158000Y-88296000D02*
X125246000Y-88296000D01*
X123166000Y-88256000D02*
X121236000Y-88256000D01*
X127176000Y-88256000D02*
X125246000Y-88256000D01*
X123166000Y-88216000D02*
X121220000Y-88216000D01*
X127192000Y-88216000D02*
X125246000Y-88216000D01*
X123166000Y-88176000D02*
X121204000Y-88176000D01*
X127208000Y-88176000D02*
X125246000Y-88176000D01*
X123166000Y-88136000D02*
X121188000Y-88136000D01*
X127224000Y-88136000D02*
X125246000Y-88136000D01*
X123166000Y-88096000D02*
X121173000Y-88096000D01*
X127239000Y-88096000D02*
X125246000Y-88096000D01*
X123166000Y-88056000D02*
X121159000Y-88056000D01*
X127253000Y-88056000D02*
X125246000Y-88056000D01*
X123166000Y-88016000D02*
X121145000Y-88016000D01*
X127267000Y-88016000D02*
X125246000Y-88016000D01*
X123166000Y-87976000D02*
X121132000Y-87976000D01*
X127280000Y-87976000D02*
X125246000Y-87976000D01*
X123166000Y-87936000D02*
X121120000Y-87936000D01*
X127292000Y-87936000D02*
X125246000Y-87936000D01*
X123166000Y-87896000D02*
X121108000Y-87896000D01*
X127304000Y-87896000D02*
X125246000Y-87896000D01*
X123166000Y-87856000D02*
X121096000Y-87856000D01*
X127316000Y-87856000D02*
X125246000Y-87856000D01*
X123166000Y-87816000D02*
X121085000Y-87816000D01*
X127327000Y-87816000D02*
X125246000Y-87816000D01*
X123166000Y-87776000D02*
X121075000Y-87776000D01*
X127337000Y-87776000D02*
X125246000Y-87776000D01*
X123166000Y-87736000D02*
X121065000Y-87736000D01*
X127347000Y-87736000D02*
X125246000Y-87736000D01*
X123166000Y-87696000D02*
X121056000Y-87696000D01*
X127356000Y-87696000D02*
X125246000Y-87696000D01*
X123166000Y-87655000D02*
X121047000Y-87655000D01*
X127365000Y-87655000D02*
X125246000Y-87655000D01*
X123166000Y-87615000D02*
X121039000Y-87615000D01*
X127373000Y-87615000D02*
X125246000Y-87615000D01*
X123166000Y-87575000D02*
X121031000Y-87575000D01*
X127381000Y-87575000D02*
X125246000Y-87575000D01*
X123166000Y-87535000D02*
X121024000Y-87535000D01*
X127388000Y-87535000D02*
X125246000Y-87535000D01*
X123166000Y-87495000D02*
X121017000Y-87495000D01*
X127395000Y-87495000D02*
X125246000Y-87495000D01*
X123166000Y-87455000D02*
X121011000Y-87455000D01*
X127401000Y-87455000D02*
X125246000Y-87455000D01*
X123166000Y-87415000D02*
X121005000Y-87415000D01*
X127407000Y-87415000D02*
X125246000Y-87415000D01*
X123166000Y-87375000D02*
X121000000Y-87375000D01*
X127412000Y-87375000D02*
X125246000Y-87375000D01*
X123166000Y-87335000D02*
X120995000Y-87335000D01*
X127417000Y-87335000D02*
X125246000Y-87335000D01*
X123166000Y-87295000D02*
X120991000Y-87295000D01*
X127421000Y-87295000D02*
X125246000Y-87295000D01*
X123166000Y-87255000D02*
X120988000Y-87255000D01*
X127424000Y-87255000D02*
X125246000Y-87255000D01*
X123166000Y-87215000D02*
X120984000Y-87215000D01*
X127428000Y-87215000D02*
X125246000Y-87215000D01*
X127430000Y-87175000D02*
X120982000Y-87175000D01*
X127433000Y-87135000D02*
X120979000Y-87135000D01*
X127434000Y-87095000D02*
X120978000Y-87095000D01*
X127436000Y-87055000D02*
X120976000Y-87055000D01*
X127436000Y-87015000D02*
X120976000Y-87015000D01*
X127436000Y-86975000D02*
X120976000Y-86975000D01*
X127476000Y-86975000D02*
G75*
G03X127476000Y-86975000I-3270000J0D01*
G01*
X135350000Y-86975000D02*
G75*
G03X135350000Y-86975000I-3270000J0D01*
G01*
X128850000Y-86975000D02*
X135310000Y-86975000D01*
X128850000Y-86935000D02*
X135310000Y-86935000D01*
X128850000Y-86895000D02*
X135310000Y-86895000D01*
X128852000Y-86855000D02*
X135308000Y-86855000D01*
X128853000Y-86815000D02*
X135307000Y-86815000D01*
X128856000Y-86775000D02*
X135304000Y-86775000D01*
X128858000Y-86735000D02*
X131040000Y-86735000D01*
X133120000Y-86735000D02*
X135302000Y-86735000D01*
X128862000Y-86695000D02*
X131040000Y-86695000D01*
X133120000Y-86695000D02*
X135298000Y-86695000D01*
X128865000Y-86655000D02*
X131040000Y-86655000D01*
X133120000Y-86655000D02*
X135295000Y-86655000D01*
X128869000Y-86615000D02*
X131040000Y-86615000D01*
X133120000Y-86615000D02*
X135291000Y-86615000D01*
X128874000Y-86575000D02*
X131040000Y-86575000D01*
X133120000Y-86575000D02*
X135286000Y-86575000D01*
X128879000Y-86535000D02*
X131040000Y-86535000D01*
X133120000Y-86535000D02*
X135281000Y-86535000D01*
X128885000Y-86495000D02*
X131040000Y-86495000D01*
X133120000Y-86495000D02*
X135275000Y-86495000D01*
X128891000Y-86455000D02*
X131040000Y-86455000D01*
X133120000Y-86455000D02*
X135269000Y-86455000D01*
X128898000Y-86415000D02*
X131040000Y-86415000D01*
X133120000Y-86415000D02*
X135262000Y-86415000D01*
X128905000Y-86375000D02*
X131040000Y-86375000D01*
X133120000Y-86375000D02*
X135255000Y-86375000D01*
X128913000Y-86335000D02*
X131040000Y-86335000D01*
X133120000Y-86335000D02*
X135247000Y-86335000D01*
X128921000Y-86295000D02*
X131040000Y-86295000D01*
X133120000Y-86295000D02*
X135239000Y-86295000D01*
X128930000Y-86254000D02*
X131040000Y-86254000D01*
X133120000Y-86254000D02*
X135230000Y-86254000D01*
X128939000Y-86214000D02*
X131040000Y-86214000D01*
X133120000Y-86214000D02*
X135221000Y-86214000D01*
X128949000Y-86174000D02*
X131040000Y-86174000D01*
X133120000Y-86174000D02*
X135211000Y-86174000D01*
X128959000Y-86134000D02*
X131040000Y-86134000D01*
X133120000Y-86134000D02*
X135201000Y-86134000D01*
X128970000Y-86094000D02*
X131040000Y-86094000D01*
X133120000Y-86094000D02*
X135190000Y-86094000D01*
X128982000Y-86054000D02*
X131040000Y-86054000D01*
X133120000Y-86054000D02*
X135178000Y-86054000D01*
X128994000Y-86014000D02*
X131040000Y-86014000D01*
X133120000Y-86014000D02*
X135166000Y-86014000D01*
X129006000Y-85974000D02*
X131040000Y-85974000D01*
X133120000Y-85974000D02*
X135154000Y-85974000D01*
X129019000Y-85934000D02*
X131040000Y-85934000D01*
X133120000Y-85934000D02*
X135141000Y-85934000D01*
X129033000Y-85894000D02*
X131040000Y-85894000D01*
X133120000Y-85894000D02*
X135127000Y-85894000D01*
X129047000Y-85854000D02*
X131040000Y-85854000D01*
X133120000Y-85854000D02*
X135113000Y-85854000D01*
X129062000Y-85814000D02*
X131040000Y-85814000D01*
X133120000Y-85814000D02*
X135098000Y-85814000D01*
X129078000Y-85774000D02*
X131040000Y-85774000D01*
X133120000Y-85774000D02*
X135082000Y-85774000D01*
X129094000Y-85734000D02*
X131040000Y-85734000D01*
X133120000Y-85734000D02*
X135066000Y-85734000D01*
X129110000Y-85694000D02*
X131040000Y-85694000D01*
X133120000Y-85694000D02*
X135050000Y-85694000D01*
X129128000Y-85654000D02*
X131040000Y-85654000D01*
X133120000Y-85654000D02*
X135032000Y-85654000D01*
X129146000Y-85614000D02*
X131040000Y-85614000D01*
X133120000Y-85614000D02*
X135014000Y-85614000D01*
X129164000Y-85574000D02*
X131040000Y-85574000D01*
X133120000Y-85574000D02*
X134996000Y-85574000D01*
X129184000Y-85534000D02*
X131040000Y-85534000D01*
X133120000Y-85534000D02*
X134976000Y-85534000D01*
X129204000Y-85494000D02*
X131040000Y-85494000D01*
X133120000Y-85494000D02*
X134956000Y-85494000D01*
X129224000Y-85454000D02*
X131040000Y-85454000D01*
X133120000Y-85454000D02*
X134936000Y-85454000D01*
X129246000Y-85414000D02*
X131040000Y-85414000D01*
X133120000Y-85414000D02*
X134914000Y-85414000D01*
X129268000Y-85374000D02*
X131040000Y-85374000D01*
X133120000Y-85374000D02*
X134892000Y-85374000D01*
X129290000Y-85334000D02*
X131040000Y-85334000D01*
X133120000Y-85334000D02*
X134870000Y-85334000D01*
X129314000Y-85294000D02*
X131040000Y-85294000D01*
X133120000Y-85294000D02*
X134846000Y-85294000D01*
X129338000Y-85254000D02*
X131040000Y-85254000D01*
X133120000Y-85254000D02*
X134822000Y-85254000D01*
X129364000Y-85214000D02*
X131040000Y-85214000D01*
X133120000Y-85214000D02*
X134796000Y-85214000D01*
X129390000Y-85174000D02*
X131040000Y-85174000D01*
X133120000Y-85174000D02*
X134770000Y-85174000D01*
X129416000Y-85134000D02*
X131040000Y-85134000D01*
X133120000Y-85134000D02*
X134744000Y-85134000D01*
X129444000Y-85094000D02*
X131040000Y-85094000D01*
X133120000Y-85094000D02*
X134716000Y-85094000D01*
X129473000Y-85054000D02*
X131040000Y-85054000D01*
X133120000Y-85054000D02*
X134687000Y-85054000D01*
X129502000Y-85014000D02*
X131040000Y-85014000D01*
X133120000Y-85014000D02*
X134658000Y-85014000D01*
X129532000Y-84974000D02*
X131040000Y-84974000D01*
X133120000Y-84974000D02*
X134628000Y-84974000D01*
X129564000Y-84934000D02*
X131040000Y-84934000D01*
X133120000Y-84934000D02*
X134596000Y-84934000D01*
X129596000Y-84894000D02*
X131040000Y-84894000D01*
X133120000Y-84894000D02*
X134564000Y-84894000D01*
X129630000Y-84854000D02*
X131040000Y-84854000D01*
X133120000Y-84854000D02*
X134530000Y-84854000D01*
X129664000Y-84814000D02*
X131040000Y-84814000D01*
X133120000Y-84814000D02*
X134496000Y-84814000D01*
X129700000Y-84774000D02*
X131040000Y-84774000D01*
X133120000Y-84774000D02*
X134460000Y-84774000D01*
X129737000Y-84734000D02*
X131040000Y-84734000D01*
X133120000Y-84734000D02*
X134423000Y-84734000D01*
X129775000Y-84694000D02*
X131040000Y-84694000D01*
X133120000Y-84694000D02*
X134385000Y-84694000D01*
X129815000Y-84654000D02*
X134345000Y-84654000D01*
X129856000Y-84614000D02*
X134304000Y-84614000D01*
X129898000Y-84574000D02*
X134262000Y-84574000D01*
X129943000Y-84534000D02*
X134217000Y-84534000D01*
X129988000Y-84494000D02*
X134172000Y-84494000D01*
X130036000Y-84454000D02*
X134124000Y-84454000D01*
X130085000Y-84414000D02*
X134075000Y-84414000D01*
X130136000Y-84374000D02*
X134024000Y-84374000D01*
X130190000Y-84334000D02*
X133970000Y-84334000D01*
X130246000Y-84294000D02*
X133914000Y-84294000D01*
X130304000Y-84254000D02*
X133856000Y-84254000D01*
X130366000Y-84214000D02*
X133794000Y-84214000D01*
X130430000Y-84174000D02*
X133730000Y-84174000D01*
X130499000Y-84134000D02*
X133661000Y-84134000D01*
X130571000Y-84094000D02*
X133589000Y-84094000D01*
X130648000Y-84054000D02*
X133512000Y-84054000D01*
X130730000Y-84014000D02*
X133430000Y-84014000D01*
X130818000Y-83974000D02*
X133342000Y-83974000D01*
X130915000Y-83934000D02*
X133245000Y-83934000D01*
X131021000Y-83894000D02*
X133139000Y-83894000D01*
X131140000Y-83854000D02*
X133020000Y-83854000D01*
X131278000Y-83814000D02*
X132882000Y-83814000D01*
X131447000Y-83774000D02*
X132713000Y-83774000D01*
X131678000Y-83734000D02*
X132482000Y-83734000D01*
X130241000Y-90475241D02*
X130241000Y-89845241D01*
X129926000Y-90160241D02*
X130556000Y-90160241D01*
D13*
X91090000Y-43465000D02*
G75*
G02X89590000Y-44965000I-1500000J0D01*
G01*
X89590000Y-44965000D02*
X88590000Y-44965000D01*
X86590000Y-44965000D02*
X86090000Y-44965000D01*
X84090000Y-44965000D02*
X83590000Y-44965000D01*
X81590000Y-44965000D02*
X80590000Y-44965000D01*
X91090000Y-43465000D02*
X91090000Y-38965000D01*
X80590000Y-44965000D02*
G75*
G02X79090000Y-43465000I0J1500000D01*
G01*
X79090000Y-43465000D02*
X79090000Y-38965000D01*
X79090000Y-35965000D02*
X79090000Y-34465000D01*
X79090000Y-33965000D02*
G75*
G02X80590000Y-32465000I1500000J0D01*
G01*
X79090000Y-34465000D02*
X79090000Y-33965000D01*
X91090000Y-35965000D02*
X91090000Y-33965000D01*
X89590000Y-32465000D02*
G75*
G02X91090000Y-33965000I0J-1500000D01*
G01*
X80590000Y-32465000D02*
X89590000Y-32465000D01*
X87782582Y-37465000D02*
G75*
G03X87782582Y-37465000I-2692582J0D01*
G01*
X75082582Y-75565000D02*
G75*
G03X75082582Y-75565000I-2692582J0D01*
G01*
X67890000Y-70565000D02*
X76890000Y-70565000D01*
X76890000Y-70565000D02*
G75*
G02X78390000Y-72065000I0J-1500000D01*
G01*
X78390000Y-74065000D02*
X78390000Y-72065000D01*
X66390000Y-72565000D02*
X66390000Y-72065000D01*
X66390000Y-72065000D02*
G75*
G02X67890000Y-70565000I1500000J0D01*
G01*
X66390000Y-74065000D02*
X66390000Y-72565000D01*
X66390000Y-81565000D02*
X66390000Y-77065000D01*
X67890000Y-83065000D02*
G75*
G02X66390000Y-81565000I0J1500000D01*
G01*
X78390000Y-81565000D02*
X78390000Y-77065000D01*
X68890000Y-83065000D02*
X67890000Y-83065000D01*
X71390000Y-83065000D02*
X70890000Y-83065000D01*
X73890000Y-83065000D02*
X73390000Y-83065000D01*
X76890000Y-83065000D02*
X75890000Y-83065000D01*
X78390000Y-81565000D02*
G75*
G02X76890000Y-83065000I-1500000J0D01*
G01*
X78390000Y-119665000D02*
G75*
G02X76890000Y-121165000I-1500000J0D01*
G01*
X76890000Y-121165000D02*
X75890000Y-121165000D01*
X73890000Y-121165000D02*
X73390000Y-121165000D01*
X71390000Y-121165000D02*
X70890000Y-121165000D01*
X68890000Y-121165000D02*
X67890000Y-121165000D01*
X78390000Y-119665000D02*
X78390000Y-115165000D01*
X67890000Y-121165000D02*
G75*
G02X66390000Y-119665000I0J1500000D01*
G01*
X66390000Y-119665000D02*
X66390000Y-115165000D01*
X66390000Y-112165000D02*
X66390000Y-110665000D01*
X66390000Y-110165000D02*
G75*
G02X67890000Y-108665000I1500000J0D01*
G01*
X66390000Y-110665000D02*
X66390000Y-110165000D01*
X78390000Y-112165000D02*
X78390000Y-110165000D01*
X76890000Y-108665000D02*
G75*
G02X78390000Y-110165000I0J-1500000D01*
G01*
X67890000Y-108665000D02*
X76890000Y-108665000D01*
X75082582Y-113665000D02*
G75*
G03X75082582Y-113665000I-2692582J0D01*
G01*
X91090000Y-176815000D02*
G75*
G02X89590000Y-178315000I-1500000J0D01*
G01*
X89590000Y-178315000D02*
X88590000Y-178315000D01*
X86590000Y-178315000D02*
X86090000Y-178315000D01*
X84090000Y-178315000D02*
X83590000Y-178315000D01*
X81590000Y-178315000D02*
X80590000Y-178315000D01*
X91090000Y-176815000D02*
X91090000Y-172315000D01*
X80590000Y-178315000D02*
G75*
G02X79090000Y-176815000I0J1500000D01*
G01*
X79090000Y-176815000D02*
X79090000Y-172315000D01*
X79090000Y-169315000D02*
X79090000Y-167815000D01*
X79090000Y-167315000D02*
G75*
G02X80590000Y-165815000I1500000J0D01*
G01*
X79090000Y-167815000D02*
X79090000Y-167315000D01*
X91090000Y-169315000D02*
X91090000Y-167315000D01*
X89590000Y-165815000D02*
G75*
G02X91090000Y-167315000I0J-1500000D01*
G01*
X80590000Y-165815000D02*
X89590000Y-165815000D01*
X87782582Y-170815000D02*
G75*
G03X87782582Y-170815000I-2692582J0D01*
G01*
X75082582Y-151765000D02*
G75*
G03X75082582Y-151765000I-2692582J0D01*
G01*
X67890000Y-146765000D02*
X76890000Y-146765000D01*
X76890000Y-146765000D02*
G75*
G02X78390000Y-148265000I0J-1500000D01*
G01*
X78390000Y-150265000D02*
X78390000Y-148265000D01*
X66390000Y-148765000D02*
X66390000Y-148265000D01*
X66390000Y-148265000D02*
G75*
G02X67890000Y-146765000I1500000J0D01*
G01*
X66390000Y-150265000D02*
X66390000Y-148765000D01*
X66390000Y-157765000D02*
X66390000Y-153265000D01*
X67890000Y-159265000D02*
G75*
G02X66390000Y-157765000I0J1500000D01*
G01*
X78390000Y-157765000D02*
X78390000Y-153265000D01*
X68890000Y-159265000D02*
X67890000Y-159265000D01*
X71390000Y-159265000D02*
X70890000Y-159265000D01*
X73890000Y-159265000D02*
X73390000Y-159265000D01*
X76890000Y-159265000D02*
X75890000Y-159265000D01*
X78390000Y-157765000D02*
G75*
G02X76890000Y-159265000I-1500000J0D01*
G01*
D12*
X68230000Y-86407000D02*
X76470000Y-86407000D01*
X68230000Y-91647000D02*
X76470000Y-91647000D01*
X68230000Y-86407000D02*
X68230000Y-91647000D01*
X76470000Y-86407000D02*
X76470000Y-91647000D01*
X114150000Y-34644000D02*
X106910000Y-34644000D01*
X114150000Y-31904000D02*
X106910000Y-31904000D01*
X114150000Y-34644000D02*
X114150000Y-31904000D01*
X106910000Y-34644000D02*
X106910000Y-31904000D01*
X107037000Y-49122000D02*
X107037000Y-46382000D01*
X114277000Y-49122000D02*
X114277000Y-46382000D01*
X114277000Y-46382000D02*
X107037000Y-46382000D01*
X114277000Y-49122000D02*
X107037000Y-49122000D01*
X132104000Y-34644000D02*
X124864000Y-34644000D01*
X132104000Y-31904000D02*
X124864000Y-31904000D01*
X132104000Y-34644000D02*
X132104000Y-31904000D01*
X124864000Y-34644000D02*
X124864000Y-31904000D01*
X124864000Y-46382000D02*
X132104000Y-46382000D01*
X124864000Y-49122000D02*
X132104000Y-49122000D01*
X124864000Y-46382000D02*
X124864000Y-49122000D01*
X132104000Y-46382000D02*
X132104000Y-49122000D01*
X118595000Y-66902000D02*
X111355000Y-66902000D01*
X118595000Y-64162000D02*
X111355000Y-64162000D01*
X118595000Y-66902000D02*
X118595000Y-64162000D01*
X111355000Y-66902000D02*
X111355000Y-64162000D01*
X111355000Y-81507000D02*
X111355000Y-78767000D01*
X118595000Y-81507000D02*
X118595000Y-78767000D01*
X118595000Y-78767000D02*
X111355000Y-78767000D01*
X118595000Y-81507000D02*
X111355000Y-81507000D01*
X127354000Y-76605000D02*
X124614000Y-76605000D01*
X127354000Y-69365000D02*
X124614000Y-69365000D01*
X124614000Y-69365000D02*
X124614000Y-76605000D01*
X127354000Y-69365000D02*
X127354000Y-76605000D01*
X107477000Y-87195000D02*
X107477000Y-84255000D01*
X107237000Y-87195000D02*
X107237000Y-84255000D01*
X107357000Y-87195000D02*
X107357000Y-84255000D01*
X101797000Y-85725000D02*
X102817000Y-85725000D01*
X109277000Y-85725000D02*
X108257000Y-85725000D01*
X102817000Y-87195000D02*
X108257000Y-87195000D01*
X102817000Y-84255000D02*
X102817000Y-87195000D01*
X108257000Y-84255000D02*
X102817000Y-84255000D01*
X108257000Y-87195000D02*
X108257000Y-84255000D01*
X102817000Y-88065000D02*
X102817000Y-91005000D01*
X102817000Y-91005000D02*
X108257000Y-91005000D01*
X108257000Y-91005000D02*
X108257000Y-88065000D01*
X108257000Y-88065000D02*
X102817000Y-88065000D01*
X101797000Y-89535000D02*
X102817000Y-89535000D01*
X109277000Y-89535000D02*
X108257000Y-89535000D01*
X103717000Y-88065000D02*
X103717000Y-91005000D01*
X103837000Y-88065000D02*
X103837000Y-91005000D01*
X103597000Y-88065000D02*
X103597000Y-91005000D01*
X128944000Y-59840000D02*
X128944000Y-62080000D01*
X128944000Y-62080000D02*
X133184000Y-62080000D01*
X133184000Y-62080000D02*
X133184000Y-59840000D01*
X133184000Y-59840000D02*
X128944000Y-59840000D01*
X128294000Y-60960000D02*
X128944000Y-60960000D01*
X133834000Y-60960000D02*
X133184000Y-60960000D01*
X129664000Y-59840000D02*
X129664000Y-62080000D01*
X129784000Y-59840000D02*
X129784000Y-62080000D01*
X129544000Y-59840000D02*
X129544000Y-62080000D01*
X129544000Y-62761000D02*
X129544000Y-65001000D01*
X129784000Y-62761000D02*
X129784000Y-65001000D01*
X129664000Y-62761000D02*
X129664000Y-65001000D01*
X133834000Y-63881000D02*
X133184000Y-63881000D01*
X128294000Y-63881000D02*
X128944000Y-63881000D01*
X133184000Y-62761000D02*
X128944000Y-62761000D01*
X133184000Y-65001000D02*
X133184000Y-62761000D01*
X128944000Y-65001000D02*
X133184000Y-65001000D01*
X128944000Y-62761000D02*
X128944000Y-65001000D01*
D13*
X114427000Y-91821000D02*
X114427000Y-99441000D01*
X114427000Y-93599000D02*
X98298000Y-93599000D01*
X98298000Y-99441000D02*
X98298000Y-93599000D01*
X114427000Y-99441000D02*
X98298000Y-99441000D01*
X114427000Y-91821000D02*
X98298000Y-91821000D01*
X98298000Y-93599000D02*
X98298000Y-91821000D01*
X112915575Y-92710000D02*
G75*
G03X112915575Y-92710000I-647575J0D01*
G01*
X101104575Y-92710000D02*
G75*
G03X101104575Y-92710000I-647575J0D01*
G01*
X111887000Y-92710000D02*
X112649000Y-92710000D01*
X112268000Y-92329000D02*
X112268000Y-93091000D01*
X100076000Y-92710000D02*
X100838000Y-92710000D01*
D12*
X100270000Y-72390000D02*
X102930000Y-72390000D01*
X100270000Y-72390000D02*
X100270000Y-80070000D01*
X100270000Y-80070000D02*
X102930000Y-80070000D01*
X102930000Y-72390000D02*
X102930000Y-80070000D01*
X102930000Y-69790000D02*
X102930000Y-71120000D01*
X101600000Y-69790000D02*
X102930000Y-69790000D01*
X134620000Y-72330000D02*
X135950000Y-72330000D01*
X135950000Y-72330000D02*
X135950000Y-73660000D01*
X133350000Y-72330000D02*
X133350000Y-74930000D01*
X133350000Y-74930000D02*
X135950000Y-74930000D01*
X135950000Y-74930000D02*
X135950000Y-80070000D01*
X130750000Y-80070000D02*
X135950000Y-80070000D01*
X130750000Y-72330000D02*
X130750000Y-80070000D01*
X130750000Y-72330000D02*
X133350000Y-72330000D01*
X82074000Y-90959000D02*
X82074000Y-93699000D01*
X82074000Y-93699000D02*
X88614000Y-93699000D01*
X88614000Y-93699000D02*
X88614000Y-90959000D01*
X88614000Y-90959000D02*
X82074000Y-90959000D01*
X81304000Y-92329000D02*
X82074000Y-92329000D01*
X89384000Y-92329000D02*
X88614000Y-92329000D01*
X89384000Y-95631000D02*
X88614000Y-95631000D01*
X81304000Y-95631000D02*
X82074000Y-95631000D01*
X88614000Y-94261000D02*
X82074000Y-94261000D01*
X88614000Y-97001000D02*
X88614000Y-94261000D01*
X82074000Y-97001000D02*
X88614000Y-97001000D01*
X82074000Y-94261000D02*
X82074000Y-97001000D01*
X88614000Y-90397000D02*
X88614000Y-87657000D01*
X88614000Y-87657000D02*
X82074000Y-87657000D01*
X82074000Y-87657000D02*
X82074000Y-90397000D01*
X82074000Y-90397000D02*
X88614000Y-90397000D01*
X89384000Y-89027000D02*
X88614000Y-89027000D01*
X81304000Y-89027000D02*
X82074000Y-89027000D01*
X88614000Y-87095000D02*
X88614000Y-84355000D01*
X88614000Y-84355000D02*
X82074000Y-84355000D01*
X82074000Y-84355000D02*
X82074000Y-87095000D01*
X82074000Y-87095000D02*
X88614000Y-87095000D01*
X89384000Y-85725000D02*
X88614000Y-85725000D01*
X81304000Y-85725000D02*
X82074000Y-85725000D01*
X61468000Y-157075000D02*
X61468000Y-156305000D01*
X61468000Y-148995000D02*
X61468000Y-149765000D01*
X62838000Y-156305000D02*
X62838000Y-149765000D01*
X60098000Y-156305000D02*
X62838000Y-156305000D01*
X60098000Y-149765000D02*
X60098000Y-156305000D01*
X62838000Y-149765000D02*
X60098000Y-149765000D01*
X59409000Y-149765000D02*
X56669000Y-149765000D01*
X56669000Y-149765000D02*
X56669000Y-156305000D01*
X56669000Y-156305000D02*
X59409000Y-156305000D01*
X59409000Y-156305000D02*
X59409000Y-149765000D01*
X58039000Y-148995000D02*
X58039000Y-149765000D01*
X58039000Y-157075000D02*
X58039000Y-156305000D01*
X76430000Y-60960000D02*
X75660000Y-60960000D01*
X68350000Y-60960000D02*
X69120000Y-60960000D01*
X75660000Y-59590000D02*
X69120000Y-59590000D01*
X75660000Y-62330000D02*
X75660000Y-59590000D01*
X69120000Y-62330000D02*
X75660000Y-62330000D01*
X69120000Y-59590000D02*
X69120000Y-62330000D01*
X68350000Y-64262000D02*
X69120000Y-64262000D01*
X76430000Y-64262000D02*
X75660000Y-64262000D01*
X69120000Y-65632000D02*
X75660000Y-65632000D01*
X69120000Y-62892000D02*
X69120000Y-65632000D01*
X75660000Y-62892000D02*
X69120000Y-62892000D01*
X75660000Y-65632000D02*
X75660000Y-62892000D01*
X68350000Y-67564000D02*
X69120000Y-67564000D01*
X76430000Y-67564000D02*
X75660000Y-67564000D01*
X69120000Y-68934000D02*
X75660000Y-68934000D01*
X69120000Y-66194000D02*
X69120000Y-68934000D01*
X75660000Y-66194000D02*
X69120000Y-66194000D01*
X75660000Y-68934000D02*
X75660000Y-66194000D01*
X72109000Y-131985000D02*
X69369000Y-131985000D01*
X69369000Y-131985000D02*
X69369000Y-138525000D01*
X69369000Y-138525000D02*
X72109000Y-138525000D01*
X72109000Y-138525000D02*
X72109000Y-131985000D01*
X70739000Y-131215000D02*
X70739000Y-131985000D01*
X70739000Y-139295000D02*
X70739000Y-138525000D01*
X74168000Y-139295000D02*
X74168000Y-138525000D01*
X74168000Y-131215000D02*
X74168000Y-131985000D01*
X75538000Y-138525000D02*
X75538000Y-131985000D01*
X72798000Y-138525000D02*
X75538000Y-138525000D01*
X72798000Y-131985000D02*
X72798000Y-138525000D01*
X75538000Y-131985000D02*
X72798000Y-131985000D01*
X85090000Y-113181000D02*
X85090000Y-113951000D01*
X85090000Y-121261000D02*
X85090000Y-120491000D01*
X83720000Y-113951000D02*
X83720000Y-120491000D01*
X86460000Y-113951000D02*
X83720000Y-113951000D01*
X86460000Y-120491000D02*
X86460000Y-113951000D01*
X83720000Y-120491000D02*
X86460000Y-120491000D01*
X119634000Y-45823000D02*
X119634000Y-45053000D01*
X119634000Y-37743000D02*
X119634000Y-38513000D01*
X121004000Y-45053000D02*
X121004000Y-38513000D01*
X118264000Y-45053000D02*
X121004000Y-45053000D01*
X118264000Y-38513000D02*
X118264000Y-45053000D01*
X121004000Y-38513000D02*
X118264000Y-38513000D01*
X103251000Y-45061000D02*
X103251000Y-44291000D01*
X103251000Y-36981000D02*
X103251000Y-37751000D01*
X104621000Y-44291000D02*
X104621000Y-37751000D01*
X101881000Y-44291000D02*
X104621000Y-44291000D01*
X101881000Y-37751000D02*
X101881000Y-44291000D01*
X104621000Y-37751000D02*
X101881000Y-37751000D01*
X98452000Y-44291000D02*
X101192000Y-44291000D01*
X101192000Y-44291000D02*
X101192000Y-37751000D01*
X101192000Y-37751000D02*
X98452000Y-37751000D01*
X98452000Y-37751000D02*
X98452000Y-44291000D01*
X99822000Y-45061000D02*
X99822000Y-44291000D01*
X99822000Y-36981000D02*
X99822000Y-37751000D01*
X108685000Y-69628000D02*
X105945000Y-69628000D01*
X105945000Y-69628000D02*
X105945000Y-76168000D01*
X105945000Y-76168000D02*
X108685000Y-76168000D01*
X108685000Y-76168000D02*
X108685000Y-69628000D01*
X107315000Y-68858000D02*
X107315000Y-69628000D01*
X107315000Y-76938000D02*
X107315000Y-76168000D01*
X74576000Y-44926000D02*
X77316000Y-44926000D01*
X77316000Y-44926000D02*
X77316000Y-38386000D01*
X77316000Y-38386000D02*
X74576000Y-38386000D01*
X74576000Y-38386000D02*
X74576000Y-44926000D01*
X75946000Y-45696000D02*
X75946000Y-44926000D01*
X75946000Y-37616000D02*
X75946000Y-38386000D01*
X133064000Y-55853000D02*
X133064000Y-53113000D01*
X133064000Y-53113000D02*
X126524000Y-53113000D01*
X126524000Y-53113000D02*
X126524000Y-55853000D01*
X126524000Y-55853000D02*
X133064000Y-55853000D01*
X133834000Y-54483000D02*
X133064000Y-54483000D01*
X125754000Y-54483000D02*
X126524000Y-54483000D01*
X125754000Y-57785000D02*
X126524000Y-57785000D01*
X133834000Y-57785000D02*
X133064000Y-57785000D01*
X126524000Y-59155000D02*
X133064000Y-59155000D01*
X126524000Y-56415000D02*
X126524000Y-59155000D01*
X133064000Y-56415000D02*
X126524000Y-56415000D01*
X133064000Y-59155000D02*
X133064000Y-56415000D01*
X123798000Y-69628000D02*
X121058000Y-69628000D01*
X121058000Y-69628000D02*
X121058000Y-76168000D01*
X121058000Y-76168000D02*
X123798000Y-76168000D01*
X123798000Y-76168000D02*
X123798000Y-69628000D01*
X122428000Y-68858000D02*
X122428000Y-69628000D01*
X122428000Y-76938000D02*
X122428000Y-76168000D01*
X132810000Y-94969000D02*
X132810000Y-92229000D01*
X132810000Y-92229000D02*
X126270000Y-92229000D01*
X126270000Y-92229000D02*
X126270000Y-94969000D01*
X126270000Y-94969000D02*
X132810000Y-94969000D01*
X133580000Y-93599000D02*
X132810000Y-93599000D01*
X125500000Y-93599000D02*
X126270000Y-93599000D01*
X132810000Y-98779000D02*
X132810000Y-96039000D01*
X132810000Y-96039000D02*
X126270000Y-96039000D01*
X126270000Y-96039000D02*
X126270000Y-98779000D01*
X126270000Y-98779000D02*
X132810000Y-98779000D01*
X133580000Y-97409000D02*
X132810000Y-97409000D01*
X125500000Y-97409000D02*
X126270000Y-97409000D01*
X71330000Y-47636000D02*
X73450000Y-47636000D01*
X71330000Y-37576000D02*
X71330000Y-47636000D01*
X73450000Y-37576000D02*
X73450000Y-47636000D01*
X71330000Y-37576000D02*
X73450000Y-37576000D01*
X71330000Y-36576000D02*
X71330000Y-35516000D01*
X71330000Y-35516000D02*
X72390000Y-35516000D01*
X111617000Y-35373000D02*
G75*
G02X109617000Y-35373000I-1000000J0D01*
G01*
X109617000Y-35373000D02*
X108367000Y-35373000D01*
X108367000Y-35373000D02*
X108367000Y-45653000D01*
X108367000Y-45653000D02*
X112867000Y-45653000D01*
X112867000Y-45653000D02*
X112867000Y-35373000D01*
X112867000Y-35373000D02*
X111617000Y-35373000D01*
X105367000Y-35313000D02*
X105367000Y-45713000D01*
X105367000Y-45713000D02*
X115867000Y-45713000D01*
X115867000Y-45713000D02*
X115867000Y-35313000D01*
X115867000Y-35313000D02*
X105367000Y-35313000D01*
X120185000Y-67698000D02*
X109685000Y-67698000D01*
X120185000Y-78098000D02*
X120185000Y-67698000D01*
X109685000Y-78098000D02*
X120185000Y-78098000D01*
X109685000Y-67698000D02*
X109685000Y-78098000D01*
X117185000Y-67758000D02*
X115935000Y-67758000D01*
X117185000Y-78038000D02*
X117185000Y-67758000D01*
X112685000Y-78038000D02*
X117185000Y-78038000D01*
X112685000Y-67758000D02*
X112685000Y-78038000D01*
X113935000Y-67758000D02*
X112685000Y-67758000D01*
X115935000Y-67758000D02*
G75*
G02X113935000Y-67758000I-1000000J0D01*
G01*
X129524000Y-35373000D02*
G75*
G02X127524000Y-35373000I-1000000J0D01*
G01*
X127524000Y-35373000D02*
X126274000Y-35373000D01*
X126274000Y-35373000D02*
X126274000Y-45653000D01*
X126274000Y-45653000D02*
X130774000Y-45653000D01*
X130774000Y-45653000D02*
X130774000Y-35373000D01*
X130774000Y-35373000D02*
X129524000Y-35373000D01*
X123274000Y-35313000D02*
X123274000Y-45713000D01*
X123274000Y-45713000D02*
X133774000Y-45713000D01*
X133774000Y-45713000D02*
X133774000Y-35313000D01*
X133774000Y-35313000D02*
X123274000Y-35313000D01*
D13*
X120356333Y-84558142D02*
X120308714Y-84605761D01*
X120165857Y-84653380D01*
X120070619Y-84653380D01*
X119927761Y-84605761D01*
X119832523Y-84510523D01*
X119784904Y-84415285D01*
X119737285Y-84224809D01*
X119737285Y-84081952D01*
X119784904Y-83891476D01*
X119832523Y-83796238D01*
X119927761Y-83701000D01*
X120070619Y-83653380D01*
X120165857Y-83653380D01*
X120308714Y-83701000D01*
X120356333Y-83748619D01*
X121213476Y-83986714D02*
X121213476Y-84653380D01*
X120975380Y-83605761D02*
X120737285Y-84320047D01*
X121356333Y-84320047D01*
X128103333Y-84558142D02*
X128055714Y-84605761D01*
X127912857Y-84653380D01*
X127817619Y-84653380D01*
X127674761Y-84605761D01*
X127579523Y-84510523D01*
X127531904Y-84415285D01*
X127484285Y-84224809D01*
X127484285Y-84081952D01*
X127531904Y-83891476D01*
X127579523Y-83796238D01*
X127674761Y-83701000D01*
X127817619Y-83653380D01*
X127912857Y-83653380D01*
X128055714Y-83701000D01*
X128103333Y-83748619D01*
X129008095Y-83653380D02*
X128531904Y-83653380D01*
X128484285Y-84129571D01*
X128531904Y-84081952D01*
X128627142Y-84034333D01*
X128865238Y-84034333D01*
X128960476Y-84081952D01*
X129008095Y-84129571D01*
X129055714Y-84224809D01*
X129055714Y-84462904D01*
X129008095Y-84558142D01*
X128960476Y-84605761D01*
X128865238Y-84653380D01*
X128627142Y-84653380D01*
X128531904Y-84605761D01*
X128484285Y-84558142D01*
X83947142Y-42489380D02*
X83947142Y-41489380D01*
X84423333Y-42489380D02*
X84423333Y-41489380D01*
X84994761Y-42489380D01*
X84994761Y-41489380D01*
X85470952Y-42489380D02*
X85470952Y-41489380D01*
X85804285Y-41489380D02*
X86375714Y-41489380D01*
X86090000Y-42489380D02*
X86090000Y-41489380D01*
X68723333Y-80462380D02*
X68723333Y-79462380D01*
X69056666Y-80176666D01*
X69390000Y-79462380D01*
X69390000Y-80462380D01*
X69628095Y-80557619D02*
X70390000Y-80557619D01*
X70580476Y-80176666D02*
X71056666Y-80176666D01*
X70485238Y-80462380D02*
X70818571Y-79462380D01*
X71151904Y-80462380D01*
X71485238Y-80462380D02*
X71485238Y-79462380D01*
X71818571Y-80176666D01*
X72151904Y-79462380D01*
X72151904Y-80462380D01*
X72818571Y-79462380D02*
X73009047Y-79462380D01*
X73104285Y-79510000D01*
X73199523Y-79605238D01*
X73247142Y-79795714D01*
X73247142Y-80129047D01*
X73199523Y-80319523D01*
X73104285Y-80414761D01*
X73009047Y-80462380D01*
X72818571Y-80462380D01*
X72723333Y-80414761D01*
X72628095Y-80319523D01*
X72580476Y-80129047D01*
X72580476Y-79795714D01*
X72628095Y-79605238D01*
X72723333Y-79510000D01*
X72818571Y-79462380D01*
X73675714Y-79462380D02*
X73675714Y-80271904D01*
X73723333Y-80367142D01*
X73770952Y-80414761D01*
X73866190Y-80462380D01*
X74056666Y-80462380D01*
X74151904Y-80414761D01*
X74199523Y-80367142D01*
X74247142Y-80271904D01*
X74247142Y-79462380D01*
X74723333Y-80462380D02*
X74723333Y-79462380D01*
X75294761Y-80462380D01*
X75294761Y-79462380D01*
X75628095Y-79462380D02*
X76199523Y-79462380D01*
X75913809Y-80462380D02*
X75913809Y-79462380D01*
X69366190Y-118467142D02*
X69318571Y-118514761D01*
X69175714Y-118562380D01*
X69080476Y-118562380D01*
X68937619Y-118514761D01*
X68842380Y-118419523D01*
X68794761Y-118324285D01*
X68747142Y-118133809D01*
X68747142Y-117990952D01*
X68794761Y-117800476D01*
X68842380Y-117705238D01*
X68937619Y-117610000D01*
X69080476Y-117562380D01*
X69175714Y-117562380D01*
X69318571Y-117610000D01*
X69366190Y-117657619D01*
X69556666Y-118657619D02*
X70318571Y-118657619D01*
X70509047Y-118276666D02*
X70985238Y-118276666D01*
X70413809Y-118562380D02*
X70747142Y-117562380D01*
X71080476Y-118562380D01*
X71413809Y-118562380D02*
X71413809Y-117562380D01*
X71747142Y-118276666D01*
X72080476Y-117562380D01*
X72080476Y-118562380D01*
X72747142Y-117562380D02*
X72937619Y-117562380D01*
X73032857Y-117610000D01*
X73128095Y-117705238D01*
X73175714Y-117895714D01*
X73175714Y-118229047D01*
X73128095Y-118419523D01*
X73032857Y-118514761D01*
X72937619Y-118562380D01*
X72747142Y-118562380D01*
X72651904Y-118514761D01*
X72556666Y-118419523D01*
X72509047Y-118229047D01*
X72509047Y-117895714D01*
X72556666Y-117705238D01*
X72651904Y-117610000D01*
X72747142Y-117562380D01*
X73604285Y-117562380D02*
X73604285Y-118371904D01*
X73651904Y-118467142D01*
X73699523Y-118514761D01*
X73794761Y-118562380D01*
X73985238Y-118562380D01*
X74080476Y-118514761D01*
X74128095Y-118467142D01*
X74175714Y-118371904D01*
X74175714Y-117562380D01*
X74651904Y-118562380D02*
X74651904Y-117562380D01*
X75223333Y-118562380D01*
X75223333Y-117562380D01*
X75556666Y-117562380D02*
X76128095Y-117562380D01*
X75842380Y-118562380D02*
X75842380Y-117562380D01*
X80542380Y-174712380D02*
X80732857Y-174712380D01*
X80828095Y-174760000D01*
X80923333Y-174855238D01*
X80970952Y-175045714D01*
X80970952Y-175379047D01*
X80923333Y-175569523D01*
X80828095Y-175664761D01*
X80732857Y-175712380D01*
X80542380Y-175712380D01*
X80447142Y-175664761D01*
X80351904Y-175569523D01*
X80304285Y-175379047D01*
X80304285Y-175045714D01*
X80351904Y-174855238D01*
X80447142Y-174760000D01*
X80542380Y-174712380D01*
X81732857Y-175188571D02*
X81399523Y-175188571D01*
X81399523Y-175712380D02*
X81399523Y-174712380D01*
X81875714Y-174712380D01*
X82590000Y-175188571D02*
X82256666Y-175188571D01*
X82256666Y-175712380D02*
X82256666Y-174712380D01*
X82732857Y-174712380D01*
X83066190Y-175664761D02*
X83209047Y-175712380D01*
X83447142Y-175712380D01*
X83542380Y-175664761D01*
X83590000Y-175617142D01*
X83637619Y-175521904D01*
X83637619Y-175426666D01*
X83590000Y-175331428D01*
X83542380Y-175283809D01*
X83447142Y-175236190D01*
X83256666Y-175188571D01*
X83161428Y-175140952D01*
X83113809Y-175093333D01*
X83066190Y-174998095D01*
X83066190Y-174902857D01*
X83113809Y-174807619D01*
X83161428Y-174760000D01*
X83256666Y-174712380D01*
X83494761Y-174712380D01*
X83637619Y-174760000D01*
X84066190Y-175188571D02*
X84399523Y-175188571D01*
X84542380Y-175712380D02*
X84066190Y-175712380D01*
X84066190Y-174712380D01*
X84542380Y-174712380D01*
X84828095Y-174712380D02*
X85399523Y-174712380D01*
X85113809Y-175712380D02*
X85113809Y-174712380D01*
X85494761Y-175807619D02*
X86256666Y-175807619D01*
X86447142Y-175426666D02*
X86923333Y-175426666D01*
X86351904Y-175712380D02*
X86685238Y-174712380D01*
X87018571Y-175712380D01*
X87351904Y-175712380D02*
X87351904Y-174712380D01*
X87685238Y-175426666D01*
X88018571Y-174712380D01*
X88018571Y-175712380D01*
X88494761Y-175712380D02*
X88494761Y-174712380D01*
X89066190Y-175712380D01*
X89066190Y-174712380D01*
X89399523Y-174712380D02*
X89970952Y-174712380D01*
X89685238Y-175712380D02*
X89685238Y-174712380D01*
X70128095Y-155916380D02*
X70318571Y-155916380D01*
X70413809Y-155964000D01*
X70509047Y-156059238D01*
X70556666Y-156249714D01*
X70556666Y-156583047D01*
X70509047Y-156773523D01*
X70413809Y-156868761D01*
X70318571Y-156916380D01*
X70128095Y-156916380D01*
X70032857Y-156868761D01*
X69937619Y-156773523D01*
X69890000Y-156583047D01*
X69890000Y-156249714D01*
X69937619Y-156059238D01*
X70032857Y-155964000D01*
X70128095Y-155916380D01*
X71318571Y-156392571D02*
X70985238Y-156392571D01*
X70985238Y-156916380D02*
X70985238Y-155916380D01*
X71461428Y-155916380D01*
X72175714Y-156392571D02*
X71842380Y-156392571D01*
X71842380Y-156916380D02*
X71842380Y-155916380D01*
X72318571Y-155916380D01*
X72651904Y-156868761D02*
X72794761Y-156916380D01*
X73032857Y-156916380D01*
X73128095Y-156868761D01*
X73175714Y-156821142D01*
X73223333Y-156725904D01*
X73223333Y-156630666D01*
X73175714Y-156535428D01*
X73128095Y-156487809D01*
X73032857Y-156440190D01*
X72842380Y-156392571D01*
X72747142Y-156344952D01*
X72699523Y-156297333D01*
X72651904Y-156202095D01*
X72651904Y-156106857D01*
X72699523Y-156011619D01*
X72747142Y-155964000D01*
X72842380Y-155916380D01*
X73080476Y-155916380D01*
X73223333Y-155964000D01*
X73651904Y-156392571D02*
X73985238Y-156392571D01*
X74128095Y-156916380D02*
X73651904Y-156916380D01*
X73651904Y-155916380D01*
X74128095Y-155916380D01*
X74413809Y-155916380D02*
X74985238Y-155916380D01*
X74699523Y-156916380D02*
X74699523Y-155916380D01*
X72183333Y-85634142D02*
X72135714Y-85681761D01*
X71992857Y-85729380D01*
X71897619Y-85729380D01*
X71754761Y-85681761D01*
X71659523Y-85586523D01*
X71611904Y-85491285D01*
X71564285Y-85300809D01*
X71564285Y-85157952D01*
X71611904Y-84967476D01*
X71659523Y-84872238D01*
X71754761Y-84777000D01*
X71897619Y-84729380D01*
X71992857Y-84729380D01*
X72135714Y-84777000D01*
X72183333Y-84824619D01*
X73135714Y-85729380D02*
X72564285Y-85729380D01*
X72850000Y-85729380D02*
X72850000Y-84729380D01*
X72754761Y-84872238D01*
X72659523Y-84967476D01*
X72564285Y-85015095D01*
X110363333Y-33631142D02*
X110315714Y-33678761D01*
X110172857Y-33726380D01*
X110077619Y-33726380D01*
X109934761Y-33678761D01*
X109839523Y-33583523D01*
X109791904Y-33488285D01*
X109744285Y-33297809D01*
X109744285Y-33154952D01*
X109791904Y-32964476D01*
X109839523Y-32869238D01*
X109934761Y-32774000D01*
X110077619Y-32726380D01*
X110172857Y-32726380D01*
X110315714Y-32774000D01*
X110363333Y-32821619D01*
X110744285Y-32821619D02*
X110791904Y-32774000D01*
X110887142Y-32726380D01*
X111125238Y-32726380D01*
X111220476Y-32774000D01*
X111268095Y-32821619D01*
X111315714Y-32916857D01*
X111315714Y-33012095D01*
X111268095Y-33154952D01*
X110696666Y-33726380D01*
X111315714Y-33726380D01*
X110450333Y-48109142D02*
X110402714Y-48156761D01*
X110259857Y-48204380D01*
X110164619Y-48204380D01*
X110021761Y-48156761D01*
X109926523Y-48061523D01*
X109878904Y-47966285D01*
X109831285Y-47775809D01*
X109831285Y-47632952D01*
X109878904Y-47442476D01*
X109926523Y-47347238D01*
X110021761Y-47252000D01*
X110164619Y-47204380D01*
X110259857Y-47204380D01*
X110402714Y-47252000D01*
X110450333Y-47299619D01*
X110783666Y-47204380D02*
X111402714Y-47204380D01*
X111069380Y-47585333D01*
X111212238Y-47585333D01*
X111307476Y-47632952D01*
X111355095Y-47680571D01*
X111402714Y-47775809D01*
X111402714Y-48013904D01*
X111355095Y-48109142D01*
X111307476Y-48156761D01*
X111212238Y-48204380D01*
X110926523Y-48204380D01*
X110831285Y-48156761D01*
X110783666Y-48109142D01*
X128317333Y-33631142D02*
X128269714Y-33678761D01*
X128126857Y-33726380D01*
X128031619Y-33726380D01*
X127888761Y-33678761D01*
X127793523Y-33583523D01*
X127745904Y-33488285D01*
X127698285Y-33297809D01*
X127698285Y-33154952D01*
X127745904Y-32964476D01*
X127793523Y-32869238D01*
X127888761Y-32774000D01*
X128031619Y-32726380D01*
X128126857Y-32726380D01*
X128269714Y-32774000D01*
X128317333Y-32821619D01*
X129174476Y-32726380D02*
X128984000Y-32726380D01*
X128888761Y-32774000D01*
X128841142Y-32821619D01*
X128745904Y-32964476D01*
X128698285Y-33154952D01*
X128698285Y-33535904D01*
X128745904Y-33631142D01*
X128793523Y-33678761D01*
X128888761Y-33726380D01*
X129079238Y-33726380D01*
X129174476Y-33678761D01*
X129222095Y-33631142D01*
X129269714Y-33535904D01*
X129269714Y-33297809D01*
X129222095Y-33202571D01*
X129174476Y-33154952D01*
X129079238Y-33107333D01*
X128888761Y-33107333D01*
X128793523Y-33154952D01*
X128745904Y-33202571D01*
X128698285Y-33297809D01*
X128317333Y-48109142D02*
X128269714Y-48156761D01*
X128126857Y-48204380D01*
X128031619Y-48204380D01*
X127888761Y-48156761D01*
X127793523Y-48061523D01*
X127745904Y-47966285D01*
X127698285Y-47775809D01*
X127698285Y-47632952D01*
X127745904Y-47442476D01*
X127793523Y-47347238D01*
X127888761Y-47252000D01*
X128031619Y-47204380D01*
X128126857Y-47204380D01*
X128269714Y-47252000D01*
X128317333Y-47299619D01*
X128650666Y-47204380D02*
X129317333Y-47204380D01*
X128888761Y-48204380D01*
X114808333Y-65894143D02*
X114760714Y-65941762D01*
X114617857Y-65989381D01*
X114522619Y-65989381D01*
X114379761Y-65941762D01*
X114284523Y-65846524D01*
X114236904Y-65751286D01*
X114189285Y-65560810D01*
X114189285Y-65417953D01*
X114236904Y-65227477D01*
X114284523Y-65132239D01*
X114379761Y-65037001D01*
X114522619Y-64989381D01*
X114617857Y-64989381D01*
X114760714Y-65037001D01*
X114808333Y-65084620D01*
X115379761Y-65417953D02*
X115284523Y-65370334D01*
X115236904Y-65322715D01*
X115189285Y-65227477D01*
X115189285Y-65179858D01*
X115236904Y-65084620D01*
X115284523Y-65037001D01*
X115379761Y-64989381D01*
X115570238Y-64989381D01*
X115665476Y-65037001D01*
X115713095Y-65084620D01*
X115760714Y-65179858D01*
X115760714Y-65227477D01*
X115713095Y-65322715D01*
X115665476Y-65370334D01*
X115570238Y-65417953D01*
X115379761Y-65417953D01*
X115284523Y-65465572D01*
X115236904Y-65513191D01*
X115189285Y-65608429D01*
X115189285Y-65798905D01*
X115236904Y-65894143D01*
X115284523Y-65941762D01*
X115379761Y-65989381D01*
X115570238Y-65989381D01*
X115665476Y-65941762D01*
X115713095Y-65894143D01*
X115760714Y-65798905D01*
X115760714Y-65608429D01*
X115713095Y-65513191D01*
X115665476Y-65465572D01*
X115570238Y-65417953D01*
X114837334Y-80464143D02*
X114789715Y-80511762D01*
X114646858Y-80559381D01*
X114551620Y-80559381D01*
X114408762Y-80511762D01*
X114313524Y-80416524D01*
X114265905Y-80321286D01*
X114218286Y-80130810D01*
X114218286Y-79987953D01*
X114265905Y-79797477D01*
X114313524Y-79702239D01*
X114408762Y-79607001D01*
X114551620Y-79559381D01*
X114646858Y-79559381D01*
X114789715Y-79607001D01*
X114837334Y-79654620D01*
X115313524Y-80559381D02*
X115504001Y-80559381D01*
X115599239Y-80511762D01*
X115646858Y-80464143D01*
X115742096Y-80321286D01*
X115789715Y-80130810D01*
X115789715Y-79749858D01*
X115742096Y-79654620D01*
X115694477Y-79607001D01*
X115599239Y-79559381D01*
X115408762Y-79559381D01*
X115313524Y-79607001D01*
X115265905Y-79654620D01*
X115218286Y-79749858D01*
X115218286Y-79987953D01*
X115265905Y-80083191D01*
X115313524Y-80130810D01*
X115408762Y-80178429D01*
X115599239Y-80178429D01*
X115694477Y-80130810D01*
X115742096Y-80083191D01*
X115789715Y-79987953D01*
X126341142Y-73667857D02*
X126388761Y-73715476D01*
X126436380Y-73858333D01*
X126436380Y-73953571D01*
X126388761Y-74096428D01*
X126293523Y-74191666D01*
X126198285Y-74239285D01*
X126007809Y-74286904D01*
X125864952Y-74286904D01*
X125674476Y-74239285D01*
X125579238Y-74191666D01*
X125484000Y-74096428D01*
X125436380Y-73953571D01*
X125436380Y-73858333D01*
X125484000Y-73715476D01*
X125531619Y-73667857D01*
X126436380Y-72715476D02*
X126436380Y-73286904D01*
X126436380Y-73001190D02*
X125436380Y-73001190D01*
X125579238Y-73096428D01*
X125674476Y-73191666D01*
X125722095Y-73286904D01*
X125436380Y-72096428D02*
X125436380Y-72001190D01*
X125484000Y-71905952D01*
X125531619Y-71858333D01*
X125626857Y-71810714D01*
X125817333Y-71763095D01*
X126055428Y-71763095D01*
X126245904Y-71810714D01*
X126341142Y-71858333D01*
X126388761Y-71905952D01*
X126436380Y-72001190D01*
X126436380Y-72096428D01*
X126388761Y-72191666D01*
X126341142Y-72239285D01*
X126245904Y-72286904D01*
X126055428Y-72334523D01*
X125817333Y-72334523D01*
X125626857Y-72286904D01*
X125531619Y-72239285D01*
X125484000Y-72191666D01*
X125436380Y-72096428D01*
X104544904Y-86177380D02*
X104544904Y-85177380D01*
X104783000Y-85177380D01*
X104925857Y-85225000D01*
X105021095Y-85320238D01*
X105068714Y-85415476D01*
X105116333Y-85605952D01*
X105116333Y-85748809D01*
X105068714Y-85939285D01*
X105021095Y-86034523D01*
X104925857Y-86129761D01*
X104783000Y-86177380D01*
X104544904Y-86177380D01*
X106068714Y-86177380D02*
X105497285Y-86177380D01*
X105783000Y-86177380D02*
X105783000Y-85177380D01*
X105687761Y-85320238D01*
X105592523Y-85415476D01*
X105497285Y-85463095D01*
X104925904Y-89987380D02*
X104925904Y-88987380D01*
X105164000Y-88987380D01*
X105306857Y-89035000D01*
X105402095Y-89130238D01*
X105449714Y-89225476D01*
X105497333Y-89415952D01*
X105497333Y-89558809D01*
X105449714Y-89749285D01*
X105402095Y-89844523D01*
X105306857Y-89939761D01*
X105164000Y-89987380D01*
X104925904Y-89987380D01*
X105878285Y-89082619D02*
X105925904Y-89035000D01*
X106021142Y-88987380D01*
X106259238Y-88987380D01*
X106354476Y-89035000D01*
X106402095Y-89082619D01*
X106449714Y-89177857D01*
X106449714Y-89273095D01*
X106402095Y-89415952D01*
X105830666Y-89987380D01*
X106449714Y-89987380D01*
X130520903Y-61409379D02*
X130520903Y-60409379D01*
X130758999Y-60409379D01*
X130901856Y-60456999D01*
X130997094Y-60552237D01*
X131044713Y-60647475D01*
X131092332Y-60837951D01*
X131092332Y-60980808D01*
X131044713Y-61171284D01*
X130997094Y-61266522D01*
X130901856Y-61361760D01*
X130758999Y-61409379D01*
X130520903Y-61409379D01*
X131425665Y-60409379D02*
X132044713Y-60409379D01*
X131711379Y-60790332D01*
X131854237Y-60790332D01*
X131949475Y-60837951D01*
X131997094Y-60885570D01*
X132044713Y-60980808D01*
X132044713Y-61218903D01*
X131997094Y-61314141D01*
X131949475Y-61361760D01*
X131854237Y-61409379D01*
X131568522Y-61409379D01*
X131473284Y-61361760D01*
X131425665Y-61314141D01*
X130520903Y-64320379D02*
X130520903Y-63320379D01*
X130758999Y-63320379D01*
X130901856Y-63367999D01*
X130997094Y-63463237D01*
X131044713Y-63558475D01*
X131092332Y-63748951D01*
X131092332Y-63891808D01*
X131044713Y-64082284D01*
X130997094Y-64177522D01*
X130901856Y-64272760D01*
X130758999Y-64320379D01*
X130520903Y-64320379D01*
X131949475Y-63653713D02*
X131949475Y-64320379D01*
X131711379Y-63272760D02*
X131473284Y-63987046D01*
X132092332Y-63987046D01*
X109704476Y-100782380D02*
X109704476Y-99782380D01*
X110085428Y-99782380D01*
X110180666Y-99830000D01*
X110228285Y-99877619D01*
X110275904Y-99972857D01*
X110275904Y-100115714D01*
X110228285Y-100210952D01*
X110180666Y-100258571D01*
X110085428Y-100306190D01*
X109704476Y-100306190D01*
X110894952Y-99782380D02*
X111085428Y-99782380D01*
X111180666Y-99830000D01*
X111275904Y-99925238D01*
X111323523Y-100115714D01*
X111323523Y-100449047D01*
X111275904Y-100639523D01*
X111180666Y-100734761D01*
X111085428Y-100782380D01*
X110894952Y-100782380D01*
X110799714Y-100734761D01*
X110704476Y-100639523D01*
X110656857Y-100449047D01*
X110656857Y-100115714D01*
X110704476Y-99925238D01*
X110799714Y-99830000D01*
X110894952Y-99782380D01*
X111656857Y-99782380D02*
X111894952Y-100782380D01*
X112085428Y-100068095D01*
X112275904Y-100782380D01*
X112514000Y-99782380D01*
X112894952Y-100258571D02*
X113228285Y-100258571D01*
X113371142Y-100782380D02*
X112894952Y-100782380D01*
X112894952Y-99782380D01*
X113371142Y-99782380D01*
X114371142Y-100782380D02*
X114037809Y-100306190D01*
X113799714Y-100782380D02*
X113799714Y-99782380D01*
X114180666Y-99782380D01*
X114275904Y-99830000D01*
X114323523Y-99877619D01*
X114371142Y-99972857D01*
X114371142Y-100115714D01*
X114323523Y-100210952D01*
X114275904Y-100258571D01*
X114180666Y-100306190D01*
X113799714Y-100306190D01*
X85177333Y-92781380D02*
X84844000Y-92305190D01*
X84605904Y-92781380D02*
X84605904Y-91781380D01*
X84986857Y-91781380D01*
X85082095Y-91829000D01*
X85129714Y-91876619D01*
X85177333Y-91971857D01*
X85177333Y-92114714D01*
X85129714Y-92209952D01*
X85082095Y-92257571D01*
X84986857Y-92305190D01*
X84605904Y-92305190D01*
X86129714Y-92781380D02*
X85558285Y-92781380D01*
X85844000Y-92781380D02*
X85844000Y-91781380D01*
X85748761Y-91924238D01*
X85653523Y-92019476D01*
X85558285Y-92067095D01*
X85177333Y-96083380D02*
X84844000Y-95607190D01*
X84605904Y-96083380D02*
X84605904Y-95083380D01*
X84986857Y-95083380D01*
X85082095Y-95131000D01*
X85129714Y-95178619D01*
X85177333Y-95273857D01*
X85177333Y-95416714D01*
X85129714Y-95511952D01*
X85082095Y-95559571D01*
X84986857Y-95607190D01*
X84605904Y-95607190D01*
X85558285Y-95178619D02*
X85605904Y-95131000D01*
X85701142Y-95083380D01*
X85939238Y-95083380D01*
X86034476Y-95131000D01*
X86082095Y-95178619D01*
X86129714Y-95273857D01*
X86129714Y-95369095D01*
X86082095Y-95511952D01*
X85510666Y-96083380D01*
X86129714Y-96083380D01*
X85177333Y-89479380D02*
X84844000Y-89003190D01*
X84605904Y-89479380D02*
X84605904Y-88479380D01*
X84986857Y-88479380D01*
X85082095Y-88527000D01*
X85129714Y-88574619D01*
X85177333Y-88669857D01*
X85177333Y-88812714D01*
X85129714Y-88907952D01*
X85082095Y-88955571D01*
X84986857Y-89003190D01*
X84605904Y-89003190D01*
X85510666Y-88479380D02*
X86129714Y-88479380D01*
X85796380Y-88860333D01*
X85939238Y-88860333D01*
X86034476Y-88907952D01*
X86082095Y-88955571D01*
X86129714Y-89050809D01*
X86129714Y-89288904D01*
X86082095Y-89384142D01*
X86034476Y-89431761D01*
X85939238Y-89479380D01*
X85653523Y-89479380D01*
X85558285Y-89431761D01*
X85510666Y-89384142D01*
X85177333Y-86177380D02*
X84844000Y-85701190D01*
X84605904Y-86177380D02*
X84605904Y-85177380D01*
X84986857Y-85177380D01*
X85082095Y-85225000D01*
X85129714Y-85272619D01*
X85177333Y-85367857D01*
X85177333Y-85510714D01*
X85129714Y-85605952D01*
X85082095Y-85653571D01*
X84986857Y-85701190D01*
X84605904Y-85701190D01*
X86034476Y-85510714D02*
X86034476Y-86177380D01*
X85796380Y-85129761D02*
X85558285Y-85844047D01*
X86177333Y-85844047D01*
X61920380Y-153201666D02*
X61444190Y-153535000D01*
X61920380Y-153773095D02*
X60920380Y-153773095D01*
X60920380Y-153392142D01*
X60968000Y-153296904D01*
X61015619Y-153249285D01*
X61110857Y-153201666D01*
X61253714Y-153201666D01*
X61348952Y-153249285D01*
X61396571Y-153296904D01*
X61444190Y-153392142D01*
X61444190Y-153773095D01*
X60920380Y-152296904D02*
X60920380Y-152773095D01*
X61396571Y-152820714D01*
X61348952Y-152773095D01*
X61301333Y-152677857D01*
X61301333Y-152439761D01*
X61348952Y-152344523D01*
X61396571Y-152296904D01*
X61491809Y-152249285D01*
X61729904Y-152249285D01*
X61825142Y-152296904D01*
X61872761Y-152344523D01*
X61920380Y-152439761D01*
X61920380Y-152677857D01*
X61872761Y-152773095D01*
X61825142Y-152820714D01*
X58491380Y-153201666D02*
X58015190Y-153535000D01*
X58491380Y-153773095D02*
X57491380Y-153773095D01*
X57491380Y-153392142D01*
X57539000Y-153296904D01*
X57586619Y-153249285D01*
X57681857Y-153201666D01*
X57824714Y-153201666D01*
X57919952Y-153249285D01*
X57967571Y-153296904D01*
X58015190Y-153392142D01*
X58015190Y-153773095D01*
X57491380Y-152344523D02*
X57491380Y-152535000D01*
X57539000Y-152630238D01*
X57586619Y-152677857D01*
X57729476Y-152773095D01*
X57919952Y-152820714D01*
X58300904Y-152820714D01*
X58396142Y-152773095D01*
X58443761Y-152725476D01*
X58491380Y-152630238D01*
X58491380Y-152439761D01*
X58443761Y-152344523D01*
X58396142Y-152296904D01*
X58300904Y-152249285D01*
X58062809Y-152249285D01*
X57967571Y-152296904D01*
X57919952Y-152344523D01*
X57872333Y-152439761D01*
X57872333Y-152630238D01*
X57919952Y-152725476D01*
X57967571Y-152773095D01*
X58062809Y-152820714D01*
X72223333Y-61412380D02*
X71890000Y-60936190D01*
X71651904Y-61412380D02*
X71651904Y-60412380D01*
X72032857Y-60412380D01*
X72128095Y-60460000D01*
X72175714Y-60507619D01*
X72223333Y-60602857D01*
X72223333Y-60745714D01*
X72175714Y-60840952D01*
X72128095Y-60888571D01*
X72032857Y-60936190D01*
X71651904Y-60936190D01*
X72556666Y-60412380D02*
X73223333Y-60412380D01*
X72794761Y-61412380D01*
X72223333Y-64714380D02*
X71890000Y-64238190D01*
X71651904Y-64714380D02*
X71651904Y-63714380D01*
X72032857Y-63714380D01*
X72128095Y-63762000D01*
X72175714Y-63809619D01*
X72223333Y-63904857D01*
X72223333Y-64047714D01*
X72175714Y-64142952D01*
X72128095Y-64190571D01*
X72032857Y-64238190D01*
X71651904Y-64238190D01*
X72794761Y-64142952D02*
X72699523Y-64095333D01*
X72651904Y-64047714D01*
X72604285Y-63952476D01*
X72604285Y-63904857D01*
X72651904Y-63809619D01*
X72699523Y-63762000D01*
X72794761Y-63714380D01*
X72985238Y-63714380D01*
X73080476Y-63762000D01*
X73128095Y-63809619D01*
X73175714Y-63904857D01*
X73175714Y-63952476D01*
X73128095Y-64047714D01*
X73080476Y-64095333D01*
X72985238Y-64142952D01*
X72794761Y-64142952D01*
X72699523Y-64190571D01*
X72651904Y-64238190D01*
X72604285Y-64333428D01*
X72604285Y-64523904D01*
X72651904Y-64619142D01*
X72699523Y-64666761D01*
X72794761Y-64714380D01*
X72985238Y-64714380D01*
X73080476Y-64666761D01*
X73128095Y-64619142D01*
X73175714Y-64523904D01*
X73175714Y-64333428D01*
X73128095Y-64238190D01*
X73080476Y-64190571D01*
X72985238Y-64142952D01*
X72223333Y-68016380D02*
X71890000Y-67540190D01*
X71651904Y-68016380D02*
X71651904Y-67016380D01*
X72032857Y-67016380D01*
X72128095Y-67064000D01*
X72175714Y-67111619D01*
X72223333Y-67206857D01*
X72223333Y-67349714D01*
X72175714Y-67444952D01*
X72128095Y-67492571D01*
X72032857Y-67540190D01*
X71651904Y-67540190D01*
X72699523Y-68016380D02*
X72890000Y-68016380D01*
X72985238Y-67968761D01*
X73032857Y-67921142D01*
X73128095Y-67778285D01*
X73175714Y-67587809D01*
X73175714Y-67206857D01*
X73128095Y-67111619D01*
X73080476Y-67064000D01*
X72985238Y-67016380D01*
X72794761Y-67016380D01*
X72699523Y-67064000D01*
X72651904Y-67111619D01*
X72604285Y-67206857D01*
X72604285Y-67444952D01*
X72651904Y-67540190D01*
X72699523Y-67587809D01*
X72794761Y-67635428D01*
X72985238Y-67635428D01*
X73080476Y-67587809D01*
X73128095Y-67540190D01*
X73175714Y-67444952D01*
X71191380Y-135897857D02*
X70715190Y-136231190D01*
X71191380Y-136469285D02*
X70191380Y-136469285D01*
X70191380Y-136088333D01*
X70239000Y-135993095D01*
X70286619Y-135945476D01*
X70381857Y-135897857D01*
X70524714Y-135897857D01*
X70619952Y-135945476D01*
X70667571Y-135993095D01*
X70715190Y-136088333D01*
X70715190Y-136469285D01*
X71191380Y-134945476D02*
X71191380Y-135516904D01*
X71191380Y-135231190D02*
X70191380Y-135231190D01*
X70334238Y-135326428D01*
X70429476Y-135421666D01*
X70477095Y-135516904D01*
X70191380Y-134326428D02*
X70191380Y-134231190D01*
X70239000Y-134135952D01*
X70286619Y-134088333D01*
X70381857Y-134040714D01*
X70572333Y-133993095D01*
X70810428Y-133993095D01*
X71000904Y-134040714D01*
X71096142Y-134088333D01*
X71143761Y-134135952D01*
X71191380Y-134231190D01*
X71191380Y-134326428D01*
X71143761Y-134421666D01*
X71096142Y-134469285D01*
X71000904Y-134516904D01*
X70810428Y-134564523D01*
X70572333Y-134564523D01*
X70381857Y-134516904D01*
X70286619Y-134469285D01*
X70239000Y-134421666D01*
X70191380Y-134326428D01*
X74620380Y-135897857D02*
X74144190Y-136231190D01*
X74620380Y-136469285D02*
X73620380Y-136469285D01*
X73620380Y-136088333D01*
X73668000Y-135993095D01*
X73715619Y-135945476D01*
X73810857Y-135897857D01*
X73953714Y-135897857D01*
X74048952Y-135945476D01*
X74096571Y-135993095D01*
X74144190Y-136088333D01*
X74144190Y-136469285D01*
X74620380Y-134945476D02*
X74620380Y-135516904D01*
X74620380Y-135231190D02*
X73620380Y-135231190D01*
X73763238Y-135326428D01*
X73858476Y-135421666D01*
X73906095Y-135516904D01*
X74620380Y-133993095D02*
X74620380Y-134564523D01*
X74620380Y-134278809D02*
X73620380Y-134278809D01*
X73763238Y-134374047D01*
X73858476Y-134469285D01*
X73906095Y-134564523D01*
X85542380Y-117863857D02*
X85066190Y-118197190D01*
X85542380Y-118435285D02*
X84542380Y-118435285D01*
X84542380Y-118054333D01*
X84590000Y-117959095D01*
X84637619Y-117911476D01*
X84732857Y-117863857D01*
X84875714Y-117863857D01*
X84970952Y-117911476D01*
X85018571Y-117959095D01*
X85066190Y-118054333D01*
X85066190Y-118435285D01*
X85542380Y-116911476D02*
X85542380Y-117482904D01*
X85542380Y-117197190D02*
X84542380Y-117197190D01*
X84685238Y-117292428D01*
X84780476Y-117387666D01*
X84828095Y-117482904D01*
X84637619Y-116530523D02*
X84590000Y-116482904D01*
X84542380Y-116387666D01*
X84542380Y-116149571D01*
X84590000Y-116054333D01*
X84637619Y-116006714D01*
X84732857Y-115959095D01*
X84828095Y-115959095D01*
X84970952Y-116006714D01*
X85542380Y-116578142D01*
X85542380Y-115959095D01*
X120086380Y-42425857D02*
X119610190Y-42759190D01*
X120086380Y-42997285D02*
X119086380Y-42997285D01*
X119086380Y-42616333D01*
X119134000Y-42521095D01*
X119181619Y-42473476D01*
X119276857Y-42425857D01*
X119419714Y-42425857D01*
X119514952Y-42473476D01*
X119562571Y-42521095D01*
X119610190Y-42616333D01*
X119610190Y-42997285D01*
X120086380Y-41473476D02*
X120086380Y-42044904D01*
X120086380Y-41759190D02*
X119086380Y-41759190D01*
X119229238Y-41854428D01*
X119324476Y-41949666D01*
X119372095Y-42044904D01*
X119086380Y-41140142D02*
X119086380Y-40521095D01*
X119467333Y-40854428D01*
X119467333Y-40711571D01*
X119514952Y-40616333D01*
X119562571Y-40568714D01*
X119657809Y-40521095D01*
X119895904Y-40521095D01*
X119991142Y-40568714D01*
X120038761Y-40616333D01*
X120086380Y-40711571D01*
X120086380Y-40997285D01*
X120038761Y-41092523D01*
X119991142Y-41140142D01*
X103703380Y-41663857D02*
X103227190Y-41997190D01*
X103703380Y-42235285D02*
X102703380Y-42235285D01*
X102703380Y-41854333D01*
X102751000Y-41759095D01*
X102798619Y-41711476D01*
X102893857Y-41663857D01*
X103036714Y-41663857D01*
X103131952Y-41711476D01*
X103179571Y-41759095D01*
X103227190Y-41854333D01*
X103227190Y-42235285D01*
X103703380Y-40711476D02*
X103703380Y-41282904D01*
X103703380Y-40997190D02*
X102703380Y-40997190D01*
X102846238Y-41092428D01*
X102941476Y-41187666D01*
X102989095Y-41282904D01*
X103036714Y-39854333D02*
X103703380Y-39854333D01*
X102655761Y-40092428D02*
X103370047Y-40330523D01*
X103370047Y-39711476D01*
X100274380Y-41663857D02*
X99798190Y-41997190D01*
X100274380Y-42235285D02*
X99274380Y-42235285D01*
X99274380Y-41854333D01*
X99322000Y-41759095D01*
X99369619Y-41711476D01*
X99464857Y-41663857D01*
X99607714Y-41663857D01*
X99702952Y-41711476D01*
X99750571Y-41759095D01*
X99798190Y-41854333D01*
X99798190Y-42235285D01*
X100274380Y-40711476D02*
X100274380Y-41282904D01*
X100274380Y-40997190D02*
X99274380Y-40997190D01*
X99417238Y-41092428D01*
X99512476Y-41187666D01*
X99560095Y-41282904D01*
X99274380Y-39806714D02*
X99274380Y-40282904D01*
X99750571Y-40330523D01*
X99702952Y-40282904D01*
X99655333Y-40187666D01*
X99655333Y-39949571D01*
X99702952Y-39854333D01*
X99750571Y-39806714D01*
X99845809Y-39759095D01*
X100083904Y-39759095D01*
X100179142Y-39806714D01*
X100226761Y-39854333D01*
X100274380Y-39949571D01*
X100274380Y-40187666D01*
X100226761Y-40282904D01*
X100179142Y-40330523D01*
X107767380Y-73540857D02*
X107291190Y-73874190D01*
X107767380Y-74112285D02*
X106767380Y-74112285D01*
X106767380Y-73731333D01*
X106815000Y-73636095D01*
X106862619Y-73588476D01*
X106957857Y-73540857D01*
X107100714Y-73540857D01*
X107195952Y-73588476D01*
X107243571Y-73636095D01*
X107291190Y-73731333D01*
X107291190Y-74112285D01*
X107767380Y-72588476D02*
X107767380Y-73159904D01*
X107767380Y-72874190D02*
X106767380Y-72874190D01*
X106910238Y-72969428D01*
X107005476Y-73064666D01*
X107053095Y-73159904D01*
X106767380Y-71731333D02*
X106767380Y-71921809D01*
X106815000Y-72017047D01*
X106862619Y-72064666D01*
X107005476Y-72159904D01*
X107195952Y-72207523D01*
X107576904Y-72207523D01*
X107672142Y-72159904D01*
X107719761Y-72112285D01*
X107767380Y-72017047D01*
X107767380Y-71826571D01*
X107719761Y-71731333D01*
X107672142Y-71683714D01*
X107576904Y-71636095D01*
X107338809Y-71636095D01*
X107243571Y-71683714D01*
X107195952Y-71731333D01*
X107148333Y-71826571D01*
X107148333Y-72017047D01*
X107195952Y-72112285D01*
X107243571Y-72159904D01*
X107338809Y-72207523D01*
X76398380Y-42298857D02*
X75922190Y-42632190D01*
X76398380Y-42870285D02*
X75398380Y-42870285D01*
X75398380Y-42489333D01*
X75446000Y-42394095D01*
X75493619Y-42346476D01*
X75588857Y-42298857D01*
X75731714Y-42298857D01*
X75826952Y-42346476D01*
X75874571Y-42394095D01*
X75922190Y-42489333D01*
X75922190Y-42870285D01*
X76398380Y-41346476D02*
X76398380Y-41917904D01*
X76398380Y-41632190D02*
X75398380Y-41632190D01*
X75541238Y-41727428D01*
X75636476Y-41822666D01*
X75684095Y-41917904D01*
X75398380Y-41013142D02*
X75398380Y-40346476D01*
X76398380Y-40775047D01*
X129151142Y-54935380D02*
X128817809Y-54459190D01*
X128579714Y-54935380D02*
X128579714Y-53935380D01*
X128960666Y-53935380D01*
X129055904Y-53983000D01*
X129103523Y-54030619D01*
X129151142Y-54125857D01*
X129151142Y-54268714D01*
X129103523Y-54363952D01*
X129055904Y-54411571D01*
X128960666Y-54459190D01*
X128579714Y-54459190D01*
X130103523Y-54935380D02*
X129532095Y-54935380D01*
X129817809Y-54935380D02*
X129817809Y-53935380D01*
X129722571Y-54078238D01*
X129627333Y-54173476D01*
X129532095Y-54221095D01*
X130674952Y-54363952D02*
X130579714Y-54316333D01*
X130532095Y-54268714D01*
X130484476Y-54173476D01*
X130484476Y-54125857D01*
X130532095Y-54030619D01*
X130579714Y-53983000D01*
X130674952Y-53935380D01*
X130865428Y-53935380D01*
X130960666Y-53983000D01*
X131008285Y-54030619D01*
X131055904Y-54125857D01*
X131055904Y-54173476D01*
X131008285Y-54268714D01*
X130960666Y-54316333D01*
X130865428Y-54363952D01*
X130674952Y-54363952D01*
X130579714Y-54411571D01*
X130532095Y-54459190D01*
X130484476Y-54554428D01*
X130484476Y-54744904D01*
X130532095Y-54840142D01*
X130579714Y-54887761D01*
X130674952Y-54935380D01*
X130865428Y-54935380D01*
X130960666Y-54887761D01*
X131008285Y-54840142D01*
X131055904Y-54744904D01*
X131055904Y-54554428D01*
X131008285Y-54459190D01*
X130960666Y-54411571D01*
X130865428Y-54363952D01*
X129151142Y-58234381D02*
X128817809Y-57758191D01*
X128579714Y-58234381D02*
X128579714Y-57234381D01*
X128960666Y-57234381D01*
X129055904Y-57282001D01*
X129103523Y-57329620D01*
X129151142Y-57424858D01*
X129151142Y-57567715D01*
X129103523Y-57662953D01*
X129055904Y-57710572D01*
X128960666Y-57758191D01*
X128579714Y-57758191D01*
X130103523Y-58234381D02*
X129532095Y-58234381D01*
X129817809Y-58234381D02*
X129817809Y-57234381D01*
X129722571Y-57377239D01*
X129627333Y-57472477D01*
X129532095Y-57520096D01*
X130579714Y-58234381D02*
X130770190Y-58234381D01*
X130865428Y-58186762D01*
X130913047Y-58139143D01*
X131008285Y-57996286D01*
X131055904Y-57805810D01*
X131055904Y-57424858D01*
X131008285Y-57329620D01*
X130960666Y-57282001D01*
X130865428Y-57234381D01*
X130674952Y-57234381D01*
X130579714Y-57282001D01*
X130532095Y-57329620D01*
X130484476Y-57424858D01*
X130484476Y-57662953D01*
X130532095Y-57758191D01*
X130579714Y-57805810D01*
X130674952Y-57853429D01*
X130865428Y-57853429D01*
X130960666Y-57805810D01*
X131008285Y-57758191D01*
X131055904Y-57662953D01*
X122880380Y-73540857D02*
X122404190Y-73874190D01*
X122880380Y-74112285D02*
X121880380Y-74112285D01*
X121880380Y-73731333D01*
X121928000Y-73636095D01*
X121975619Y-73588476D01*
X122070857Y-73540857D01*
X122213714Y-73540857D01*
X122308952Y-73588476D01*
X122356571Y-73636095D01*
X122404190Y-73731333D01*
X122404190Y-74112285D01*
X121975619Y-73159904D02*
X121928000Y-73112285D01*
X121880380Y-73017047D01*
X121880380Y-72778952D01*
X121928000Y-72683714D01*
X121975619Y-72636095D01*
X122070857Y-72588476D01*
X122166095Y-72588476D01*
X122308952Y-72636095D01*
X122880380Y-73207523D01*
X122880380Y-72588476D01*
X121880380Y-71969428D02*
X121880380Y-71874190D01*
X121928000Y-71778952D01*
X121975619Y-71731333D01*
X122070857Y-71683714D01*
X122261333Y-71636095D01*
X122499428Y-71636095D01*
X122689904Y-71683714D01*
X122785142Y-71731333D01*
X122832761Y-71778952D01*
X122880380Y-71874190D01*
X122880380Y-71969428D01*
X122832761Y-72064666D01*
X122785142Y-72112285D01*
X122689904Y-72159904D01*
X122499428Y-72207523D01*
X122261333Y-72207523D01*
X122070857Y-72159904D01*
X121975619Y-72112285D01*
X121928000Y-72064666D01*
X121880380Y-71969428D01*
X127492380Y-94051380D02*
X127159047Y-93575190D01*
X126920952Y-94051380D02*
X126920952Y-93051380D01*
X127301904Y-93051380D01*
X127397142Y-93099000D01*
X127444761Y-93146619D01*
X127492380Y-93241857D01*
X127492380Y-93384714D01*
X127444761Y-93479952D01*
X127397142Y-93527571D01*
X127301904Y-93575190D01*
X126920952Y-93575190D01*
X128254285Y-93527571D02*
X127920952Y-93527571D01*
X127920952Y-94051380D02*
X127920952Y-93051380D01*
X128397142Y-93051380D01*
X128778095Y-93051380D02*
X128778095Y-93860904D01*
X128825714Y-93956142D01*
X128873333Y-94003761D01*
X128968571Y-94051380D01*
X129159047Y-94051380D01*
X129254285Y-94003761D01*
X129301904Y-93956142D01*
X129349523Y-93860904D01*
X129349523Y-93051380D01*
X129778095Y-94003761D02*
X129920952Y-94051380D01*
X130159047Y-94051380D01*
X130254285Y-94003761D01*
X130301904Y-93956142D01*
X130349523Y-93860904D01*
X130349523Y-93765666D01*
X130301904Y-93670428D01*
X130254285Y-93622809D01*
X130159047Y-93575190D01*
X129968571Y-93527571D01*
X129873333Y-93479952D01*
X129825714Y-93432333D01*
X129778095Y-93337095D01*
X129778095Y-93241857D01*
X129825714Y-93146619D01*
X129873333Y-93099000D01*
X129968571Y-93051380D01*
X130206666Y-93051380D01*
X130349523Y-93099000D01*
X130778095Y-93527571D02*
X131111428Y-93527571D01*
X131254285Y-94051380D02*
X130778095Y-94051380D01*
X130778095Y-93051380D01*
X131254285Y-93051380D01*
X132206666Y-94051380D02*
X131635238Y-94051380D01*
X131920952Y-94051380D02*
X131920952Y-93051380D01*
X131825714Y-93194238D01*
X131730476Y-93289476D01*
X131635238Y-93337095D01*
X127492380Y-97861380D02*
X127159047Y-97385190D01*
X126920952Y-97861380D02*
X126920952Y-96861380D01*
X127301904Y-96861380D01*
X127397142Y-96909000D01*
X127444761Y-96956619D01*
X127492380Y-97051857D01*
X127492380Y-97194714D01*
X127444761Y-97289952D01*
X127397142Y-97337571D01*
X127301904Y-97385190D01*
X126920952Y-97385190D01*
X128254285Y-97337571D02*
X127920952Y-97337571D01*
X127920952Y-97861380D02*
X127920952Y-96861380D01*
X128397142Y-96861380D01*
X128778095Y-96861380D02*
X128778095Y-97670904D01*
X128825714Y-97766142D01*
X128873333Y-97813761D01*
X128968571Y-97861380D01*
X129159047Y-97861380D01*
X129254285Y-97813761D01*
X129301904Y-97766142D01*
X129349523Y-97670904D01*
X129349523Y-96861380D01*
X129778095Y-97813761D02*
X129920952Y-97861380D01*
X130159047Y-97861380D01*
X130254285Y-97813761D01*
X130301904Y-97766142D01*
X130349523Y-97670904D01*
X130349523Y-97575666D01*
X130301904Y-97480428D01*
X130254285Y-97432809D01*
X130159047Y-97385190D01*
X129968571Y-97337571D01*
X129873333Y-97289952D01*
X129825714Y-97242333D01*
X129778095Y-97147095D01*
X129778095Y-97051857D01*
X129825714Y-96956619D01*
X129873333Y-96909000D01*
X129968571Y-96861380D01*
X130206666Y-96861380D01*
X130349523Y-96909000D01*
X130778095Y-97337571D02*
X131111428Y-97337571D01*
X131254285Y-97861380D02*
X130778095Y-97861380D01*
X130778095Y-96861380D01*
X131254285Y-96861380D01*
X131635238Y-96956619D02*
X131682857Y-96909000D01*
X131778095Y-96861380D01*
X132016190Y-96861380D01*
X132111428Y-96909000D01*
X132159047Y-96956619D01*
X132206666Y-97051857D01*
X132206666Y-97147095D01*
X132159047Y-97289952D01*
X131587619Y-97861380D01*
X132206666Y-97861380D01*
X71056666Y-34920761D02*
X71199523Y-34968380D01*
X71437619Y-34968380D01*
X71532857Y-34920761D01*
X71580476Y-34873142D01*
X71628095Y-34777904D01*
X71628095Y-34682666D01*
X71580476Y-34587428D01*
X71532857Y-34539809D01*
X71437619Y-34492190D01*
X71247142Y-34444571D01*
X71151904Y-34396952D01*
X71104285Y-34349333D01*
X71056666Y-34254095D01*
X71056666Y-34158857D01*
X71104285Y-34063619D01*
X71151904Y-34016000D01*
X71247142Y-33968380D01*
X71485238Y-33968380D01*
X71628095Y-34016000D01*
X71961428Y-33968380D02*
X72199523Y-34968380D01*
X72390000Y-34254095D01*
X72580476Y-34968380D01*
X72818571Y-33968380D01*
X73723333Y-34968380D02*
X73151904Y-34968380D01*
X73437619Y-34968380D02*
X73437619Y-33968380D01*
X73342380Y-34111238D01*
X73247142Y-34206476D01*
X73151904Y-34254095D01*
X109855095Y-37298380D02*
X109855095Y-38107904D01*
X109902714Y-38203142D01*
X109950333Y-38250761D01*
X110045571Y-38298380D01*
X110236047Y-38298380D01*
X110331285Y-38250761D01*
X110378904Y-38203142D01*
X110426523Y-38107904D01*
X110426523Y-37298380D01*
X111426523Y-38298380D02*
X110855095Y-38298380D01*
X111140809Y-38298380D02*
X111140809Y-37298380D01*
X111045571Y-37441238D01*
X110950333Y-37536476D01*
X110855095Y-37584095D01*
X110069380Y-43902047D02*
X110069380Y-43330619D01*
X111069380Y-43616333D02*
X110069380Y-43616333D01*
X111069380Y-42521095D02*
X111069380Y-42997285D01*
X110069380Y-42997285D01*
X110069380Y-41997285D02*
X110069380Y-41902047D01*
X110117000Y-41806809D01*
X110164619Y-41759190D01*
X110259857Y-41711571D01*
X110450333Y-41663952D01*
X110688428Y-41663952D01*
X110878904Y-41711571D01*
X110974142Y-41759190D01*
X111021761Y-41806809D01*
X111069380Y-41902047D01*
X111069380Y-41997285D01*
X111021761Y-42092523D01*
X110974142Y-42140142D01*
X110878904Y-42187761D01*
X110688428Y-42235380D01*
X110450333Y-42235380D01*
X110259857Y-42187761D01*
X110164619Y-42140142D01*
X110117000Y-42092523D01*
X110069380Y-41997285D01*
X110069380Y-41330619D02*
X110069380Y-40663952D01*
X111069380Y-41092523D01*
X110164619Y-40330619D02*
X110117000Y-40283000D01*
X110069380Y-40187761D01*
X110069380Y-39949666D01*
X110117000Y-39854428D01*
X110164619Y-39806809D01*
X110259857Y-39759190D01*
X110355095Y-39759190D01*
X110497952Y-39806809D01*
X111069380Y-40378238D01*
X111069380Y-39759190D01*
X114173095Y-69302380D02*
X114173095Y-70111904D01*
X114220714Y-70207142D01*
X114268333Y-70254761D01*
X114363571Y-70302380D01*
X114554047Y-70302380D01*
X114649285Y-70254761D01*
X114696904Y-70207142D01*
X114744523Y-70111904D01*
X114744523Y-69302380D01*
X115173095Y-69397619D02*
X115220714Y-69350000D01*
X115315952Y-69302380D01*
X115554047Y-69302380D01*
X115649285Y-69350000D01*
X115696904Y-69397619D01*
X115744523Y-69492857D01*
X115744523Y-69588095D01*
X115696904Y-69730952D01*
X115125476Y-70302380D01*
X115744523Y-70302380D01*
X114387380Y-76287047D02*
X114387380Y-75715619D01*
X115387380Y-76001333D02*
X114387380Y-76001333D01*
X115387380Y-74906095D02*
X115387380Y-75382285D01*
X114387380Y-75382285D01*
X114387380Y-74382285D02*
X114387380Y-74287047D01*
X114435000Y-74191809D01*
X114482619Y-74144190D01*
X114577857Y-74096571D01*
X114768333Y-74048952D01*
X115006428Y-74048952D01*
X115196904Y-74096571D01*
X115292142Y-74144190D01*
X115339761Y-74191809D01*
X115387380Y-74287047D01*
X115387380Y-74382285D01*
X115339761Y-74477523D01*
X115292142Y-74525142D01*
X115196904Y-74572761D01*
X115006428Y-74620380D01*
X114768333Y-74620380D01*
X114577857Y-74572761D01*
X114482619Y-74525142D01*
X114435000Y-74477523D01*
X114387380Y-74382285D01*
X114387380Y-73715619D02*
X114387380Y-73048952D01*
X115387380Y-73477523D01*
X114482619Y-72715619D02*
X114435000Y-72668000D01*
X114387380Y-72572761D01*
X114387380Y-72334666D01*
X114435000Y-72239428D01*
X114482619Y-72191809D01*
X114577857Y-72144190D01*
X114673095Y-72144190D01*
X114815952Y-72191809D01*
X115387380Y-72763238D01*
X115387380Y-72144190D01*
X127762095Y-36917380D02*
X127762095Y-37726904D01*
X127809714Y-37822142D01*
X127857333Y-37869761D01*
X127952571Y-37917380D01*
X128143047Y-37917380D01*
X128238285Y-37869761D01*
X128285904Y-37822142D01*
X128333523Y-37726904D01*
X128333523Y-36917380D01*
X128714476Y-36917380D02*
X129333523Y-36917380D01*
X129000190Y-37298333D01*
X129143047Y-37298333D01*
X129238285Y-37345952D01*
X129285904Y-37393571D01*
X129333523Y-37488809D01*
X129333523Y-37726904D01*
X129285904Y-37822142D01*
X129238285Y-37869761D01*
X129143047Y-37917380D01*
X128857333Y-37917380D01*
X128762095Y-37869761D01*
X128714476Y-37822142D01*
D14*
X128776000Y-44368285D02*
X128776000Y-44011142D01*
X128990285Y-44439714D02*
X128240285Y-44189714D01*
X128990285Y-43939714D01*
X128990285Y-43689714D02*
X128240285Y-43689714D01*
X128240285Y-43511142D01*
X128276000Y-43404000D01*
X128347428Y-43332571D01*
X128418857Y-43296857D01*
X128561714Y-43261142D01*
X128668857Y-43261142D01*
X128811714Y-43296857D01*
X128883142Y-43332571D01*
X128954571Y-43404000D01*
X128990285Y-43511142D01*
X128990285Y-43689714D01*
X128240285Y-42618285D02*
X128240285Y-42761142D01*
X128276000Y-42832571D01*
X128311714Y-42868285D01*
X128418857Y-42939714D01*
X128561714Y-42975428D01*
X128847428Y-42975428D01*
X128918857Y-42939714D01*
X128954571Y-42904000D01*
X128990285Y-42832571D01*
X128990285Y-42689714D01*
X128954571Y-42618285D01*
X128918857Y-42582571D01*
X128847428Y-42546857D01*
X128668857Y-42546857D01*
X128597428Y-42582571D01*
X128561714Y-42618285D01*
X128526000Y-42689714D01*
X128526000Y-42832571D01*
X128561714Y-42904000D01*
X128597428Y-42939714D01*
X128668857Y-42975428D01*
X128240285Y-42296857D02*
X128240285Y-41832571D01*
X128526000Y-42082571D01*
X128526000Y-41975428D01*
X128561714Y-41904000D01*
X128597428Y-41868285D01*
X128668857Y-41832571D01*
X128847428Y-41832571D01*
X128918857Y-41868285D01*
X128954571Y-41904000D01*
X128990285Y-41975428D01*
X128990285Y-42189714D01*
X128954571Y-42261142D01*
X128918857Y-42296857D01*
X128240285Y-41582571D02*
X128240285Y-41118285D01*
X128526000Y-41368285D01*
X128526000Y-41261142D01*
X128561714Y-41189714D01*
X128597428Y-41154000D01*
X128668857Y-41118285D01*
X128847428Y-41118285D01*
X128918857Y-41154000D01*
X128954571Y-41189714D01*
X128990285Y-41261142D01*
X128990285Y-41475428D01*
X128954571Y-41546857D01*
X128918857Y-41582571D01*
X129061714Y-40975428D02*
X129061714Y-40404000D01*
X128990285Y-40225428D02*
X128240285Y-40225428D01*
X128240285Y-40046857D01*
X128276000Y-39939714D01*
X128347428Y-39868285D01*
X128418857Y-39832571D01*
X128561714Y-39796857D01*
X128668857Y-39796857D01*
X128811714Y-39832571D01*
X128883142Y-39868285D01*
X128954571Y-39939714D01*
X128990285Y-40046857D01*
X128990285Y-40225428D01*
X128990285Y-39475428D02*
X128240285Y-39475428D01*
X128990285Y-39118285D02*
X128240285Y-39118285D01*
X128240285Y-38832571D01*
X128276000Y-38761142D01*
X128311714Y-38725428D01*
X128383142Y-38689714D01*
X128490285Y-38689714D01*
X128561714Y-38725428D01*
X128597428Y-38761142D01*
X128633142Y-38832571D01*
X128633142Y-39118285D01*
M02*
