EESchema Schematic File Version 4
EELAYER 30 0
EELAYER END
$Descr A4 11693 8268
encoding utf-8
Sheet 2 2
Title "FUNC()"
Date ""
Rev "rev 2"
Comp "phonèmes"
Comment1 "AD633-based multiplier & divider"
Comment2 "CC-BY-SA"
Comment3 ""
Comment4 ""
$EndDescr
Text Notes 4600 6900 0    200  Italic 40
Bottom board\n
$Comp
L custom:AD633_DIP U2
U 1 1 5FADFB10
P 3950 3400
F 0 "U2" H 3950 3915 50  0000 C CNN
F 1 "AD633_DIP" H 3950 3824 50  0000 C CNN
F 2 "Package_DIP:DIP-8_W7.62mm_Socket_LongPads" H 3850 3400 50  0001 C CNN
F 3 "" H 3850 3400 50  0001 C CNN
	1    3950 3400
	1    0    0    -1  
$EndComp
Wire Wire Line
	3250 3450 3600 3450
Connection ~ 3250 3450
Wire Wire Line
	3250 3450 3250 4450
Wire Wire Line
	3450 3600 3600 3600
Wire Wire Line
	3450 3600 3450 3300
Connection ~ 3450 3600
Wire Wire Line
	3450 3300 3600 3300
Wire Wire Line
	3450 3750 3450 3600
Wire Wire Line
	3150 3450 3250 3450
Text Label 3150 3450 2    50   ~ 0
CARRIER
Wire Wire Line
	4300 3450 5100 3450
Text Notes 6100 1550 0    50   ~ 0
What the switch does:\n- When multiplying, the output IS the AD633 output\n- When dividing, the output is the OpAmp output
$Comp
L Device:R R?
U 1 1 5FB9094D
P 7550 1900
AR Path="/5FB9094D" Ref="R?"  Part="1" 
AR Path="/5E97E639/5FB9094D" Ref="R16"  Part="1" 
F 0 "R16" V 7450 1900 50  0000 C CNN
F 1 "560R" V 7550 1900 50  0000 C CNN
F 2 "Resistor_THT:R_Axial_DIN0207_L6.3mm_D2.5mm_P10.16mm_Horizontal" V 7480 1900 50  0001 C CNN
F 3 "~" H 7550 1900 50  0001 C CNN
	1    7550 1900
	0    1    1    0   
$EndComp
Wire Wire Line
	7750 2250 7750 2150
Wire Wire Line
	7750 2150 7850 2150
Wire Wire Line
	7700 1900 7850 1900
Wire Wire Line
	7850 2150 7850 1900
Connection ~ 7850 2150
Wire Wire Line
	7850 2150 8000 2150
Connection ~ 7850 1900
Wire Wire Line
	7850 1900 8100 1900
Wire Wire Line
	6900 1900 7400 1900
Wire Wire Line
	8650 1550 8650 1900
Text Notes 10100 2250 0    50   ~ 0
around +/- 6V \nat max amplitude
Text Label 10250 2000 0    50   ~ 0
OUTPUT_BOTTOM
Wire Wire Line
	8400 1900 8650 1900
$Comp
L Amplifier_Operational:TL072 U?
U 2 1 5FB90980
P 4150 5450
AR Path="/5FB90980" Ref="U?"  Part="2" 
AR Path="/5E97E639/5FB90980" Ref="U3"  Part="2" 
F 0 "U3" H 4150 5800 50  0000 C CNN
F 1 "TL072" H 4150 5700 50  0000 C CNN
F 2 "Package_DIP:DIP-8_W7.62mm_Socket_LongPads" H 4150 5450 50  0001 C CNN
F 3 "http://www.ti.com/lit/ds/symlink/tl071.pdf" H 4150 5450 50  0001 C CNN
	2    4150 5450
	1    0    0    1   
$EndComp
Text Notes 7700 800  0    100  ~ 0
OUTPUT & CLIPPING STAGE
Connection ~ 8650 1550
Wire Wire Line
	8650 1250 8650 1550
Wire Wire Line
	7850 2650 7750 2650
Connection ~ 7850 2650
Wire Wire Line
	7850 2750 7850 2650
$Comp
L power:GND #PWR?
U 1 1 5FB90965
P 7850 2750
AR Path="/5FB90965" Ref="#PWR?"  Part="1" 
AR Path="/5E97E639/5FB90965" Ref="#PWR023"  Part="1" 
F 0 "#PWR023" H 7850 2500 50  0001 C CNN
F 1 "GND" H 7855 2577 50  0000 C CNN
F 2 "" H 7850 2750 50  0001 C CNN
F 3 "" H 7850 2750 50  0001 C CNN
	1    7850 2750
	1    0    0    -1  
$EndComp
Wire Wire Line
	7750 2650 7750 2550
Wire Wire Line
	8000 2650 7850 2650
Wire Wire Line
	8000 2550 8000 2650
Wire Wire Line
	8000 2150 8000 2250
$Comp
L Device:D D?
U 1 1 5FB90959
P 7750 2400
AR Path="/5FB90959" Ref="D?"  Part="1" 
AR Path="/5E97E639/5FB90959" Ref="D1"  Part="1" 
F 0 "D1" V 7800 2600 50  0000 R CNN
F 1 "1N4148" V 7700 2750 50  0000 R CNN
F 2 "Diode_THT:D_DO-35_SOD27_P7.62mm_Horizontal" H 7750 2400 50  0001 C CNN
F 3 "~" H 7750 2400 50  0001 C CNN
	1    7750 2400
	0    -1   -1   0   
$EndComp
$Comp
L Device:D D?
U 1 1 5FB90953
P 8000 2400
AR Path="/5FB90953" Ref="D?"  Part="1" 
AR Path="/5E97E639/5FB90953" Ref="D2"  Part="1" 
F 0 "D2" V 7954 2479 50  0000 L CNN
F 1 "1N4148" V 8045 2479 50  0000 L CNN
F 2 "Diode_THT:D_DO-35_SOD27_P7.62mm_Horizontal" H 8000 2400 50  0001 C CNN
F 3 "~" H 8000 2400 50  0001 C CNN
	1    8000 2400
	0    1    1    0   
$EndComp
$Comp
L Device:R R?
U 1 1 5FB90947
P 8250 1900
AR Path="/5FB90947" Ref="R?"  Part="1" 
AR Path="/5E97E639/5FB90947" Ref="R17"  Part="1" 
F 0 "R17" V 8150 1900 50  0000 C CNN
F 1 "10K" V 8250 1900 50  0000 C CNN
F 2 "Resistor_THT:R_Axial_DIN0207_L6.3mm_D2.5mm_P10.16mm_Horizontal" V 8180 1900 50  0001 C CNN
F 3 "~" H 8250 1900 50  0001 C CNN
	1    8250 1900
	0    1    1    0   
$EndComp
Wire Wire Line
	8800 2100 8800 2200
Wire Wire Line
	8900 2100 8800 2100
$Comp
L power:GND #PWR?
U 1 1 5FB9093F
P 8800 2200
AR Path="/5FB9093F" Ref="#PWR?"  Part="1" 
AR Path="/5E97E639/5FB9093F" Ref="#PWR027"  Part="1" 
F 0 "#PWR027" H 8800 1950 50  0001 C CNN
F 1 "GND" H 8805 2027 50  0000 C CNN
F 2 "" H 8800 2200 50  0001 C CNN
F 3 "" H 8800 2200 50  0001 C CNN
	1    8800 2200
	1    0    0    -1  
$EndComp
Connection ~ 8650 1900
Wire Wire Line
	8650 1900 8900 1900
$Comp
L Switch:SW_DPDT_x2 SW?
U 2 1 5F9FE69A
P 6700 1900
AR Path="/5F9FE69A" Ref="SW?"  Part="2" 
AR Path="/5E97E639/5F9FE69A" Ref="SW1"  Part="2" 
F 0 "SW1" H 6400 1650 50  0000 C CNN
F 1 "SW_DPDT_x2" H 6400 1750 50  0000 C CNN
F 2 "Connector_PinHeader_2.54mm:PinHeader_1x06_P2.54mm_Vertical" H 6700 1900 50  0001 C CNN
F 3 "" H 6700 1900 50  0001 C CNN
	2    6700 1900
	-1   0    0    -1  
$EndComp
Wire Wire Line
	4500 4050 4650 4050
Connection ~ 4500 4050
Wire Wire Line
	4500 4050 4500 4100
$Comp
L power:-12V #PWR?
U 1 1 5EB27699
P 4500 4100
AR Path="/5EB27699" Ref="#PWR?"  Part="1" 
AR Path="/5E97E639/5EB27699" Ref="#PWR017"  Part="1" 
F 0 "#PWR017" H 4500 4200 50  0001 C CNN
F 1 "-12V" H 4515 4273 50  0000 C CNN
F 2 "" H 4500 4100 50  0001 C CNN
F 3 "" H 4500 4100 50  0001 C CNN
	1    4500 4100
	-1   0    0    1   
$EndComp
Wire Wire Line
	4650 3600 4650 3700
Wire Wire Line
	4900 3600 4650 3600
Wire Wire Line
	4900 3650 4900 3600
$Comp
L power:GND #PWR?
U 1 1 5EB27690
P 4900 3650
AR Path="/5EB27690" Ref="#PWR?"  Part="1" 
AR Path="/5E97E639/5EB27690" Ref="#PWR019"  Part="1" 
F 0 "#PWR019" H 4900 3400 50  0001 C CNN
F 1 "GND" H 4905 3477 50  0000 C CNN
F 2 "" H 4900 3650 50  0001 C CNN
F 3 "" H 4900 3650 50  0001 C CNN
	1    4900 3650
	1    0    0    -1  
$EndComp
Wire Wire Line
	4650 4050 4650 4000
Wire Wire Line
	4400 4050 4500 4050
Wire Wire Line
	4400 3600 4400 4050
Wire Wire Line
	4300 3600 4400 3600
$Comp
L Device:C C?
U 1 1 5EB27685
P 4650 3850
AR Path="/5EB27685" Ref="C?"  Part="1" 
AR Path="/5E97E639/5EB27685" Ref="C4"  Part="1" 
F 0 "C4" H 4700 3750 50  0000 L CNN
F 1 "100n" H 4700 3650 50  0000 L CNN
F 2 "Capacitor_THT:C_Disc_D7.0mm_W2.5mm_P5.00mm" H 4688 3700 50  0001 C CNN
F 3 "~" H 4650 3850 50  0001 C CNN
	1    4650 3850
	1    0    0    -1  
$EndComp
$Comp
L power:+12V #PWR?
U 1 1 5EB2767F
P 4500 2550
AR Path="/5EB2767F" Ref="#PWR?"  Part="1" 
AR Path="/5E97E639/5EB2767F" Ref="#PWR016"  Part="1" 
F 0 "#PWR016" H 4500 2400 50  0001 C CNN
F 1 "+12V" H 4515 2723 50  0000 C CNN
F 2 "" H 4500 2550 50  0001 C CNN
F 3 "" H 4500 2550 50  0001 C CNN
	1    4500 2550
	1    0    0    -1  
$EndComp
Wire Wire Line
	4500 2650 4650 2650
Connection ~ 4500 2650
Wire Wire Line
	4500 2650 4500 2550
Wire Wire Line
	4650 3050 4650 3000
$Comp
L power:GND #PWR?
U 1 1 5EB27675
P 4650 3050
AR Path="/5EB27675" Ref="#PWR?"  Part="1" 
AR Path="/5E97E639/5EB27675" Ref="#PWR018"  Part="1" 
F 0 "#PWR018" H 4650 2800 50  0001 C CNN
F 1 "GND" H 4655 2877 50  0000 C CNN
F 2 "" H 4650 3050 50  0001 C CNN
F 3 "" H 4650 3050 50  0001 C CNN
	1    4650 3050
	1    0    0    -1  
$EndComp
Wire Wire Line
	4400 2650 4400 3150
Wire Wire Line
	4650 2650 4650 2700
Wire Wire Line
	4400 2650 4500 2650
$Comp
L Device:C C?
U 1 1 5EB2766B
P 4650 2850
AR Path="/5EB2766B" Ref="C?"  Part="1" 
AR Path="/5E97E639/5EB2766B" Ref="C3"  Part="1" 
F 0 "C3" H 4700 2750 50  0000 L CNN
F 1 "100n" H 4700 2650 50  0000 L CNN
F 2 "Capacitor_THT:C_Disc_D7.0mm_W2.5mm_P5.00mm" H 4688 2700 50  0001 C CNN
F 3 "~" H 4650 2850 50  0001 C CNN
	1    4650 2850
	1    0    0    -1  
$EndComp
Wire Wire Line
	4300 3150 4400 3150
$Comp
L power:GND #PWR?
U 1 1 5EB27660
P 3450 3750
AR Path="/5EB27660" Ref="#PWR?"  Part="1" 
AR Path="/5E97E639/5EB27660" Ref="#PWR014"  Part="1" 
F 0 "#PWR014" H 3450 3500 50  0001 C CNN
F 1 "GND" H 3455 3577 50  0000 C CNN
F 2 "" H 3450 3750 50  0001 C CNN
F 3 "" H 3450 3750 50  0001 C CNN
	1    3450 3750
	1    0    0    -1  
$EndComp
Wire Notes Line
	8950 4650 8950 2700
Wire Notes Line
	11100 4650 8950 4650
Wire Notes Line
	11100 2700 11100 4650
Wire Notes Line
	8950 2700 11100 2700
Text Notes 7750 4900 0    50   ~ 0
Top/bottom connectors
Wire Notes Line
	7650 4750 11100 4750
Wire Notes Line
	7650 6400 7650 4750
Wire Notes Line
	11100 6400 7650 6400
Wire Notes Line
	11100 4750 11100 6400
Text Label 8600 5800 2    50   ~ 0
OUTPUT_BOTTOM
Text Label 8600 5700 2    50   ~ 0
OFFSET_BOTTOM
Text Label 8600 5500 2    50   ~ 0
CARRIER_BOTTOM
Text Label 8600 5600 2    50   ~ 0
MODULATOR_BOTTOM
$Comp
L Connector_Generic:Conn_01x04 J?
U 1 1 5ED63DFA
P 8800 5600
AR Path="/5ED63DFA" Ref="J?"  Part="1" 
AR Path="/5E97E639/5ED63DFA" Ref="J8"  Part="1" 
F 0 "J8" H 8880 5592 50  0000 L CNN
F 1 "SIGNALS_BOTTOM" H 8880 5501 50  0000 L CNN
F 2 "Connector_PinSocket_2.54mm:PinSocket_1x04_P2.54mm_Vertical" H 8800 5600 50  0001 C CNN
F 3 "~" H 8800 5600 50  0001 C CNN
	1    8800 5600
	1    0    0    -1  
$EndComp
$Comp
L power:GND #PWR?
U 1 1 5ED63DF4
P 9700 5800
AR Path="/5ED63DF4" Ref="#PWR?"  Part="1" 
AR Path="/5E97E639/5ED63DF4" Ref="#PWR030"  Part="1" 
F 0 "#PWR030" H 9700 5550 50  0001 C CNN
F 1 "GND" H 9705 5627 50  0000 C CNN
F 2 "" H 9700 5800 50  0001 C CNN
F 3 "" H 9700 5800 50  0001 C CNN
	1    9700 5800
	1    0    0    -1  
$EndComp
$Comp
L power:GND #PWR?
U 1 1 5ED63DEE
P 10800 5800
AR Path="/5ED63DEE" Ref="#PWR?"  Part="1" 
AR Path="/5E97E639/5ED63DEE" Ref="#PWR035"  Part="1" 
F 0 "#PWR035" H 10800 5550 50  0001 C CNN
F 1 "GND" H 10805 5627 50  0000 C CNN
F 2 "" H 10800 5800 50  0001 C CNN
F 3 "" H 10800 5800 50  0001 C CNN
	1    10800 5800
	1    0    0    -1  
$EndComp
Wire Wire Line
	9700 5650 9700 5800
Wire Wire Line
	10000 5650 9700 5650
Wire Wire Line
	10800 5650 10800 5800
Wire Wire Line
	10500 5650 10800 5650
Wire Wire Line
	10250 6050 9900 6050
Connection ~ 10250 6050
$Comp
L power:-12V #PWR?
U 1 1 5ED63DE2
P 10250 6050
AR Path="/5ED63DE2" Ref="#PWR?"  Part="1" 
AR Path="/5E97E639/5ED63DE2" Ref="#PWR032"  Part="1" 
F 0 "#PWR032" H 10250 6150 50  0001 C CNN
F 1 "-12V" H 10265 6223 50  0000 C CNN
F 2 "" H 10250 6050 50  0001 C CNN
F 3 "" H 10250 6050 50  0001 C CNN
	1    10250 6050
	-1   0    0    1   
$EndComp
Wire Wire Line
	10250 5150 9900 5150
Connection ~ 10250 5150
$Comp
L power:+12V #PWR?
U 1 1 5ED63DDA
P 10250 5150
AR Path="/5ED63DDA" Ref="#PWR?"  Part="1" 
AR Path="/5E97E639/5ED63DDA" Ref="#PWR031"  Part="1" 
F 0 "#PWR031" H 10250 5000 50  0001 C CNN
F 1 "+12V" H 10265 5323 50  0000 C CNN
F 2 "" H 10250 5150 50  0001 C CNN
F 3 "" H 10250 5150 50  0001 C CNN
	1    10250 5150
	1    0    0    -1  
$EndComp
Wire Wire Line
	9900 5750 10000 5750
Wire Wire Line
	9900 6050 9900 5750
Wire Wire Line
	10600 6050 10250 6050
Wire Wire Line
	10600 5750 10600 6050
Wire Wire Line
	10500 5750 10600 5750
Wire Wire Line
	9900 5550 10000 5550
Wire Wire Line
	9900 5150 9900 5550
Wire Wire Line
	10600 5150 10250 5150
Wire Wire Line
	10600 5550 10600 5150
Wire Wire Line
	10500 5550 10600 5550
$Comp
L Connector_Generic:Conn_02x03_Odd_Even J?
U 1 1 5ED63DC9
P 10200 5650
AR Path="/5ED63DC9" Ref="J?"  Part="1" 
AR Path="/5E97E639/5ED63DC9" Ref="J10"  Part="1" 
F 0 "J10" H 10250 5967 50  0000 C CNN
F 1 "SUPPLY_BOTTOM" H 10250 5876 50  0000 C CNN
F 2 "Connector_PinSocket_2.54mm:PinSocket_2x03_P2.54mm_Vertical" H 10200 5650 50  0001 C CNN
F 3 "~" H 10200 5650 50  0001 C CNN
	1    10200 5650
	1    0    0    -1  
$EndComp
$Comp
L Mechanical:MountingHole HS?
U 1 1 5ED31ABA
P 8100 4550
AR Path="/5ED31ABA" Ref="HS?"  Part="1" 
AR Path="/5E97E639/5ED31ABA" Ref="HS4"  Part="1" 
F 0 "HS4" H 8200 4596 50  0000 L CNN
F 1 "MountingHole" H 8200 4505 50  0000 L CNN
F 2 "MountingHole:MountingHole_3.2mm_M3" H 8100 4550 50  0001 C CNN
F 3 "~" H 8100 4550 50  0001 C CNN
	1    8100 4550
	1    0    0    -1  
$EndComp
$Comp
L Mechanical:MountingHole HS?
U 1 1 5ED31AB3
P 8100 4350
AR Path="/5ED31AB3" Ref="HS?"  Part="1" 
AR Path="/5E97E639/5ED31AB3" Ref="HS3"  Part="1" 
F 0 "HS3" H 8200 4396 50  0000 L CNN
F 1 "MountingHole" H 8200 4305 50  0000 L CNN
F 2 "MountingHole:MountingHole_3.2mm_M3" H 8100 4350 50  0001 C CNN
F 3 "~" H 8100 4350 50  0001 C CNN
	1    8100 4350
	1    0    0    -1  
$EndComp
$Comp
L power:GNDPWR #PWR?
U 1 1 5EB277E0
P 9400 4100
AR Path="/5EB277E0" Ref="#PWR?"  Part="1" 
AR Path="/5E97E639/5EB277E0" Ref="#PWR028"  Part="1" 
F 0 "#PWR028" H 9400 3900 50  0001 C CNN
F 1 "GNDPWR" H 9404 3946 50  0000 C CNN
F 2 "" H 9400 4050 50  0001 C CNN
F 3 "" H 9400 4050 50  0001 C CNN
	1    9400 4100
	1    0    0    -1  
$EndComp
Wire Wire Line
	9400 4100 9400 4000
Wire Wire Line
	9400 4000 9650 4000
Connection ~ 9650 4000
Wire Wire Line
	9650 3700 9650 4000
Wire Wire Line
	9650 4000 9650 4100
Connection ~ 10750 4050
Wire Wire Line
	10750 4100 10750 4050
$Comp
L power:-12V #PWR?
U 1 1 5EB277D2
P 10750 4100
AR Path="/5EB277D2" Ref="#PWR?"  Part="1" 
AR Path="/5E97E639/5EB277D2" Ref="#PWR034"  Part="1" 
F 0 "#PWR034" H 10750 4200 50  0001 C CNN
F 1 "-12V" H 10765 4273 50  0000 C CNN
F 2 "" H 10750 4100 50  0001 C CNN
F 3 "" H 10750 4100 50  0001 C CNN
	1    10750 4100
	-1   0    0    1   
$EndComp
Connection ~ 10750 3250
Wire Wire Line
	10750 3250 10750 3200
$Comp
L power:+12V #PWR?
U 1 1 5EB277CA
P 10750 3200
AR Path="/5EB277CA" Ref="#PWR?"  Part="1" 
AR Path="/5E97E639/5EB277CA" Ref="#PWR033"  Part="1" 
F 0 "#PWR033" H 10750 3050 50  0001 C CNN
F 1 "+12V" H 10765 3373 50  0000 C CNN
F 2 "" H 10750 3200 50  0001 C CNN
F 3 "" H 10750 3200 50  0001 C CNN
	1    10750 3200
	1    0    0    -1  
$EndComp
Wire Wire Line
	10500 4050 10750 4050
Connection ~ 10500 4050
Wire Wire Line
	10500 4200 10500 4050
$Comp
L power:PWR_FLAG #FLG?
U 1 1 5EB277C1
P 10500 4200
AR Path="/5EB277C1" Ref="#FLG?"  Part="1" 
AR Path="/5E97E639/5EB277C1" Ref="#FLG02"  Part="1" 
F 0 "#FLG02" H 10500 4275 50  0001 C CNN
F 1 "PWR_FLAG" H 10500 4373 50  0000 C CNN
F 2 "" H 10500 4200 50  0001 C CNN
F 3 "~" H 10500 4200 50  0001 C CNN
	1    10500 4200
	-1   0    0    1   
$EndComp
Wire Wire Line
	10500 3250 10750 3250
Connection ~ 10500 3250
Wire Wire Line
	10500 3100 10500 3250
$Comp
L power:PWR_FLAG #FLG?
U 1 1 5EB277B8
P 10500 3100
AR Path="/5EB277B8" Ref="#FLG?"  Part="1" 
AR Path="/5E97E639/5EB277B8" Ref="#FLG01"  Part="1" 
F 0 "#FLG01" H 10500 3175 50  0001 C CNN
F 1 "PWR_FLAG" H 10500 3274 50  0000 C CNN
F 2 "" H 10500 3100 50  0001 C CNN
F 3 "~" H 10500 3100 50  0001 C CNN
	1    10500 3100
	1    0    0    -1  
$EndComp
Wire Wire Line
	10750 4050 10750 4000
Wire Wire Line
	10500 3800 10500 4050
Wire Wire Line
	10400 3800 10500 3800
Wire Wire Line
	10750 3250 10750 3300
Wire Wire Line
	10500 3500 10500 3250
Wire Wire Line
	10400 3500 10500 3500
Connection ~ 10750 3650
Wire Wire Line
	10750 3650 10750 3700
Wire Wire Line
	9650 3650 10750 3650
Wire Wire Line
	10750 3650 10750 3600
$Comp
L Device:CP C?
U 1 1 5EB277A7
P 10750 3850
AR Path="/5EB277A7" Ref="C?"  Part="1" 
AR Path="/5E97E639/5EB277A7" Ref="C11"  Part="1" 
F 0 "C11" H 10868 3896 50  0000 L CNN
F 1 "10u" H 10868 3805 50  0000 L CNN
F 2 "Capacitor_THT:CP_Radial_D6.3mm_P2.50mm" H 10788 3700 50  0001 C CNN
F 3 "~" H 10750 3850 50  0001 C CNN
	1    10750 3850
	1    0    0    -1  
$EndComp
$Comp
L Device:CP C?
U 1 1 5EB277A0
P 10750 3450
AR Path="/5EB277A0" Ref="C?"  Part="1" 
AR Path="/5E97E639/5EB277A0" Ref="C10"  Part="1" 
F 0 "C10" H 10868 3496 50  0000 L CNN
F 1 "10u" H 10868 3405 50  0000 L CNN
F 2 "Capacitor_THT:CP_Radial_D6.3mm_P2.50mm" H 10788 3300 50  0001 C CNN
F 3 "~" H 10750 3450 50  0001 C CNN
	1    10750 3450
	1    0    0    -1  
$EndComp
Wire Wire Line
	10100 3800 10000 3800
$Comp
L Device:R RFUSE?
U 1 1 5EB27798
P 10250 3800
AR Path="/5EB27798" Ref="RFUSE?"  Part="1" 
AR Path="/5E97E639/5EB27798" Ref="RFUSE2"  Part="1" 
F 0 "RFUSE2" V 10350 3800 50  0000 C CNN
F 1 "0R" V 10250 3800 50  0000 C CNN
F 2 "Resistor_THT:R_Axial_DIN0207_L6.3mm_D2.5mm_P10.16mm_Horizontal" V 10180 3800 50  0001 C CNN
F 3 "~" H 10250 3800 50  0001 C CNN
	1    10250 3800
	0    1    1    0   
$EndComp
Wire Wire Line
	10000 3500 10100 3500
$Comp
L Device:R RFUSE?
U 1 1 5EB27790
P 10250 3500
AR Path="/5EB27790" Ref="RFUSE?"  Part="1" 
AR Path="/5E97E639/5EB27790" Ref="RFUSE1"  Part="1" 
F 0 "RFUSE1" V 10150 3500 50  0000 C CNN
F 1 "0R" V 10250 3500 50  0000 C CNN
F 2 "Resistor_THT:R_Axial_DIN0207_L6.3mm_D2.5mm_P10.16mm_Horizontal" V 10180 3500 50  0001 C CNN
F 3 "~" H 10250 3500 50  0001 C CNN
	1    10250 3500
	0    1    1    0   
$EndComp
Wire Wire Line
	9650 3650 9650 3700
Connection ~ 9650 3650
$Comp
L power:GND #PWR?
U 1 1 5EB27788
P 9650 4100
AR Path="/5EB27788" Ref="#PWR?"  Part="1" 
AR Path="/5E97E639/5EB27788" Ref="#PWR029"  Part="1" 
F 0 "#PWR029" H 9650 3850 50  0001 C CNN
F 1 "GND" H 9655 3927 50  0000 C CNN
F 2 "" H 9650 4100 50  0001 C CNN
F 3 "" H 9650 4100 50  0001 C CNN
	1    9650 4100
	1    0    0    -1  
$EndComp
Connection ~ 9650 3700
Wire Wire Line
	9650 3700 9600 3700
Wire Wire Line
	9650 3600 9650 3650
Wire Wire Line
	9600 3600 9650 3600
Wire Wire Line
	9600 3800 9700 3800
Wire Wire Line
	9600 3500 9700 3500
$Comp
L Diode:1N5817 D?
U 1 1 5EB2777B
P 9850 3800
AR Path="/5EB2777B" Ref="D?"  Part="1" 
AR Path="/5E97E639/5EB2777B" Ref="D4"  Part="1" 
F 0 "D4" H 9850 3700 50  0000 C CNN
F 1 "1N5818" H 9850 3600 50  0000 C CNN
F 2 "Diode_THT:D_DO-41_SOD81_P10.16mm_Horizontal" H 9850 3625 50  0001 C CNN
F 3 "http://www.vishay.com/docs/88525/1n5817.pdf" H 9850 3800 50  0001 C CNN
	1    9850 3800
	1    0    0    -1  
$EndComp
$Comp
L Diode:1N5817 D?
U 1 1 5EB27774
P 9850 3500
AR Path="/5EB27774" Ref="D?"  Part="1" 
AR Path="/5E97E639/5EB27774" Ref="D3"  Part="1" 
F 0 "D3" H 9850 3284 50  0000 C CNN
F 1 "1N5818" H 9850 3375 50  0000 C CNN
F 2 "Diode_THT:D_DO-41_SOD81_P10.16mm_Horizontal" H 9850 3325 50  0001 C CNN
F 3 "http://www.vishay.com/docs/88525/1n5817.pdf" H 9850 3500 50  0001 C CNN
	1    9850 3500
	-1   0    0    1   
$EndComp
$Comp
L Connector_Generic:Conn_01x04 J?
U 1 1 5EB2776D
P 9400 3600
AR Path="/5EB2776D" Ref="J?"  Part="1" 
AR Path="/5E97E639/5EB2776D" Ref="J9"  Part="1" 
F 0 "J9" H 9500 3550 50  0000 C CNN
F 1 "POWER" H 9600 3650 50  0000 C CNN
F 2 "custom:0.156_4pin" H 9400 3600 50  0001 C CNN
F 3 "~" H 9400 3600 50  0001 C CNN
	1    9400 3600
	-1   0    0    -1  
$EndComp
Text Notes 9000 2900 0    100  ~ 0
POWER INPUT
Wire Wire Line
	1700 6850 1700 6900
$Comp
L power:GND #PWR?
U 1 1 5FC56988
P 1700 6900
AR Path="/5FC56988" Ref="#PWR?"  Part="1" 
AR Path="/5E97E639/5FC56988" Ref="#PWR022"  Part="1" 
F 0 "#PWR022" H 1700 6650 50  0001 C CNN
F 1 "GND" H 1705 6727 50  0000 C CNN
F 2 "" H 1700 6900 50  0001 C CNN
F 3 "" H 1700 6900 50  0001 C CNN
	1    1700 6900
	1    0    0    -1  
$EndComp
Wire Wire Line
	1100 7250 900  7250
Connection ~ 1100 7250
Wire Wire Line
	1100 7250 1100 7300
$Comp
L power:-12V #PWR?
U 1 1 5FC27410
P 1100 7300
AR Path="/5FC27410" Ref="#PWR?"  Part="1" 
AR Path="/5E97E639/5FC27410" Ref="#PWR021"  Part="1" 
F 0 "#PWR021" H 1100 7400 50  0001 C CNN
F 1 "-12V" H 1115 7473 50  0000 C CNN
F 2 "" H 1100 7300 50  0001 C CNN
F 3 "" H 1100 7300 50  0001 C CNN
	1    1100 7300
	-1   0    0    1   
$EndComp
Wire Wire Line
	1100 6450 1350 6450
Connection ~ 1100 6450
Wire Wire Line
	1100 6400 1100 6450
$Comp
L power:+12V #PWR?
U 1 1 5FC27407
P 1100 6400
AR Path="/5FC27407" Ref="#PWR?"  Part="1" 
AR Path="/5E97E639/5FC27407" Ref="#PWR020"  Part="1" 
F 0 "#PWR020" H 1100 6250 50  0001 C CNN
F 1 "+12V" H 1115 6573 50  0000 C CNN
F 2 "" H 1100 6400 50  0001 C CNN
F 3 "" H 1100 6400 50  0001 C CNN
	1    1100 6400
	1    0    0    -1  
$EndComp
Wire Wire Line
	1350 6850 1350 6800
Connection ~ 1350 6850
Wire Wire Line
	1350 6850 1700 6850
Wire Wire Line
	1350 6900 1350 6850
Wire Wire Line
	900  7250 900  7150
Wire Wire Line
	1350 7250 1100 7250
Wire Wire Line
	1350 7200 1350 7250
Wire Wire Line
	1350 6450 1350 6500
Wire Wire Line
	900  6450 1100 6450
Wire Wire Line
	900  6550 900  6450
$Comp
L Device:C C?
U 1 1 5FC273F7
P 1350 7050
AR Path="/5FC273F7" Ref="C?"  Part="1" 
AR Path="/5E97E639/5FC273F7" Ref="C6"  Part="1" 
F 0 "C6" H 1400 6950 50  0000 L CNN
F 1 "100n" H 1400 6850 50  0000 L CNN
F 2 "Capacitor_THT:C_Disc_D7.0mm_W2.5mm_P5.00mm" H 1388 6900 50  0001 C CNN
F 3 "~" H 1350 7050 50  0001 C CNN
	1    1350 7050
	1    0    0    -1  
$EndComp
$Comp
L Device:C C?
U 1 1 5FC273F1
P 1350 6650
AR Path="/5FC273F1" Ref="C?"  Part="1" 
AR Path="/5E97E639/5FC273F1" Ref="C5"  Part="1" 
F 0 "C5" H 1400 6850 50  0000 L CNN
F 1 "100n" H 1400 6750 50  0000 L CNN
F 2 "Capacitor_THT:C_Disc_D7.0mm_W2.5mm_P5.00mm" H 1388 6500 50  0001 C CNN
F 3 "~" H 1350 6650 50  0001 C CNN
	1    1350 6650
	1    0    0    -1  
$EndComp
Wire Wire Line
	2500 7250 2300 7250
Connection ~ 2500 7250
Wire Wire Line
	2500 7250 2500 7300
$Comp
L power:-12V #PWR?
U 1 1 5EB2762F
P 2500 7300
AR Path="/5EB2762F" Ref="#PWR?"  Part="1" 
AR Path="/5E97E639/5EB2762F" Ref="#PWR025"  Part="1" 
F 0 "#PWR025" H 2500 7400 50  0001 C CNN
F 1 "-12V" H 2515 7473 50  0000 C CNN
F 2 "" H 2500 7300 50  0001 C CNN
F 3 "" H 2500 7300 50  0001 C CNN
	1    2500 7300
	-1   0    0    1   
$EndComp
Wire Wire Line
	2500 6450 2750 6450
Connection ~ 2500 6450
Wire Wire Line
	2500 6400 2500 6450
$Comp
L power:+12V #PWR?
U 1 1 5EB27626
P 2500 6400
AR Path="/5EB27626" Ref="#PWR?"  Part="1" 
AR Path="/5E97E639/5EB27626" Ref="#PWR024"  Part="1" 
F 0 "#PWR024" H 2500 6250 50  0001 C CNN
F 1 "+12V" H 2515 6573 50  0000 C CNN
F 2 "" H 2500 6400 50  0001 C CNN
F 3 "" H 2500 6400 50  0001 C CNN
	1    2500 6400
	1    0    0    -1  
$EndComp
$Comp
L power:GND #PWR?
U 1 1 5EB27620
P 3100 6900
AR Path="/5EB27620" Ref="#PWR?"  Part="1" 
AR Path="/5E97E639/5EB27620" Ref="#PWR026"  Part="1" 
F 0 "#PWR026" H 3100 6650 50  0001 C CNN
F 1 "GND" H 3105 6727 50  0000 C CNN
F 2 "" H 3100 6900 50  0001 C CNN
F 3 "" H 3100 6900 50  0001 C CNN
	1    3100 6900
	1    0    0    -1  
$EndComp
Wire Wire Line
	2750 6850 2750 6800
Connection ~ 2750 6850
Wire Wire Line
	3100 6850 3100 6900
Wire Wire Line
	2750 6850 3100 6850
Wire Wire Line
	2750 6900 2750 6850
Wire Wire Line
	2300 7250 2300 7150
Wire Wire Line
	2750 7250 2500 7250
Wire Wire Line
	2750 7200 2750 7250
Wire Wire Line
	2750 6450 2750 6500
Wire Wire Line
	2300 6450 2500 6450
Wire Wire Line
	2300 6550 2300 6450
$Comp
L Device:C C?
U 1 1 5EB2760E
P 2750 7050
AR Path="/5EB2760E" Ref="C?"  Part="1" 
AR Path="/5E97E639/5EB2760E" Ref="C8"  Part="1" 
F 0 "C8" H 2800 6950 50  0000 L CNN
F 1 "100n" H 2800 6850 50  0000 L CNN
F 2 "Capacitor_THT:C_Disc_D7.0mm_W2.5mm_P5.00mm" H 2788 6900 50  0001 C CNN
F 3 "~" H 2750 7050 50  0001 C CNN
	1    2750 7050
	1    0    0    -1  
$EndComp
$Comp
L Device:C C?
U 1 1 5EB27607
P 2750 6650
AR Path="/5EB27607" Ref="C?"  Part="1" 
AR Path="/5E97E639/5EB27607" Ref="C7"  Part="1" 
F 0 "C7" H 2800 6850 50  0000 L CNN
F 1 "100n" H 2800 6750 50  0000 L CNN
F 2 "Capacitor_THT:C_Disc_D7.0mm_W2.5mm_P5.00mm" H 2788 6500 50  0001 C CNN
F 3 "~" H 2750 6650 50  0001 C CNN
	1    2750 6650
	1    0    0    -1  
$EndComp
$Comp
L Amplifier_Operational:TL072 U?
U 3 1 5EB27600
P 2400 6850
AR Path="/5EB27600" Ref="U?"  Part="3" 
AR Path="/5E97E639/5EB27600" Ref="U1"  Part="3" 
F 0 "U1" H 2358 6896 50  0000 L CNN
F 1 "TL072" H 2358 6805 50  0000 L CNN
F 2 "Package_DIP:DIP-8_W7.62mm_Socket_LongPads" H 2400 6850 50  0001 C CNN
F 3 "http://www.ti.com/lit/ds/symlink/tl071.pdf" H 2400 6850 50  0001 C CNN
	3    2400 6850
	1    0    0    -1  
$EndComp
Connection ~ 2650 3150
Text Label 1550 3050 2    50   ~ 0
MODULATOR_BOTTOM
Text Notes 1200 3850 0    100  ~ 0
MODULATOR INPUT
Wire Wire Line
	1550 3050 1850 3050
Wire Wire Line
	1850 3050 1950 3050
Connection ~ 1850 3050
Wire Wire Line
	1850 2700 2100 2700
Wire Wire Line
	1850 2700 1850 3050
Wire Wire Line
	2650 3150 2550 3150
Wire Wire Line
	2650 2700 2650 3150
Wire Wire Line
	2400 2700 2650 2700
$Comp
L Device:R R?
U 1 1 5EB275EC
P 2250 2700
AR Path="/5EB275EC" Ref="R?"  Part="1" 
AR Path="/5E97E639/5EB275EC" Ref="R12"  Part="1" 
F 0 "R12" V 2150 2700 50  0000 C CNN
F 1 "68K" V 2250 2700 50  0000 C CNN
F 2 "Resistor_THT:R_Axial_DIN0207_L6.3mm_D2.5mm_P10.16mm_Horizontal" V 2180 2700 50  0001 C CNN
F 3 "~" H 2250 2700 50  0001 C CNN
	1    2250 2700
	0    1    1    0   
$EndComp
$Comp
L power:GND #PWR?
U 1 1 5EB275E6
P 1900 3300
AR Path="/5EB275E6" Ref="#PWR?"  Part="1" 
AR Path="/5E97E639/5EB275E6" Ref="#PWR012"  Part="1" 
F 0 "#PWR012" H 1900 3050 50  0001 C CNN
F 1 "GND" H 1905 3127 50  0000 C CNN
F 2 "" H 1900 3300 50  0001 C CNN
F 3 "" H 1900 3300 50  0001 C CNN
	1    1900 3300
	1    0    0    -1  
$EndComp
Wire Wire Line
	1900 3250 1900 3300
Wire Wire Line
	1950 3250 1900 3250
Wire Wire Line
	5100 3450 5100 5450
Wire Wire Line
	4550 5450 5100 5450
Text Notes 3250 6100 0    100  ~ 0
OFFSET BUFFER
Wire Wire Line
	3450 5350 3750 5350
Connection ~ 3750 5350
$Comp
L Amplifier_Operational:TL072 U?
U 1 1 5FB5F93F
P 9200 2000
AR Path="/5FB5F93F" Ref="U?"  Part="1" 
AR Path="/5E97E639/5FB5F93F" Ref="U3"  Part="1" 
F 0 "U3" H 9200 2350 50  0000 C CNN
F 1 "TL072" H 9200 2250 50  0000 C CNN
F 2 "Package_DIP:DIP-8_W7.62mm_Socket_LongPads" H 9200 2000 50  0001 C CNN
F 3 "http://www.ti.com/lit/ds/symlink/tl071.pdf" H 9200 2000 50  0001 C CNN
	1    9200 2000
	1    0    0    1   
$EndComp
Wire Wire Line
	3750 5350 3750 5050
Wire Wire Line
	4550 5050 4550 5450
Connection ~ 4550 5450
Wire Wire Line
	4550 5450 4450 5450
$Comp
L power:GND #PWR?
U 1 1 5FB5F934
P 3800 5600
AR Path="/5FB5F934" Ref="#PWR?"  Part="1" 
AR Path="/5E97E639/5FB5F934" Ref="#PWR015"  Part="1" 
F 0 "#PWR015" H 3800 5350 50  0001 C CNN
F 1 "GND" H 3805 5427 50  0000 C CNN
F 2 "" H 3800 5600 50  0001 C CNN
F 3 "" H 3800 5600 50  0001 C CNN
	1    3800 5600
	1    0    0    -1  
$EndComp
Wire Wire Line
	3850 5550 3800 5550
Wire Wire Line
	3800 5550 3800 5600
$Comp
L Device:R R?
U 1 1 5FB5F92C
P 4150 5050
AR Path="/5FB5F92C" Ref="R?"  Part="1" 
AR Path="/5E97E639/5FB5F92C" Ref="R15"  Part="1" 
F 0 "R15" V 4050 5050 50  0000 C CNN
F 1 "47K" V 4150 5050 50  0000 C CNN
F 2 "Resistor_THT:R_Axial_DIN0207_L6.3mm_D2.5mm_P10.16mm_Horizontal" V 4080 5050 50  0001 C CNN
F 3 "~" H 4150 5050 50  0001 C CNN
	1    4150 5050
	0    1    1    0   
$EndComp
Wire Wire Line
	4550 5050 4300 5050
Wire Wire Line
	3750 5050 4000 5050
Wire Wire Line
	3850 5350 3750 5350
Text Label 3450 5350 2    50   ~ 0
OFFSET_BOTTOM
Wire Wire Line
	4300 3300 5100 3300
Wire Wire Line
	3700 1600 4300 1600
Wire Wire Line
	3700 1400 5100 1400
Wire Wire Line
	5100 1400 5100 1800
Wire Wire Line
	3150 1500 3300 1500
$Comp
L Switch:SW_DPDT_x2 SW?
U 1 1 5F9FE694
P 3500 1500
AR Path="/5F9FE694" Ref="SW?"  Part="1" 
AR Path="/5E97E639/5F9FE694" Ref="SW1"  Part="1" 
F 0 "SW1" H 3450 1300 50  0000 C CNN
F 1 "SW_DPDT_x2" H 3450 1200 50  0000 C CNN
F 2 "Connector_PinHeader_2.54mm:PinHeader_1x06_P2.54mm_Vertical" H 3500 1500 50  0001 C CNN
F 3 "" H 3500 1500 50  0001 C CNN
	1    3500 1500
	1    0    0    1   
$EndComp
Wire Wire Line
	4300 1950 4450 1950
Connection ~ 4300 1950
Wire Wire Line
	4300 1600 4300 1950
Wire Wire Line
	3300 1950 4300 1950
Text Notes 3200 1050 0    50   ~ 0
What the switch does:\n- When multiplying, the OpAmp has a "normal" feedback loop\n- When dividing, the AD633 is put into the feedback loop
Text Label 2050 1850 2    50   ~ 0
CARRIER_BOTTOM
Text Notes 1300 1550 0    100  ~ 0
CARRIER INPUT
Text Label 4450 1950 0    50   ~ 0
CARRIER
$Comp
L Device:R R?
U 1 1 5EB275DB
P 3000 1500
AR Path="/5EB275DB" Ref="R?"  Part="1" 
AR Path="/5E97E639/5EB275DB" Ref="R14"  Part="1" 
F 0 "R14" V 2900 1500 50  0000 C CNN
F 1 "100K" V 3000 1500 50  0000 C CNN
F 2 "Resistor_THT:R_Axial_DIN0207_L6.3mm_D2.5mm_P10.16mm_Horizontal" V 2930 1500 50  0001 C CNN
F 3 "~" H 3000 1500 50  0001 C CNN
	1    3000 1500
	0    1    1    0   
$EndComp
Wire Wire Line
	2650 1850 2700 1850
Connection ~ 2650 1850
Wire Wire Line
	2650 1500 2850 1500
Wire Wire Line
	2650 1850 2650 1500
$Comp
L power:GND #PWR?
U 1 1 5EB275D1
P 2650 2100
AR Path="/5EB275D1" Ref="#PWR?"  Part="1" 
AR Path="/5E97E639/5EB275D1" Ref="#PWR013"  Part="1" 
F 0 "#PWR013" H 2650 1850 50  0001 C CNN
F 1 "GND" H 2655 1927 50  0000 C CNN
F 2 "" H 2650 2100 50  0001 C CNN
F 3 "" H 2650 2100 50  0001 C CNN
	1    2650 2100
	1    0    0    -1  
$EndComp
Wire Wire Line
	2650 2050 2650 2100
Wire Wire Line
	2700 2050 2650 2050
Wire Wire Line
	2500 1850 2650 1850
$Comp
L Device:R R?
U 1 1 5EB275C0
P 2350 1850
AR Path="/5EB275C0" Ref="R?"  Part="1" 
AR Path="/5E97E639/5EB275C0" Ref="R13"  Part="1" 
F 0 "R13" V 2250 1850 50  0000 C CNN
F 1 "100K" V 2350 1850 50  0000 C CNN
F 2 "Resistor_THT:R_Axial_DIN0207_L6.3mm_D2.5mm_P10.16mm_Horizontal" V 2280 1850 50  0001 C CNN
F 3 "~" H 2350 1850 50  0001 C CNN
	1    2350 1850
	0    1    1    0   
$EndComp
Wire Wire Line
	2200 1850 2050 1850
Wire Wire Line
	2650 3150 3600 3150
$Comp
L Amplifier_Operational:TL072 U?
U 2 1 5FBC039C
P 3000 1950
AR Path="/5FBC039C" Ref="U?"  Part="2" 
AR Path="/5E97E639/5FBC039C" Ref="U1"  Part="2" 
F 0 "U1" H 3000 2300 50  0000 C CNN
F 1 "TL072" H 3000 2200 50  0000 C CNN
F 2 "Package_DIP:DIP-8_W7.62mm_Socket_LongPads" H 3000 1950 50  0001 C CNN
F 3 "http://www.ti.com/lit/ds/symlink/tl071.pdf" H 3000 1950 50  0001 C CNN
	2    3000 1950
	1    0    0    1   
$EndComp
$Comp
L Amplifier_Operational:TL072 U?
U 1 1 5FBC35DB
P 2250 3150
AR Path="/5FBC35DB" Ref="U?"  Part="1" 
AR Path="/5E97E639/5FBC35DB" Ref="U1"  Part="1" 
F 0 "U1" H 2250 3500 50  0000 C CNN
F 1 "TL072" H 2250 3400 50  0000 C CNN
F 2 "Package_DIP:DIP-8_W7.62mm_Socket_LongPads" H 2250 3150 50  0001 C CNN
F 3 "http://www.ti.com/lit/ds/symlink/tl071.pdf" H 2250 3150 50  0001 C CNN
	1    2250 3150
	1    0    0    1   
$EndComp
$Comp
L Amplifier_Operational:TL072 U?
U 3 1 5FB2A3D8
P 1000 6850
AR Path="/5FB2A3D8" Ref="U?"  Part="3" 
AR Path="/5E97E639/5FB2A3D8" Ref="U3"  Part="3" 
F 0 "U3" H 958 6896 50  0000 L CNN
F 1 "TL072" H 958 6805 50  0000 L CNN
F 2 "Package_DIP:DIP-8_W7.62mm_Socket_LongPads" H 1000 6850 50  0001 C CNN
F 3 "http://www.ti.com/lit/ds/symlink/tl071.pdf" H 1000 6850 50  0001 C CNN
	3    1000 6850
	1    0    0    -1  
$EndComp
$Comp
L Device:R R?
U 1 1 5FE10289
P 5800 2000
AR Path="/5FE10289" Ref="R?"  Part="1" 
AR Path="/5E97E639/5FE10289" Ref="R20"  Part="1" 
F 0 "R20" V 5700 2000 50  0000 C CNN
F 1 "10K" V 5800 2000 50  0000 C CNN
F 2 "Resistor_THT:R_Axial_DIN0207_L6.3mm_D2.5mm_P10.16mm_Horizontal" V 5730 2000 50  0001 C CNN
F 3 "~" H 5800 2000 50  0001 C CNN
	1    5800 2000
	0    1    1    0   
$EndComp
Wire Wire Line
	5600 2000 5650 2000
Wire Wire Line
	5950 2000 6050 2000
$Comp
L Device:R R?
U 1 1 5FE3AEC8
P 6050 2250
AR Path="/5FE3AEC8" Ref="R?"  Part="1" 
AR Path="/5E97E639/5FE3AEC8" Ref="R21"  Part="1" 
F 0 "R21" V 5950 2250 50  0000 C CNN
F 1 "3.3K" V 6050 2250 50  0000 C CNN
F 2 "Resistor_THT:R_Axial_DIN0207_L6.3mm_D2.5mm_P10.16mm_Horizontal" V 5980 2250 50  0001 C CNN
F 3 "~" H 6050 2250 50  0001 C CNN
	1    6050 2250
	-1   0    0    1   
$EndComp
Wire Wire Line
	6050 2000 6050 2100
Connection ~ 6050 2000
Wire Wire Line
	6050 2000 6500 2000
Wire Wire Line
	6050 2400 6050 2450
$Comp
L power:GND #PWR?
U 1 1 5FE4C795
P 6050 2450
AR Path="/5FE4C795" Ref="#PWR?"  Part="1" 
AR Path="/5E97E639/5FE4C795" Ref="#PWR0101"  Part="1" 
F 0 "#PWR0101" H 6050 2200 50  0001 C CNN
F 1 "GND" H 6055 2277 50  0000 C CNN
F 2 "" H 6050 2450 50  0001 C CNN
F 3 "" H 6050 2450 50  0001 C CNN
	1    6050 2450
	1    0    0    -1  
$EndComp
Wire Wire Line
	8850 1550 8650 1550
$Comp
L Device:R R?
U 1 1 5FB90935
P 9000 1550
AR Path="/5FB90935" Ref="R?"  Part="1" 
AR Path="/5E97E639/5FB90935" Ref="R18"  Part="1" 
F 0 "R18" V 8900 1550 50  0000 C CNN
F 1 "100K" V 9000 1550 50  0000 C CNN
F 2 "Resistor_THT:R_Axial_DIN0207_L6.3mm_D2.5mm_P10.16mm_Horizontal" V 8930 1550 50  0001 C CNN
F 3 "~" H 9000 1550 50  0001 C CNN
	1    9000 1550
	0    1    1    0   
$EndComp
Wire Wire Line
	8850 1250 8650 1250
$Comp
L Device:C C?
U 1 1 5FB90973
P 9000 1250
AR Path="/5FB90973" Ref="C?"  Part="1" 
AR Path="/5E97E639/5FB90973" Ref="C9"  Part="1" 
F 0 "C9" V 8748 1250 50  0000 C CNN
F 1 "47pF" V 8839 1250 50  0000 C CNN
F 2 "Capacitor_THT:C_Disc_D7.0mm_W2.5mm_P5.00mm" H 9038 1100 50  0001 C CNN
F 3 "~" H 9000 1250 50  0001 C CNN
	1    9000 1250
	0    1    1    0   
$EndComp
Wire Wire Line
	9550 1250 9150 1250
Wire Wire Line
	9550 1550 9150 1550
Wire Wire Line
	9550 1550 9550 1250
Wire Wire Line
	10250 2000 10050 2000
$Comp
L Device:R R?
U 1 1 5FB9092B
P 9900 2000
AR Path="/5FB9092B" Ref="R?"  Part="1" 
AR Path="/5E97E639/5FB9092B" Ref="R19"  Part="1" 
F 0 "R19" V 9800 2000 50  0000 C CNN
F 1 "1K" V 9900 2000 50  0000 C CNN
F 2 "Resistor_THT:R_Axial_DIN0207_L6.3mm_D2.5mm_P10.16mm_Horizontal" V 9830 2000 50  0001 C CNN
F 3 "~" H 9900 2000 50  0001 C CNN
	1    9900 2000
	0    1    1    0   
$EndComp
Connection ~ 9550 1550
Wire Wire Line
	9550 2000 9500 2000
Wire Wire Line
	9550 2000 9750 2000
Connection ~ 9550 2000
Wire Wire Line
	9550 2000 9550 1550
Text Notes 4650 7600 0    100  ~ 0
The bottom board contains:\n- The multiplier (AD633)\n- Modulator buffer\n- Carrier buffer
Wire Wire Line
	3250 4450 5600 4450
Wire Wire Line
	5600 2000 5600 4450
Wire Wire Line
	5100 1800 6500 1800
Connection ~ 5100 1800
Wire Wire Line
	5100 1800 5100 3300
$EndSCHEMATC
