EESchema Schematic File Version 4
EELAYER 30 0
EELAYER END
$Descr A4 11693 8268
encoding utf-8
Sheet 1 2
Title "FUNC()"
Date ""
Rev "rev 2"
Comp "phonèmes"
Comment1 "AD633-based multiplier & divider"
Comment2 "CC-BY-SA"
Comment3 ""
Comment4 ""
$EndDescr
$Comp
L Connector_Generic:Conn_01x01 J2
U 1 1 5E720E96
P 1500 4850
F 0 "J2" H 1420 4625 50  0000 C CNN
F 1 "Modulator_AC" H 1420 4716 50  0000 C CNN
F 2 "Connector_Pin:Pin_D1.0mm_L10.0mm" H 1500 4850 50  0001 C CNN
F 3 "~" H 1500 4850 50  0001 C CNN
	1    1500 4850
	-1   0    0    1   
$EndComp
$Comp
L Connector_Generic:Conn_01x01 J1
U 1 1 5E721035
P 1300 6250
F 0 "J1" H 1220 6025 50  0000 C CNN
F 1 "Carrier" H 1220 6116 50  0000 C CNN
F 2 "Connector_Pin:Pin_D1.0mm_L10.0mm" H 1300 6250 50  0001 C CNN
F 3 "~" H 1300 6250 50  0001 C CNN
	1    1300 6250
	-1   0    0    1   
$EndComp
$Comp
L Device:R_POT RV3
U 1 1 5E7212FE
P 1650 6550
F 0 "RV3" H 1580 6596 50  0000 R CNN
F 1 "A100K" H 1580 6505 50  0000 R CNN
F 2 "custom:alpha_9mm_vert" H 1650 6550 50  0001 C CNN
F 3 "~" H 1650 6550 50  0001 C CNN
	1    1650 6550
	1    0    0    1   
$EndComp
Wire Wire Line
	1500 6250 1650 6250
Wire Wire Line
	1650 6250 1650 6400
Wire Wire Line
	1650 6700 1650 6800
$Comp
L power:GND #PWR05
U 1 1 5E72146C
P 1650 6800
F 0 "#PWR05" H 1650 6550 50  0001 C CNN
F 1 "GND" H 1655 6627 50  0000 C CNN
F 2 "" H 1650 6800 50  0001 C CNN
F 3 "" H 1650 6800 50  0001 C CNN
	1    1650 6800
	1    0    0    -1  
$EndComp
$Comp
L Device:R_POT RV4
U 1 1 5E7227CB
P 1700 5100
F 0 "RV4" H 1630 5146 50  0000 R CNN
F 1 "B100K" H 1630 5055 50  0000 R CNN
F 2 "custom:alpha_9mm_vert" H 1700 5100 50  0001 C CNN
F 3 "~" H 1700 5100 50  0001 C CNN
	1    1700 5100
	1    0    0    1   
$EndComp
Wire Wire Line
	1700 4850 1700 4950
Wire Wire Line
	1700 5250 1700 5350
$Comp
L power:GND #PWR06
U 1 1 5E7227D5
P 1700 5350
F 0 "#PWR06" H 1700 5100 50  0001 C CNN
F 1 "GND" H 1705 5177 50  0000 C CNN
F 2 "" H 1700 5350 50  0001 C CNN
F 3 "" H 1700 5350 50  0001 C CNN
	1    1700 5350
	1    0    0    -1  
$EndComp
$Comp
L Device:R R9
U 1 1 5E7227DB
P 2500 5100
F 0 "R9" V 2400 5100 50  0000 C CNN
F 1 "100K" V 2500 5100 50  0000 C CNN
F 2 "Resistor_THT:R_Axial_DIN0207_L6.3mm_D2.5mm_P10.16mm_Horizontal" V 2430 5100 50  0001 C CNN
F 3 "~" H 2500 5100 50  0001 C CNN
	1    2500 5100
	0    1    1    0   
$EndComp
Wire Wire Line
	2650 5100 2800 5100
Wire Wire Line
	2800 5100 2800 4500
$Comp
L Device:C C1
U 1 1 5E724F1E
P 2100 5100
F 0 "C1" V 2350 5100 50  0000 C CNN
F 1 "0.47uF" V 2250 5100 50  0000 C CNN
F 2 "Capacitor_THT:C_Disc_D8.0mm_W5.0mm_P5.00mm" H 2138 4950 50  0001 C CNN
F 3 "~" H 2100 5100 50  0001 C CNN
	1    2100 5100
	0    1    1    0   
$EndComp
$Comp
L Connector_Generic:Conn_01x01 J3
U 1 1 5E73F7B6
P 1650 2000
F 0 "J3" H 1570 1775 50  0000 C CNN
F 1 "Offset_mod" H 1570 1866 50  0000 C CNN
F 2 "Connector_Pin:Pin_D1.0mm_L10.0mm" H 1650 2000 50  0001 C CNN
F 3 "~" H 1650 2000 50  0001 C CNN
	1    1650 2000
	-1   0    0    1   
$EndComp
$Comp
L Device:R R10
U 1 1 5E7402B5
P 2550 1500
F 0 "R10" V 2450 1500 50  0000 C CNN
F 1 "270K" V 2550 1500 50  0000 C CNN
F 2 "Resistor_THT:R_Axial_DIN0207_L6.3mm_D2.5mm_P10.16mm_Horizontal" V 2480 1500 50  0001 C CNN
F 3 "~" H 2550 1500 50  0001 C CNN
	1    2550 1500
	0    1    1    0   
$EndComp
$Comp
L Device:R R11
U 1 1 5E742D41
P 2550 2200
F 0 "R11" V 2450 2200 50  0000 C CNN
F 1 "270K" V 2550 2200 50  0000 C CNN
F 2 "Resistor_THT:R_Axial_DIN0207_L6.3mm_D2.5mm_P10.16mm_Horizontal" V 2480 2200 50  0001 C CNN
F 3 "~" H 2550 2200 50  0001 C CNN
	1    2550 2200
	0    1    1    0   
$EndComp
Wire Wire Line
	2800 2200 2700 2200
$Comp
L Connector_Generic:Conn_01x01 J5
U 1 1 5E756396
P 7700 2150
F 0 "J5" H 7780 2192 50  0000 L CNN
F 1 "Output" H 7780 2101 50  0000 L CNN
F 2 "Connector_Pin:Pin_D1.0mm_L10.0mm" H 7700 2150 50  0001 C CNN
F 3 "~" H 7700 2150 50  0001 C CNN
	1    7700 2150
	1    0    0    -1  
$EndComp
Text Notes 1150 6750 0    50   ~ 0
C_AMOUNT\n
Text Notes 1200 5300 0    50   ~ 0
M_AMOUNT\n
$Comp
L Connector_Generic:Conn_01x01 J4
U 1 1 5E7C2127
P 1850 4500
F 0 "J4" H 1770 4275 50  0000 C CNN
F 1 "Modulator_DC" H 1770 4366 50  0000 C CNN
F 2 "Connector_Pin:Pin_D1.0mm_L10.0mm" H 1850 4500 50  0001 C CNN
F 3 "~" H 1850 4500 50  0001 C CNN
	1    1850 4500
	-1   0    0    1   
$EndComp
$Comp
L Device:R R7
U 1 1 5E7F3E68
P 2500 3850
F 0 "R7" V 2400 3850 50  0000 C CNN
F 1 "150K" V 2500 3850 50  0000 C CNN
F 2 "Resistor_THT:R_Axial_DIN0207_L6.3mm_D2.5mm_P10.16mm_Horizontal" V 2430 3850 50  0001 C CNN
F 3 "~" H 2500 3850 50  0001 C CNN
	1    2500 3850
	0    1    1    0   
$EndComp
Wire Wire Line
	2800 3850 2650 3850
$Comp
L Device:R_POT RV2
U 1 1 5E82397E
P 1250 1500
F 0 "RV2" H 1180 1546 50  0000 R CNN
F 1 "B100K" H 1180 1455 50  0000 R CNN
F 2 "custom:alpha_9mm_vert" H 1250 1500 50  0001 C CNN
F 3 "~" H 1250 1500 50  0001 C CNN
	1    1250 1500
	1    0    0    1   
$EndComp
$Comp
L Device:R R3
U 1 1 5E823985
P 1250 1100
F 0 "R3" V 1350 1100 50  0000 C CNN
F 1 "100K" V 1250 1100 50  0000 C CNN
F 2 "Resistor_THT:R_Axial_DIN0207_L6.3mm_D2.5mm_P10.16mm_Horizontal" V 1180 1100 50  0001 C CNN
F 3 "~" H 1250 1100 50  0001 C CNN
	1    1250 1100
	1    0    0    -1  
$EndComp
$Comp
L Device:R R4
U 1 1 5E82398C
P 1250 1900
F 0 "R4" V 1150 1900 50  0000 C CNN
F 1 "100K" V 1250 1900 50  0000 C CNN
F 2 "Resistor_THT:R_Axial_DIN0207_L6.3mm_D2.5mm_P10.16mm_Horizontal" V 1180 1900 50  0001 C CNN
F 3 "~" H 1250 1900 50  0001 C CNN
	1    1250 1900
	1    0    0    -1  
$EndComp
$Comp
L power:+12V #PWR03
U 1 1 5E823993
P 1250 900
F 0 "#PWR03" H 1250 750 50  0001 C CNN
F 1 "+12V" H 1265 1073 50  0000 C CNN
F 2 "" H 1250 900 50  0001 C CNN
F 3 "" H 1250 900 50  0001 C CNN
	1    1250 900 
	1    0    0    -1  
$EndComp
$Comp
L power:-12V #PWR04
U 1 1 5E823999
P 1250 2100
F 0 "#PWR04" H 1250 2200 50  0001 C CNN
F 1 "-12V" H 1265 2273 50  0000 C CNN
F 2 "" H 1250 2100 50  0001 C CNN
F 3 "" H 1250 2100 50  0001 C CNN
	1    1250 2100
	-1   0    0    1   
$EndComp
Wire Wire Line
	1250 1250 1250 1350
Text Notes 900  1650 0    50   ~ 0
OFFSET
$Comp
L Device:R_POT RV5
U 1 1 5E829557
P 2150 2200
F 0 "RV5" H 2080 2246 50  0000 R CNN
F 1 "B100K" H 2080 2155 50  0000 R CNN
F 2 "custom:alpha_9mm_vert" H 2150 2200 50  0001 C CNN
F 3 "~" H 2150 2200 50  0001 C CNN
	1    2150 2200
	1    0    0    1   
$EndComp
Wire Wire Line
	1850 2000 2150 2000
Wire Wire Line
	2150 2000 2150 2050
$Comp
L power:GND #PWR07
U 1 1 5E844A23
P 2150 2400
F 0 "#PWR07" H 2150 2150 50  0001 C CNN
F 1 "GND" H 2155 2227 50  0000 C CNN
F 2 "" H 2150 2400 50  0001 C CNN
F 3 "" H 2150 2400 50  0001 C CNN
	1    2150 2400
	1    0    0    -1  
$EndComp
Wire Wire Line
	2150 2400 2150 2350
Wire Wire Line
	2800 1500 2700 1500
Text Notes 1550 2350 0    50   ~ 0
OFFSET_AMNT
Wire Wire Line
	1850 5100 1950 5100
Wire Wire Line
	2050 4500 2350 4500
Wire Wire Line
	2250 5100 2350 5100
$Comp
L Mechanical:MountingHole H1
U 1 1 5E979F9B
P 6150 6750
F 0 "H1" H 6250 6796 50  0000 L CNN
F 1 "MountingHole" H 6250 6705 50  0000 L CNN
F 2 "custom:banana_hole" H 6150 6750 50  0001 C CNN
F 3 "~" H 6150 6750 50  0001 C CNN
	1    6150 6750
	1    0    0    -1  
$EndComp
$Comp
L Mechanical:MountingHole H2
U 1 1 5E97A588
P 6150 6950
F 0 "H2" H 6250 6996 50  0000 L CNN
F 1 "MountingHole" H 6250 6905 50  0000 L CNN
F 2 "custom:banana_hole" H 6150 6950 50  0001 C CNN
F 3 "~" H 6150 6950 50  0001 C CNN
	1    6150 6950
	1    0    0    -1  
$EndComp
$Comp
L Mechanical:MountingHole H3
U 1 1 5E97A640
P 6150 7150
F 0 "H3" H 6250 7196 50  0000 L CNN
F 1 "MountingHole" H 6250 7105 50  0000 L CNN
F 2 "custom:banana_hole" H 6150 7150 50  0001 C CNN
F 3 "~" H 6150 7150 50  0001 C CNN
	1    6150 7150
	1    0    0    -1  
$EndComp
$Comp
L Mechanical:MountingHole H4
U 1 1 5E97A6CA
P 6150 7350
F 0 "H4" H 6250 7396 50  0000 L CNN
F 1 "MountingHole" H 6250 7305 50  0000 L CNN
F 2 "custom:banana_hole" H 6150 7350 50  0001 C CNN
F 3 "~" H 6150 7350 50  0001 C CNN
	1    6150 7350
	1    0    0    -1  
$EndComp
$Comp
L Mechanical:MountingHole H5
U 1 1 5E97AB44
P 6150 7550
F 0 "H5" H 6250 7596 50  0000 L CNN
F 1 "MountingHole" H 6250 7505 50  0000 L CNN
F 2 "custom:banana_hole" H 6150 7550 50  0001 C CNN
F 3 "~" H 6150 7550 50  0001 C CNN
	1    6150 7550
	1    0    0    -1  
$EndComp
$Sheet
S 4500 1000 2000 5000
U 5E97E639
F0 "bottom" 50
F1 "bottom.sch" 50
$EndSheet
$Comp
L Mechanical:MountingHole HS1
U 1 1 5E97F086
P 5200 6750
F 0 "HS1" H 5300 6796 50  0000 L CNN
F 1 "MountingHole" H 5300 6705 50  0000 L CNN
F 2 "MountingHole:MountingHole_3.2mm_M3" H 5200 6750 50  0001 C CNN
F 3 "~" H 5200 6750 50  0001 C CNN
	1    5200 6750
	1    0    0    -1  
$EndComp
$Comp
L Mechanical:MountingHole HS2
U 1 1 5E97F11E
P 5200 6950
F 0 "HS2" H 5300 6996 50  0000 L CNN
F 1 "MountingHole" H 5300 6905 50  0000 L CNN
F 2 "MountingHole:MountingHole_3.2mm_M3" H 5200 6950 50  0001 C CNN
F 3 "~" H 5200 6950 50  0001 C CNN
	1    5200 6950
	1    0    0    -1  
$EndComp
Text Notes 1800 5900 0    100  ~ 0
CARRIER INPUT
Connection ~ 2800 4500
Wire Wire Line
	2800 3850 2800 4500
Wire Wire Line
	2650 4500 2800 4500
$Comp
L Connector_Generic:Conn_02x03_Odd_Even J6
U 1 1 5ED26F36
P 9800 4400
F 0 "J6" H 9850 4717 50  0000 C CNN
F 1 "SUPPLY_TOP" H 9850 4626 50  0000 C CNN
F 2 "Connector_PinSocket_2.54mm:PinSocket_2x03_P2.54mm_Vertical" H 9800 4400 50  0001 C CNN
F 3 "~" H 9800 4400 50  0001 C CNN
	1    9800 4400
	1    0    0    -1  
$EndComp
Wire Wire Line
	10100 4300 10200 4300
Wire Wire Line
	10200 4300 10200 3900
Wire Wire Line
	10200 3900 9850 3900
Wire Wire Line
	9500 3900 9500 4300
Wire Wire Line
	9500 4300 9600 4300
Wire Wire Line
	10100 4500 10200 4500
Wire Wire Line
	10200 4500 10200 4800
Wire Wire Line
	10200 4800 9850 4800
Wire Wire Line
	9500 4800 9500 4500
Wire Wire Line
	9500 4500 9600 4500
$Comp
L power:+12V #PWR09
U 1 1 5ED2A6EC
P 9850 3900
F 0 "#PWR09" H 9850 3750 50  0001 C CNN
F 1 "+12V" H 9865 4073 50  0000 C CNN
F 2 "" H 9850 3900 50  0001 C CNN
F 3 "" H 9850 3900 50  0001 C CNN
	1    9850 3900
	1    0    0    -1  
$EndComp
Connection ~ 9850 3900
Wire Wire Line
	9850 3900 9500 3900
$Comp
L power:-12V #PWR010
U 1 1 5ED2A954
P 9850 4800
F 0 "#PWR010" H 9850 4900 50  0001 C CNN
F 1 "-12V" H 9865 4973 50  0000 C CNN
F 2 "" H 9850 4800 50  0001 C CNN
F 3 "" H 9850 4800 50  0001 C CNN
	1    9850 4800
	-1   0    0    1   
$EndComp
Connection ~ 9850 4800
Wire Wire Line
	9850 4800 9500 4800
Wire Wire Line
	10100 4400 10400 4400
Wire Wire Line
	10400 4400 10400 4550
Wire Wire Line
	9600 4400 9300 4400
Wire Wire Line
	9300 4400 9300 4550
$Comp
L power:GND #PWR011
U 1 1 5ED2E546
P 10400 4550
F 0 "#PWR011" H 10400 4300 50  0001 C CNN
F 1 "GND" H 10405 4377 50  0000 C CNN
F 2 "" H 10400 4550 50  0001 C CNN
F 3 "" H 10400 4550 50  0001 C CNN
	1    10400 4550
	1    0    0    -1  
$EndComp
$Comp
L power:GND #PWR08
U 1 1 5ED2E6EB
P 9300 4550
F 0 "#PWR08" H 9300 4300 50  0001 C CNN
F 1 "GND" H 9305 4377 50  0000 C CNN
F 2 "" H 9300 4550 50  0001 C CNN
F 3 "" H 9300 4550 50  0001 C CNN
	1    9300 4550
	1    0    0    -1  
$EndComp
$Comp
L Connector_Generic:Conn_01x04 J7
U 1 1 5ED3091E
P 9900 5400
F 0 "J7" H 9980 5392 50  0000 L CNN
F 1 "SIGNALS_TOP" H 9980 5301 50  0000 L CNN
F 2 "Connector_PinSocket_2.54mm:PinSocket_1x04_P2.54mm_Vertical" H 9900 5400 50  0001 C CNN
F 3 "~" H 9900 5400 50  0001 C CNN
	1    9900 5400
	1    0    0    -1  
$EndComp
Text Label 3250 4500 0    50   ~ 0
MODULATOR_TOP
Text Label 2900 6550 0    50   ~ 0
CARRIER_TOP
Text Label 9700 5400 2    50   ~ 0
MODULATOR_TOP
Text Label 9700 5300 2    50   ~ 0
CARRIER_TOP
Text Label 9700 5500 2    50   ~ 0
OFFSET_TOP
Text Notes 8750 1500 0    100  ~ 0
The top board contains:\n- Inputs conditionning
Text Label 7350 2150 2    50   ~ 0
OUTPUT_TOP
Text Label 9700 5600 2    50   ~ 0
OUTPUT_TOP
Text Notes 9850 6000 0    50   ~ 0
Top/bottom connectors
Text Notes 1700 3600 0    50   ~ 0
De-linearizing resistors for easier zeroing
Text Notes 8700 900  0    200  Italic 40
Top board
Wire Notes Line
	8900 3500 10800 3500
Wire Notes Line
	10800 3500 10800 6100
Wire Notes Line
	10800 6100 8900 6100
Wire Notes Line
	8900 6100 8900 3500
Text Notes 8750 2150 0    50   ~ 0
V2\n- Potentiometers are now clockwise\n- Tweaked some value to get better inputs/outputs levels\n- New board layout, makes more sense\nV2.1\n- Tweaked some values\n- Offset pot was inverted
$Comp
L Device:R R8
U 1 1 5E7C20B9
P 2500 4500
F 0 "R8" V 2400 4500 50  0000 C CNN
F 1 "150K" V 2500 4500 50  0000 C CNN
F 2 "Resistor_THT:R_Axial_DIN0207_L6.3mm_D2.5mm_P10.16mm_Horizontal" V 2430 4500 50  0001 C CNN
F 3 "~" H 2500 4500 50  0001 C CNN
	1    2500 4500
	0    1    1    0   
$EndComp
$Comp
L Device:C C2
U 1 1 5F0C5D7C
P 2350 6550
F 0 "C2" V 2600 6550 50  0000 C CNN
F 1 "0.47uF" V 2500 6550 50  0000 C CNN
F 2 "Capacitor_THT:C_Disc_D8.0mm_W5.0mm_P5.00mm" H 2388 6400 50  0001 C CNN
F 3 "~" H 2350 6550 50  0001 C CNN
	1    2350 6550
	0    1    1    0   
$EndComp
Wire Wire Line
	2500 6550 2900 6550
Text Notes 2050 1100 0    100  ~ 0
OFFSET CONTROL
Wire Wire Line
	2800 4500 3250 4500
Wire Wire Line
	2400 2200 2300 2200
Wire Wire Line
	1250 1650 1250 1750
Wire Wire Line
	1250 2100 1250 2050
Wire Wire Line
	2400 1500 1400 1500
Wire Wire Line
	1250 950  1250 900 
Wire Wire Line
	1650 3650 1650 3850
Connection ~ 1650 3850
Wire Wire Line
	1650 3850 1650 4050
Wire Wire Line
	1650 3850 2350 3850
Wire Wire Line
	1350 3850 1650 3850
Wire Wire Line
	1650 4050 1600 4050
Wire Wire Line
	1600 3650 1650 3650
Wire Wire Line
	1200 4400 1200 4450
Wire Wire Line
	1200 4050 1200 4100
Connection ~ 1200 4050
Wire Wire Line
	1300 4050 1200 4050
Connection ~ 1200 3650
Wire Wire Line
	1200 3650 1200 3600
Wire Wire Line
	1200 3300 1200 3250
Wire Wire Line
	1200 3650 1300 3650
$Comp
L Device:R R6
U 1 1 5E94FA05
P 1450 4050
F 0 "R6" V 1550 4050 50  0000 C CNN
F 1 "10K" V 1450 4050 50  0000 C CNN
F 2 "Resistor_THT:R_Axial_DIN0207_L6.3mm_D2.5mm_P10.16mm_Horizontal" V 1380 4050 50  0001 C CNN
F 3 "~" H 1450 4050 50  0001 C CNN
	1    1450 4050
	0    -1   -1   0   
$EndComp
$Comp
L Device:R R5
U 1 1 5E94F975
P 1450 3650
F 0 "R5" V 1550 3650 50  0000 C CNN
F 1 "10K" V 1450 3650 50  0000 C CNN
F 2 "Resistor_THT:R_Axial_DIN0207_L6.3mm_D2.5mm_P10.16mm_Horizontal" V 1380 3650 50  0001 C CNN
F 3 "~" H 1450 3650 50  0001 C CNN
	1    1450 3650
	0    -1   -1   0   
$EndComp
Text Notes 1550 3350 0    100  ~ 0
MODULATOR INPUT
Text Notes 950  4050 0    50   ~ 0
INIT\n
Wire Wire Line
	1200 4000 1200 4050
Wire Wire Line
	1200 3650 1200 3700
$Comp
L power:-12V #PWR02
U 1 1 5E737573
P 1200 4450
F 0 "#PWR02" H 1200 4550 50  0001 C CNN
F 1 "-12V" H 1215 4623 50  0000 C CNN
F 2 "" H 1200 4450 50  0001 C CNN
F 3 "" H 1200 4450 50  0001 C CNN
	1    1200 4450
	-1   0    0    1   
$EndComp
$Comp
L power:+12V #PWR01
U 1 1 5E737542
P 1200 3250
F 0 "#PWR01" H 1200 3100 50  0001 C CNN
F 1 "+12V" H 1215 3423 50  0000 C CNN
F 2 "" H 1200 3250 50  0001 C CNN
F 3 "" H 1200 3250 50  0001 C CNN
	1    1200 3250
	1    0    0    -1  
$EndComp
$Comp
L Device:R R2
U 1 1 5E735F61
P 1200 4250
F 0 "R2" V 1100 4250 50  0000 C CNN
F 1 "10K" V 1200 4250 50  0000 C CNN
F 2 "Resistor_THT:R_Axial_DIN0207_L6.3mm_D2.5mm_P10.16mm_Horizontal" V 1130 4250 50  0001 C CNN
F 3 "~" H 1200 4250 50  0001 C CNN
	1    1200 4250
	1    0    0    -1  
$EndComp
$Comp
L Device:R R1
U 1 1 5E735476
P 1200 3450
F 0 "R1" V 1300 3450 50  0000 C CNN
F 1 "10K" V 1200 3450 50  0000 C CNN
F 2 "Resistor_THT:R_Axial_DIN0207_L6.3mm_D2.5mm_P10.16mm_Horizontal" V 1130 3450 50  0001 C CNN
F 3 "~" H 1200 3450 50  0001 C CNN
	1    1200 3450
	1    0    0    -1  
$EndComp
$Comp
L Device:R_POT RV1
U 1 1 5E735037
P 1200 3850
F 0 "RV1" H 1130 3896 50  0000 R CNN
F 1 "B100K" H 1130 3805 50  0000 R CNN
F 2 "custom:alpha_9mm_vert" H 1200 3850 50  0001 C CNN
F 3 "~" H 1200 3850 50  0001 C CNN
	1    1200 3850
	1    0    0    -1  
$EndComp
Text Label 2850 1850 0    50   ~ 0
OFFSET_TOP
Wire Wire Line
	2800 1500 2800 1850
Wire Wire Line
	2850 1850 2800 1850
Connection ~ 2800 1850
Wire Wire Line
	2800 1850 2800 2200
Wire Wire Line
	7500 2150 7350 2150
Wire Wire Line
	1800 6550 2200 6550
Text Notes 1350 1350 0    50   ~ 0
CW
Text Notes 1350 1750 0    50   ~ 0
CCW
$EndSCHEMATC
