G04 #@! TF.GenerationSoftware,KiCad,Pcbnew,5.1.9-73d0e3b20d~88~ubuntu18.04.1*
G04 #@! TF.CreationDate,2021-02-07T15:03:51+01:00*
G04 #@! TF.ProjectId,func_v2,66756e63-5f76-4322-9e6b-696361645f70,2*
G04 #@! TF.SameCoordinates,Original*
G04 #@! TF.FileFunction,Soldermask,Top*
G04 #@! TF.FilePolarity,Negative*
%FSLAX46Y46*%
G04 Gerber Fmt 4.6, Leading zero omitted, Abs format (unit mm)*
G04 Created by KiCad (PCBNEW 5.1.9-73d0e3b20d~88~ubuntu18.04.1) date 2021-02-07 15:03:51*
%MOMM*%
%LPD*%
G01*
G04 APERTURE LIST*
%ADD10C,0.500000*%
%ADD11R,2.400000X1.600000*%
%ADD12O,2.400000X1.600000*%
%ADD13R,1.600000X1.600000*%
%ADD14O,1.600000X1.600000*%
%ADD15C,2.000000*%
%ADD16C,3.000000*%
%ADD17C,1.600000*%
%ADD18O,2.200000X2.200000*%
%ADD19R,2.200000X2.200000*%
%ADD20C,8.000000*%
%ADD21C,3.200000*%
%ADD22O,1.700000X1.700000*%
%ADD23R,1.700000X1.700000*%
%ADD24O,2.794000X3.810000*%
G04 APERTURE END LIST*
D10*
X96367600Y-109626400D03*
X96367600Y-56946800D03*
X96367600Y-54864000D03*
X96367600Y-53746400D03*
D11*
X121412000Y-78740000D03*
D12*
X129032000Y-86360000D03*
X121412000Y-81280000D03*
X129032000Y-83820000D03*
X121412000Y-83820000D03*
X129032000Y-81280000D03*
X121412000Y-86360000D03*
X129032000Y-78740000D03*
D10*
X96367600Y-55880000D03*
X94132400Y-55880000D03*
X94132400Y-54813200D03*
X94132400Y-56946800D03*
X94132400Y-58013600D03*
X94132400Y-53746400D03*
X96367600Y-58013600D03*
X94132400Y-109626400D03*
X94132400Y-111760000D03*
X94132400Y-113893600D03*
X94132400Y-110693200D03*
X94132400Y-112826800D03*
X96367600Y-113893600D03*
X96367600Y-112826800D03*
X96367600Y-111760000D03*
X96367600Y-110693200D03*
D13*
X107696000Y-85344000D03*
D14*
X100076000Y-85344000D03*
D15*
X82590000Y-159265000D03*
X85090000Y-159265000D03*
X87590000Y-159265000D03*
D16*
X79390000Y-151765000D03*
X90790000Y-151765000D03*
X65390000Y-170815000D03*
X53990000Y-170815000D03*
D15*
X62190000Y-178315000D03*
X59690000Y-178315000D03*
X57190000Y-178315000D03*
D14*
X66675000Y-163830000D03*
D17*
X76835000Y-163830000D03*
D15*
X74866500Y-104203500D03*
X69866500Y-104203500D03*
X82550000Y-83058000D03*
X87550000Y-83058000D03*
D17*
X134540000Y-52832000D03*
X129540000Y-52832000D03*
X134540000Y-67564000D03*
X129540000Y-67564000D03*
X128016000Y-75184000D03*
X123016000Y-75184000D03*
X122508000Y-89916000D03*
X127508000Y-89916000D03*
X111760000Y-52832000D03*
X106760000Y-52832000D03*
X106556800Y-67564000D03*
X111556800Y-67564000D03*
X111840000Y-74676000D03*
X116840000Y-74676000D03*
D13*
X118364000Y-104140000D03*
D17*
X120864000Y-104140000D03*
X126532000Y-104140000D03*
D13*
X129032000Y-104140000D03*
D14*
X107696000Y-82296000D03*
D13*
X100076000Y-82296000D03*
D18*
X113284000Y-109728000D03*
D19*
X103124000Y-109728000D03*
X113284000Y-114300000D03*
D18*
X103124000Y-114300000D03*
D20*
X59690000Y-56515000D03*
X85090000Y-56515000D03*
X59690000Y-132715000D03*
X85090000Y-132588000D03*
X59690000Y-151765000D03*
D21*
X90932000Y-50038000D03*
X53848000Y-117602000D03*
X99568000Y-50038000D03*
X136652000Y-117602000D03*
D15*
X59690000Y-64008000D03*
X59690000Y-140335000D03*
X85090000Y-140335000D03*
X59690000Y-159385000D03*
X85090000Y-64008000D03*
D22*
X58420000Y-99060000D03*
X55880000Y-99060000D03*
X58420000Y-96520000D03*
X55880000Y-96520000D03*
X58420000Y-93980000D03*
D23*
X55880000Y-93980000D03*
D22*
X89916000Y-96520000D03*
X87376000Y-96520000D03*
X84836000Y-96520000D03*
D23*
X82296000Y-96520000D03*
X108204000Y-96520000D03*
D22*
X105664000Y-96520000D03*
X103124000Y-96520000D03*
X100584000Y-96520000D03*
D24*
X130683000Y-112674400D03*
X126746000Y-112674400D03*
X122809000Y-112674400D03*
X118872000Y-112674400D03*
D23*
X134569200Y-93980000D03*
D22*
X132029200Y-93980000D03*
X134569200Y-96520000D03*
X132029200Y-96520000D03*
X134569200Y-99060000D03*
X132029200Y-99060000D03*
D17*
X73660000Y-167640000D03*
D14*
X73660000Y-177800000D03*
X69850000Y-167640000D03*
D17*
X69850000Y-177800000D03*
X67056000Y-140398500D03*
D14*
X77216000Y-140398500D03*
X67056000Y-145491200D03*
D17*
X77216000Y-145491200D03*
X66675000Y-160020000D03*
D14*
X76835000Y-160020000D03*
X72390000Y-99060000D03*
D17*
X72390000Y-88900000D03*
X68961000Y-88900000D03*
D14*
X68961000Y-99060000D03*
D17*
X75819000Y-88900000D03*
D14*
X75819000Y-99060000D03*
X70358000Y-136398000D03*
D17*
X70358000Y-126238000D03*
X74168000Y-126238000D03*
D14*
X74168000Y-136398000D03*
D17*
X101092000Y-56388000D03*
D14*
X101092000Y-66548000D03*
X116840000Y-56388000D03*
D17*
X116840000Y-66548000D03*
X120396000Y-56388000D03*
D14*
X120396000Y-66548000D03*
X133096000Y-86360000D03*
D17*
X133096000Y-76200000D03*
D14*
X109220000Y-78740000D03*
D17*
X99060000Y-78740000D03*
X109220000Y-88900000D03*
D14*
X99060000Y-88900000D03*
D17*
X116840000Y-88900000D03*
D14*
X116840000Y-78740000D03*
X112776000Y-78740000D03*
D17*
X112776000Y-88900000D03*
X123952000Y-56388000D03*
D14*
X123952000Y-66548000D03*
X125984000Y-71120000D03*
D17*
X136144000Y-71120000D03*
D14*
X103124000Y-105664000D03*
D17*
X113284000Y-105664000D03*
X113284000Y-102108000D03*
D14*
X103124000Y-102108000D03*
D15*
X82590000Y-178315000D03*
X85090000Y-178315000D03*
X87590000Y-178315000D03*
D16*
X79390000Y-170815000D03*
X90790000Y-170815000D03*
D15*
X69890000Y-83065000D03*
X72390000Y-83065000D03*
X74890000Y-83065000D03*
D16*
X66690000Y-75565000D03*
X78090000Y-75565000D03*
X78090000Y-113665000D03*
X66690000Y-113665000D03*
D15*
X74890000Y-121165000D03*
X72390000Y-121165000D03*
X69890000Y-121165000D03*
D12*
X112776000Y-56388000D03*
X105156000Y-64008000D03*
X112776000Y-58928000D03*
X105156000Y-61468000D03*
X112776000Y-61468000D03*
X105156000Y-58928000D03*
X112776000Y-64008000D03*
D11*
X105156000Y-56388000D03*
X128016000Y-56388000D03*
D12*
X135636000Y-64008000D03*
X128016000Y-58928000D03*
X135636000Y-61468000D03*
X128016000Y-61468000D03*
X135636000Y-58928000D03*
X128016000Y-64008000D03*
X135636000Y-56388000D03*
D23*
X124460000Y-49631600D03*
D22*
X121920000Y-49631600D03*
X119380000Y-49631600D03*
X116840000Y-49631600D03*
X114300000Y-49631600D03*
X111760000Y-49631600D03*
M02*
