(module alpha_9mm_horiz (layer F.Cu) (tedit 5CD427B9)
  (fp_text reference REF** (at -3.175 6.223) (layer F.SilkS)
    (effects (font (size 1 1) (thickness 0.15)))
  )
  (fp_text value alpha_9mm_horiz (at 1.27 -3.302) (layer F.Fab)
    (effects (font (size 1 1) (thickness 0.15)))
  )
  (fp_line (start 4.826 -2.159) (end -4.826 -2.159) (layer F.SilkS) (width 0.15))
  (fp_line (start 5.08 -1.905) (end 5.08 5.08) (layer F.SilkS) (width 0.15))
  (fp_line (start 4.826 5.334) (end -4.826 5.334) (layer F.SilkS) (width 0.15))
  (fp_line (start -5.08 5.08) (end -5.08 -1.905) (layer F.SilkS) (width 0.15))
  (fp_arc (start -4.826 5.08) (end -5.08 5.08) (angle -90) (layer F.SilkS) (width 0.15))
  (fp_arc (start -4.826 -1.905) (end -4.826 -2.159) (angle -90) (layer F.SilkS) (width 0.15))
  (fp_arc (start 4.826 -1.905) (end 5.08 -1.905) (angle -90) (layer F.SilkS) (width 0.15))
  (fp_arc (start 4.826 5.08) (end 4.826 5.334) (angle -90) (layer F.SilkS) (width 0.15))
  (pad 1 thru_hole circle (at -2.5 0.007) (size 2 2) (drill 1) (layers *.Cu *.Mask))
  (pad 2 thru_hole circle (at 0 0.007) (size 2 2) (drill 1) (layers *.Cu *.Mask))
  (pad 3 thru_hole circle (at 2.5 0.007) (size 2 2) (drill 1) (layers *.Cu *.Mask))
)
