EESchema Schematic File Version 4
EELAYER 30 0
EELAYER END
$Descr A3 16535 11693
encoding utf-8
Sheet 2 2
Title "func()"
Date ""
Rev "rev 1.1"
Comp "phonèmes"
Comment1 "AD633-based ring modulator"
Comment2 "CC-BY-SA"
Comment3 ""
Comment4 ""
$EndDescr
$Comp
L Device:R R?
U 1 1 5EB275C0
P 4500 4650
AR Path="/5EB275C0" Ref="R?"  Part="1" 
AR Path="/5E97E639/5EB275C0" Ref="R13"  Part="1" 
F 0 "R13" V 4400 4650 50  0000 C CNN
F 1 "100K" V 4500 4650 50  0000 C CNN
F 2 "Resistor_THT:R_Axial_DIN0207_L6.3mm_D2.5mm_P10.16mm_Horizontal" V 4430 4650 50  0001 C CNN
F 3 "~" H 4500 4650 50  0001 C CNN
	1    4500 4650
	0    1    1    0   
$EndComp
$Comp
L Amplifier_Operational:TL072 U?
U 1 1 5EB275C7
P 5050 4750
AR Path="/5EB275C7" Ref="U?"  Part="1" 
AR Path="/5E97E639/5EB275C7" Ref="U1"  Part="1" 
F 0 "U1" H 5050 5100 50  0000 C CNN
F 1 "TL072" H 5050 5000 50  0000 C CNN
F 2 "Package_DIP:DIP-8_W7.62mm_Socket_LongPads" H 5050 4750 50  0001 C CNN
F 3 "http://www.ti.com/lit/ds/symlink/tl071.pdf" H 5050 4750 50  0001 C CNN
	1    5050 4750
	1    0    0    1   
$EndComp
Wire Wire Line
	4650 4650 4700 4650
Wire Wire Line
	4750 4850 4700 4850
Wire Wire Line
	4700 4850 4700 4900
$Comp
L power:GND #PWR?
U 1 1 5EB275D1
P 4700 4900
AR Path="/5EB275D1" Ref="#PWR?"  Part="1" 
AR Path="/5E97E639/5EB275D1" Ref="#PWR013"  Part="1" 
F 0 "#PWR013" H 4700 4650 50  0001 C CNN
F 1 "GND" H 4705 4727 50  0000 C CNN
F 2 "" H 4700 4900 50  0001 C CNN
F 3 "" H 4700 4900 50  0001 C CNN
	1    4700 4900
	1    0    0    -1  
$EndComp
Wire Wire Line
	4700 4650 4700 4300
Wire Wire Line
	4700 4300 4900 4300
Connection ~ 4700 4650
Wire Wire Line
	4700 4650 4750 4650
$Comp
L Device:R R?
U 1 1 5EB275DB
P 5050 4300
AR Path="/5EB275DB" Ref="R?"  Part="1" 
AR Path="/5E97E639/5EB275DB" Ref="R14"  Part="1" 
F 0 "R14" V 4950 4300 50  0000 C CNN
F 1 "100K" V 5050 4300 50  0000 C CNN
F 2 "Resistor_THT:R_Axial_DIN0207_L6.3mm_D2.5mm_P10.16mm_Horizontal" V 4980 4300 50  0001 C CNN
F 3 "~" H 5050 4300 50  0001 C CNN
	1    5050 4300
	0    1    1    0   
$EndComp
Text Label 6500 4750 0    50   ~ 0
CARRIER
Wire Wire Line
	4150 6050 4100 6050
Wire Wire Line
	4100 6050 4100 6100
$Comp
L power:GND #PWR?
U 1 1 5EB275E6
P 4100 6100
AR Path="/5EB275E6" Ref="#PWR?"  Part="1" 
AR Path="/5E97E639/5EB275E6" Ref="#PWR012"  Part="1" 
F 0 "#PWR012" H 4100 5850 50  0001 C CNN
F 1 "GND" H 4105 5927 50  0000 C CNN
F 2 "" H 4100 6100 50  0001 C CNN
F 3 "" H 4100 6100 50  0001 C CNN
	1    4100 6100
	1    0    0    -1  
$EndComp
$Comp
L Device:R R?
U 1 1 5EB275EC
P 4450 5500
AR Path="/5EB275EC" Ref="R?"  Part="1" 
AR Path="/5E97E639/5EB275EC" Ref="R12"  Part="1" 
F 0 "R12" V 4350 5500 50  0000 C CNN
F 1 "68K" V 4450 5500 50  0000 C CNN
F 2 "Resistor_THT:R_Axial_DIN0207_L6.3mm_D2.5mm_P10.16mm_Horizontal" V 4380 5500 50  0001 C CNN
F 3 "~" H 4450 5500 50  0001 C CNN
	1    4450 5500
	0    1    1    0   
$EndComp
Wire Wire Line
	4600 5500 4850 5500
Wire Wire Line
	4850 5500 4850 5950
Wire Wire Line
	4850 5950 4750 5950
Connection ~ 4850 5950
$Comp
L Amplifier_Operational:TL072 U?
U 2 1 5EB275F9
P 4450 5950
AR Path="/5EB275F9" Ref="U?"  Part="2" 
AR Path="/5E97E639/5EB275F9" Ref="U1"  Part="2" 
F 0 "U1" H 4450 6300 50  0000 C CNN
F 1 "TL072" H 4450 6200 50  0000 C CNN
F 2 "Package_DIP:DIP-8_W7.62mm_Socket_LongPads" H 4450 5950 50  0001 C CNN
F 3 "http://www.ti.com/lit/ds/symlink/tl071.pdf" H 4450 5950 50  0001 C CNN
	2    4450 5950
	1    0    0    1   
$EndComp
$Comp
L Amplifier_Operational:TL072 U?
U 3 1 5EB27600
P 9750 1550
AR Path="/5EB27600" Ref="U?"  Part="3" 
AR Path="/5E97E639/5EB27600" Ref="U3"  Part="3" 
F 0 "U3" H 9708 1596 50  0000 L CNN
F 1 "TL072" H 9708 1505 50  0000 L CNN
F 2 "Package_DIP:DIP-8_W7.62mm_Socket_LongPads" H 9750 1550 50  0001 C CNN
F 3 "http://www.ti.com/lit/ds/symlink/tl071.pdf" H 9750 1550 50  0001 C CNN
	3    9750 1550
	1    0    0    -1  
$EndComp
$Comp
L Device:C C?
U 1 1 5EB27607
P 10100 1350
AR Path="/5EB27607" Ref="C?"  Part="1" 
AR Path="/5E97E639/5EB27607" Ref="C7"  Part="1" 
F 0 "C7" H 10150 1550 50  0000 L CNN
F 1 "100n" H 10150 1450 50  0000 L CNN
F 2 "Capacitor_THT:C_Disc_D7.0mm_W2.5mm_P5.00mm" H 10138 1200 50  0001 C CNN
F 3 "~" H 10100 1350 50  0001 C CNN
	1    10100 1350
	1    0    0    -1  
$EndComp
$Comp
L Device:C C?
U 1 1 5EB2760E
P 10100 1750
AR Path="/5EB2760E" Ref="C?"  Part="1" 
AR Path="/5E97E639/5EB2760E" Ref="C8"  Part="1" 
F 0 "C8" H 10150 1650 50  0000 L CNN
F 1 "100n" H 10150 1550 50  0000 L CNN
F 2 "Capacitor_THT:C_Disc_D7.0mm_W2.5mm_P5.00mm" H 10138 1600 50  0001 C CNN
F 3 "~" H 10100 1750 50  0001 C CNN
	1    10100 1750
	1    0    0    -1  
$EndComp
Wire Wire Line
	9650 1250 9650 1150
Wire Wire Line
	9650 1150 9850 1150
Wire Wire Line
	10100 1150 10100 1200
Wire Wire Line
	10100 1900 10100 1950
Wire Wire Line
	10100 1950 9850 1950
Wire Wire Line
	9650 1950 9650 1850
Wire Wire Line
	10100 1600 10100 1550
Wire Wire Line
	10100 1550 10450 1550
Wire Wire Line
	10450 1550 10450 1600
Connection ~ 10100 1550
Wire Wire Line
	10100 1550 10100 1500
$Comp
L power:GND #PWR?
U 1 1 5EB27620
P 10450 1600
AR Path="/5EB27620" Ref="#PWR?"  Part="1" 
AR Path="/5E97E639/5EB27620" Ref="#PWR026"  Part="1" 
F 0 "#PWR026" H 10450 1350 50  0001 C CNN
F 1 "GND" H 10455 1427 50  0000 C CNN
F 2 "" H 10450 1600 50  0001 C CNN
F 3 "" H 10450 1600 50  0001 C CNN
	1    10450 1600
	1    0    0    -1  
$EndComp
$Comp
L power:+12V #PWR?
U 1 1 5EB27626
P 9850 1100
AR Path="/5EB27626" Ref="#PWR?"  Part="1" 
AR Path="/5E97E639/5EB27626" Ref="#PWR023"  Part="1" 
F 0 "#PWR023" H 9850 950 50  0001 C CNN
F 1 "+12V" H 9865 1273 50  0000 C CNN
F 2 "" H 9850 1100 50  0001 C CNN
F 3 "" H 9850 1100 50  0001 C CNN
	1    9850 1100
	1    0    0    -1  
$EndComp
Wire Wire Line
	9850 1100 9850 1150
Connection ~ 9850 1150
Wire Wire Line
	9850 1150 10100 1150
$Comp
L power:-12V #PWR?
U 1 1 5EB2762F
P 9850 2000
AR Path="/5EB2762F" Ref="#PWR?"  Part="1" 
AR Path="/5E97E639/5EB2762F" Ref="#PWR024"  Part="1" 
F 0 "#PWR024" H 9850 2100 50  0001 C CNN
F 1 "-12V" H 9865 2173 50  0000 C CNN
F 2 "" H 9850 2000 50  0001 C CNN
F 3 "" H 9850 2000 50  0001 C CNN
	1    9850 2000
	-1   0    0    1   
$EndComp
Wire Wire Line
	9850 1950 9850 2000
Connection ~ 9850 1950
Wire Wire Line
	9850 1950 9650 1950
$Comp
L hardware-rescue:AD633_DIP-custom-hardware-rescue U?
U 1 1 5EB27659
P 6000 6200
AR Path="/5EB27659" Ref="U?"  Part="1" 
AR Path="/5E97E639/5EB27659" Ref="U2"  Part="1" 
F 0 "U2" H 5800 6600 50  0000 C CNN
F 1 "AD633_DIP" H 5950 5850 50  0000 C CNN
F 2 "Package_DIP:DIP-8_W7.62mm_Socket_LongPads" H 5900 6200 50  0001 C CNN
F 3 "" H 5900 6200 50  0001 C CNN
	1    6000 6200
	1    0    0    -1  
$EndComp
$Comp
L power:GND #PWR?
U 1 1 5EB27660
P 5500 6550
AR Path="/5EB27660" Ref="#PWR?"  Part="1" 
AR Path="/5E97E639/5EB27660" Ref="#PWR014"  Part="1" 
F 0 "#PWR014" H 5500 6300 50  0001 C CNN
F 1 "GND" H 5505 6377 50  0000 C CNN
F 2 "" H 5500 6550 50  0001 C CNN
F 3 "" H 5500 6550 50  0001 C CNN
	1    5500 6550
	1    0    0    -1  
$EndComp
Wire Wire Line
	6350 5950 6450 5950
$Comp
L Device:C C?
U 1 1 5EB2766B
P 6700 5650
AR Path="/5EB2766B" Ref="C?"  Part="1" 
AR Path="/5E97E639/5EB2766B" Ref="C3"  Part="1" 
F 0 "C3" H 6750 5550 50  0000 L CNN
F 1 "100n" H 6750 5450 50  0000 L CNN
F 2 "Capacitor_THT:C_Disc_D7.0mm_W2.5mm_P5.00mm" H 6738 5500 50  0001 C CNN
F 3 "~" H 6700 5650 50  0001 C CNN
	1    6700 5650
	1    0    0    -1  
$EndComp
Wire Wire Line
	6450 5450 6550 5450
Wire Wire Line
	6700 5450 6700 5500
Wire Wire Line
	6450 5450 6450 5950
$Comp
L power:GND #PWR?
U 1 1 5EB27675
P 6700 5850
AR Path="/5EB27675" Ref="#PWR?"  Part="1" 
AR Path="/5E97E639/5EB27675" Ref="#PWR018"  Part="1" 
F 0 "#PWR018" H 6700 5600 50  0001 C CNN
F 1 "GND" H 6705 5677 50  0000 C CNN
F 2 "" H 6700 5850 50  0001 C CNN
F 3 "" H 6700 5850 50  0001 C CNN
	1    6700 5850
	1    0    0    -1  
$EndComp
Wire Wire Line
	6700 5850 6700 5800
Wire Wire Line
	6550 5450 6550 5350
Connection ~ 6550 5450
Wire Wire Line
	6550 5450 6700 5450
$Comp
L power:+12V #PWR?
U 1 1 5EB2767F
P 6550 5350
AR Path="/5EB2767F" Ref="#PWR?"  Part="1" 
AR Path="/5E97E639/5EB2767F" Ref="#PWR016"  Part="1" 
F 0 "#PWR016" H 6550 5200 50  0001 C CNN
F 1 "+12V" H 6565 5523 50  0000 C CNN
F 2 "" H 6550 5350 50  0001 C CNN
F 3 "" H 6550 5350 50  0001 C CNN
	1    6550 5350
	1    0    0    -1  
$EndComp
$Comp
L Device:C C?
U 1 1 5EB27685
P 6700 6650
AR Path="/5EB27685" Ref="C?"  Part="1" 
AR Path="/5E97E639/5EB27685" Ref="C4"  Part="1" 
F 0 "C4" H 6750 6550 50  0000 L CNN
F 1 "100n" H 6750 6450 50  0000 L CNN
F 2 "Capacitor_THT:C_Disc_D7.0mm_W2.5mm_P5.00mm" H 6738 6500 50  0001 C CNN
F 3 "~" H 6700 6650 50  0001 C CNN
	1    6700 6650
	1    0    0    -1  
$EndComp
Wire Wire Line
	6350 6400 6450 6400
Wire Wire Line
	6450 6400 6450 6850
Wire Wire Line
	6450 6850 6550 6850
Wire Wire Line
	6700 6850 6700 6800
$Comp
L power:GND #PWR?
U 1 1 5EB27690
P 6950 6450
AR Path="/5EB27690" Ref="#PWR?"  Part="1" 
AR Path="/5E97E639/5EB27690" Ref="#PWR019"  Part="1" 
F 0 "#PWR019" H 6950 6200 50  0001 C CNN
F 1 "GND" H 6955 6277 50  0000 C CNN
F 2 "" H 6950 6450 50  0001 C CNN
F 3 "" H 6950 6450 50  0001 C CNN
	1    6950 6450
	1    0    0    -1  
$EndComp
Wire Wire Line
	6950 6450 6950 6400
Wire Wire Line
	6950 6400 6700 6400
Wire Wire Line
	6700 6400 6700 6500
$Comp
L power:-12V #PWR?
U 1 1 5EB27699
P 6550 6900
AR Path="/5EB27699" Ref="#PWR?"  Part="1" 
AR Path="/5E97E639/5EB27699" Ref="#PWR017"  Part="1" 
F 0 "#PWR017" H 6550 7000 50  0001 C CNN
F 1 "-12V" H 6565 7073 50  0000 C CNN
F 2 "" H 6550 6900 50  0001 C CNN
F 3 "" H 6550 6900 50  0001 C CNN
	1    6550 6900
	-1   0    0    1   
$EndComp
Wire Wire Line
	6550 6850 6550 6900
Connection ~ 6550 6850
Wire Wire Line
	6550 6850 6700 6850
Wire Wire Line
	3850 5850 4050 5850
Wire Wire Line
	4050 5500 4050 5850
Wire Wire Line
	4050 5500 4300 5500
Connection ~ 4050 5850
Wire Wire Line
	4050 5850 4150 5850
Text Notes 3350 4350 0    100  ~ 0
CARRIER INPUT
Wire Wire Line
	7450 6300 7450 7250
Text Notes 13850 2600 0    100  ~ 0
POWER INPUT
$Comp
L Amplifier_Operational:TL072 U?
U 3 1 5EB27735
P 11150 1500
AR Path="/5EB27735" Ref="U?"  Part="3" 
AR Path="/5E97E639/5EB27735" Ref="U4"  Part="3" 
F 0 "U4" H 11108 1546 50  0000 L CNN
F 1 "TL072" H 11108 1455 50  0000 L CNN
F 2 "Package_DIP:DIP-8_W7.62mm_Socket_LongPads" H 11150 1500 50  0001 C CNN
F 3 "http://www.ti.com/lit/ds/symlink/tl071.pdf" H 11150 1500 50  0001 C CNN
	3    11150 1500
	1    0    0    -1  
$EndComp
$Comp
L Device:C C?
U 1 1 5EB2773C
P 11500 1300
AR Path="/5EB2773C" Ref="C?"  Part="1" 
AR Path="/5E97E639/5EB2773C" Ref="C10"  Part="1" 
F 0 "C10" H 11550 1500 50  0000 L CNN
F 1 "100n" H 11550 1400 50  0000 L CNN
F 2 "Capacitor_THT:C_Disc_D7.0mm_W2.5mm_P5.00mm" H 11538 1150 50  0001 C CNN
F 3 "~" H 11500 1300 50  0001 C CNN
	1    11500 1300
	1    0    0    -1  
$EndComp
$Comp
L Device:C C?
U 1 1 5EB27743
P 11500 1700
AR Path="/5EB27743" Ref="C?"  Part="1" 
AR Path="/5E97E639/5EB27743" Ref="C11"  Part="1" 
F 0 "C11" H 11550 1600 50  0000 L CNN
F 1 "100n" H 11550 1500 50  0000 L CNN
F 2 "Capacitor_THT:C_Disc_D7.0mm_W2.5mm_P5.00mm" H 11538 1550 50  0001 C CNN
F 3 "~" H 11500 1700 50  0001 C CNN
	1    11500 1700
	1    0    0    -1  
$EndComp
Wire Wire Line
	11050 1200 11050 1100
Wire Wire Line
	11050 1100 11250 1100
Wire Wire Line
	11500 1100 11500 1150
Wire Wire Line
	11500 1850 11500 1900
Wire Wire Line
	11500 1900 11250 1900
Wire Wire Line
	11050 1900 11050 1800
Wire Wire Line
	11500 1550 11500 1500
Wire Wire Line
	11500 1500 11850 1500
Wire Wire Line
	11850 1500 11850 1550
Connection ~ 11500 1500
Wire Wire Line
	11500 1500 11500 1450
$Comp
L power:GND #PWR?
U 1 1 5EB27755
P 11850 1550
AR Path="/5EB27755" Ref="#PWR?"  Part="1" 
AR Path="/5E97E639/5EB27755" Ref="#PWR030"  Part="1" 
F 0 "#PWR030" H 11850 1300 50  0001 C CNN
F 1 "GND" H 11855 1377 50  0000 C CNN
F 2 "" H 11850 1550 50  0001 C CNN
F 3 "" H 11850 1550 50  0001 C CNN
	1    11850 1550
	1    0    0    -1  
$EndComp
$Comp
L power:+12V #PWR?
U 1 1 5EB2775B
P 11250 1050
AR Path="/5EB2775B" Ref="#PWR?"  Part="1" 
AR Path="/5E97E639/5EB2775B" Ref="#PWR028"  Part="1" 
F 0 "#PWR028" H 11250 900 50  0001 C CNN
F 1 "+12V" H 11265 1223 50  0000 C CNN
F 2 "" H 11250 1050 50  0001 C CNN
F 3 "" H 11250 1050 50  0001 C CNN
	1    11250 1050
	1    0    0    -1  
$EndComp
Wire Wire Line
	11250 1050 11250 1100
Connection ~ 11250 1100
Wire Wire Line
	11250 1100 11500 1100
$Comp
L power:-12V #PWR?
U 1 1 5EB27764
P 11250 1950
AR Path="/5EB27764" Ref="#PWR?"  Part="1" 
AR Path="/5E97E639/5EB27764" Ref="#PWR029"  Part="1" 
F 0 "#PWR029" H 11250 2050 50  0001 C CNN
F 1 "-12V" H 11265 2123 50  0000 C CNN
F 2 "" H 11250 1950 50  0001 C CNN
F 3 "" H 11250 1950 50  0001 C CNN
	1    11250 1950
	-1   0    0    1   
$EndComp
Wire Wire Line
	11250 1900 11250 1950
Connection ~ 11250 1900
Wire Wire Line
	11250 1900 11050 1900
$Comp
L Connector_Generic:Conn_01x04 J?
U 1 1 5EB2776D
P 14250 3300
AR Path="/5EB2776D" Ref="J?"  Part="1" 
AR Path="/5E97E639/5EB2776D" Ref="J9"  Part="1" 
F 0 "J9" H 14350 3250 50  0000 C CNN
F 1 "POWER" H 14450 3350 50  0000 C CNN
F 2 "custom:0.156_4pin" H 14250 3300 50  0001 C CNN
F 3 "~" H 14250 3300 50  0001 C CNN
	1    14250 3300
	-1   0    0    -1  
$EndComp
$Comp
L Diode:1N5817 D?
U 1 1 5EB27774
P 14700 3200
AR Path="/5EB27774" Ref="D?"  Part="1" 
AR Path="/5E97E639/5EB27774" Ref="D3"  Part="1" 
F 0 "D3" H 14700 2984 50  0000 C CNN
F 1 "1N5818" H 14700 3075 50  0000 C CNN
F 2 "Diode_THT:D_DO-41_SOD81_P10.16mm_Horizontal" H 14700 3025 50  0001 C CNN
F 3 "http://www.vishay.com/docs/88525/1n5817.pdf" H 14700 3200 50  0001 C CNN
	1    14700 3200
	-1   0    0    1   
$EndComp
$Comp
L Diode:1N5817 D?
U 1 1 5EB2777B
P 14700 3500
AR Path="/5EB2777B" Ref="D?"  Part="1" 
AR Path="/5E97E639/5EB2777B" Ref="D4"  Part="1" 
F 0 "D4" H 14700 3400 50  0000 C CNN
F 1 "1N5818" H 14700 3300 50  0000 C CNN
F 2 "Diode_THT:D_DO-41_SOD81_P10.16mm_Horizontal" H 14700 3325 50  0001 C CNN
F 3 "http://www.vishay.com/docs/88525/1n5817.pdf" H 14700 3500 50  0001 C CNN
	1    14700 3500
	1    0    0    -1  
$EndComp
Wire Wire Line
	14450 3200 14550 3200
Wire Wire Line
	14450 3500 14550 3500
Wire Wire Line
	14450 3300 14500 3300
Wire Wire Line
	14500 3300 14500 3350
Wire Wire Line
	14500 3400 14450 3400
Connection ~ 14500 3400
$Comp
L power:GND #PWR?
U 1 1 5EB27788
P 14500 3800
AR Path="/5EB27788" Ref="#PWR?"  Part="1" 
AR Path="/5E97E639/5EB27788" Ref="#PWR032"  Part="1" 
F 0 "#PWR032" H 14500 3550 50  0001 C CNN
F 1 "GND" H 14505 3627 50  0000 C CNN
F 2 "" H 14500 3800 50  0001 C CNN
F 3 "" H 14500 3800 50  0001 C CNN
	1    14500 3800
	1    0    0    -1  
$EndComp
Connection ~ 14500 3350
Wire Wire Line
	14500 3350 14500 3400
$Comp
L Device:R RFUSE?
U 1 1 5EB27790
P 15100 3200
AR Path="/5EB27790" Ref="RFUSE?"  Part="1" 
AR Path="/5E97E639/5EB27790" Ref="RFUSE1"  Part="1" 
F 0 "RFUSE1" V 15000 3200 50  0000 C CNN
F 1 "0R" V 15100 3200 50  0000 C CNN
F 2 "Resistor_THT:R_Axial_DIN0207_L6.3mm_D2.5mm_P10.16mm_Horizontal" V 15030 3200 50  0001 C CNN
F 3 "~" H 15100 3200 50  0001 C CNN
	1    15100 3200
	0    1    1    0   
$EndComp
Wire Wire Line
	14850 3200 14950 3200
$Comp
L Device:R RFUSE?
U 1 1 5EB27798
P 15100 3500
AR Path="/5EB27798" Ref="RFUSE?"  Part="1" 
AR Path="/5E97E639/5EB27798" Ref="RFUSE2"  Part="1" 
F 0 "RFUSE2" V 15200 3500 50  0000 C CNN
F 1 "0R" V 15100 3500 50  0000 C CNN
F 2 "Resistor_THT:R_Axial_DIN0207_L6.3mm_D2.5mm_P10.16mm_Horizontal" V 15030 3500 50  0001 C CNN
F 3 "~" H 15100 3500 50  0001 C CNN
	1    15100 3500
	0    1    1    0   
$EndComp
Wire Wire Line
	14950 3500 14850 3500
$Comp
L Device:CP C?
U 1 1 5EB277A0
P 15600 3150
AR Path="/5EB277A0" Ref="C?"  Part="1" 
AR Path="/5E97E639/5EB277A0" Ref="C12"  Part="1" 
F 0 "C12" H 15718 3196 50  0000 L CNN
F 1 "10u" H 15718 3105 50  0000 L CNN
F 2 "Capacitor_THT:CP_Radial_D6.3mm_P2.50mm" H 15638 3000 50  0001 C CNN
F 3 "~" H 15600 3150 50  0001 C CNN
	1    15600 3150
	1    0    0    -1  
$EndComp
$Comp
L Device:CP C?
U 1 1 5EB277A7
P 15600 3550
AR Path="/5EB277A7" Ref="C?"  Part="1" 
AR Path="/5E97E639/5EB277A7" Ref="C13"  Part="1" 
F 0 "C13" H 15718 3596 50  0000 L CNN
F 1 "10u" H 15718 3505 50  0000 L CNN
F 2 "Capacitor_THT:CP_Radial_D6.3mm_P2.50mm" H 15638 3400 50  0001 C CNN
F 3 "~" H 15600 3550 50  0001 C CNN
	1    15600 3550
	1    0    0    -1  
$EndComp
Wire Wire Line
	15600 3350 15600 3300
Wire Wire Line
	14500 3350 15600 3350
Wire Wire Line
	15600 3350 15600 3400
Connection ~ 15600 3350
Wire Wire Line
	15250 3200 15350 3200
Wire Wire Line
	15350 3200 15350 2950
Wire Wire Line
	15600 2950 15600 3000
Wire Wire Line
	15250 3500 15350 3500
Wire Wire Line
	15350 3500 15350 3750
Wire Wire Line
	15600 3750 15600 3700
$Comp
L power:PWR_FLAG #FLG?
U 1 1 5EB277B8
P 15350 2800
AR Path="/5EB277B8" Ref="#FLG?"  Part="1" 
AR Path="/5E97E639/5EB277B8" Ref="#FLG01"  Part="1" 
F 0 "#FLG01" H 15350 2875 50  0001 C CNN
F 1 "PWR_FLAG" H 15350 2974 50  0000 C CNN
F 2 "" H 15350 2800 50  0001 C CNN
F 3 "~" H 15350 2800 50  0001 C CNN
	1    15350 2800
	1    0    0    -1  
$EndComp
Wire Wire Line
	15350 2800 15350 2950
Connection ~ 15350 2950
Wire Wire Line
	15350 2950 15600 2950
$Comp
L power:PWR_FLAG #FLG?
U 1 1 5EB277C1
P 15350 3900
AR Path="/5EB277C1" Ref="#FLG?"  Part="1" 
AR Path="/5E97E639/5EB277C1" Ref="#FLG02"  Part="1" 
F 0 "#FLG02" H 15350 3975 50  0001 C CNN
F 1 "PWR_FLAG" H 15350 4073 50  0000 C CNN
F 2 "" H 15350 3900 50  0001 C CNN
F 3 "~" H 15350 3900 50  0001 C CNN
	1    15350 3900
	-1   0    0    1   
$EndComp
Wire Wire Line
	15350 3900 15350 3750
Connection ~ 15350 3750
Wire Wire Line
	15350 3750 15600 3750
$Comp
L power:+12V #PWR?
U 1 1 5EB277CA
P 15600 2900
AR Path="/5EB277CA" Ref="#PWR?"  Part="1" 
AR Path="/5E97E639/5EB277CA" Ref="#PWR036"  Part="1" 
F 0 "#PWR036" H 15600 2750 50  0001 C CNN
F 1 "+12V" H 15615 3073 50  0000 C CNN
F 2 "" H 15600 2900 50  0001 C CNN
F 3 "" H 15600 2900 50  0001 C CNN
	1    15600 2900
	1    0    0    -1  
$EndComp
Wire Wire Line
	15600 2950 15600 2900
Connection ~ 15600 2950
$Comp
L power:-12V #PWR?
U 1 1 5EB277D2
P 15600 3800
AR Path="/5EB277D2" Ref="#PWR?"  Part="1" 
AR Path="/5E97E639/5EB277D2" Ref="#PWR037"  Part="1" 
F 0 "#PWR037" H 15600 3900 50  0001 C CNN
F 1 "-12V" H 15615 3973 50  0000 C CNN
F 2 "" H 15600 3800 50  0001 C CNN
F 3 "" H 15600 3800 50  0001 C CNN
	1    15600 3800
	-1   0    0    1   
$EndComp
Wire Wire Line
	15600 3800 15600 3750
Connection ~ 15600 3750
Wire Wire Line
	14500 3700 14500 3800
Wire Wire Line
	14500 3400 14500 3700
Connection ~ 14500 3700
Wire Wire Line
	14250 3700 14500 3700
Wire Wire Line
	14250 3800 14250 3700
$Comp
L power:GNDPWR #PWR?
U 1 1 5EB277E0
P 14250 3800
AR Path="/5EB277E0" Ref="#PWR?"  Part="1" 
AR Path="/5E97E639/5EB277E0" Ref="#PWR031"  Part="1" 
F 0 "#PWR031" H 14250 3600 50  0001 C CNN
F 1 "GNDPWR" H 14254 3646 50  0000 C CNN
F 2 "" H 14250 3750 50  0001 C CNN
F 3 "" H 14250 3750 50  0001 C CNN
	1    14250 3800
	1    0    0    -1  
$EndComp
Text Notes 3050 6600 0    100  ~ 0
MODULATOR INPUT
Text Label 3850 5850 2    50   ~ 0
MODULATOR_BOTTOM
Text Label 4200 4650 2    50   ~ 0
CARRIER_BOTTOM
$Comp
L Mechanical:MountingHole HS?
U 1 1 5ED31AB3
P 15300 4650
AR Path="/5ED31AB3" Ref="HS?"  Part="1" 
AR Path="/5E97E639/5ED31AB3" Ref="HS3"  Part="1" 
F 0 "HS3" H 15400 4696 50  0000 L CNN
F 1 "MountingHole" H 15400 4605 50  0000 L CNN
F 2 "MountingHole:MountingHole_3.2mm_M3" H 15300 4650 50  0001 C CNN
F 3 "~" H 15300 4650 50  0001 C CNN
	1    15300 4650
	1    0    0    -1  
$EndComp
$Comp
L Mechanical:MountingHole HS?
U 1 1 5ED31ABA
P 15300 4850
AR Path="/5ED31ABA" Ref="HS?"  Part="1" 
AR Path="/5E97E639/5ED31ABA" Ref="HS4"  Part="1" 
F 0 "HS4" H 15400 4896 50  0000 L CNN
F 1 "MountingHole" H 15400 4805 50  0000 L CNN
F 2 "MountingHole:MountingHole_3.2mm_M3" H 15300 4850 50  0001 C CNN
F 3 "~" H 15300 4850 50  0001 C CNN
	1    15300 4850
	1    0    0    -1  
$EndComp
$Comp
L Connector_Generic:Conn_02x03_Odd_Even J?
U 1 1 5ED63DC9
P 15050 1500
AR Path="/5ED63DC9" Ref="J?"  Part="1" 
AR Path="/5E97E639/5ED63DC9" Ref="J10"  Part="1" 
F 0 "J10" H 15100 1817 50  0000 C CNN
F 1 "SUPPLY_BOTTOM" H 15100 1726 50  0000 C CNN
F 2 "Connector_PinSocket_2.54mm:PinSocket_2x03_P2.54mm_Vertical" H 15050 1500 50  0001 C CNN
F 3 "~" H 15050 1500 50  0001 C CNN
	1    15050 1500
	1    0    0    -1  
$EndComp
Wire Wire Line
	15350 1400 15450 1400
Wire Wire Line
	15450 1400 15450 1000
Wire Wire Line
	15450 1000 15100 1000
Wire Wire Line
	14750 1000 14750 1400
Wire Wire Line
	14750 1400 14850 1400
Wire Wire Line
	15350 1600 15450 1600
Wire Wire Line
	15450 1600 15450 1900
Wire Wire Line
	15450 1900 15100 1900
Wire Wire Line
	14750 1900 14750 1600
Wire Wire Line
	14750 1600 14850 1600
$Comp
L power:+12V #PWR?
U 1 1 5ED63DDA
P 15100 1000
AR Path="/5ED63DDA" Ref="#PWR?"  Part="1" 
AR Path="/5E97E639/5ED63DDA" Ref="#PWR034"  Part="1" 
F 0 "#PWR034" H 15100 850 50  0001 C CNN
F 1 "+12V" H 15115 1173 50  0000 C CNN
F 2 "" H 15100 1000 50  0001 C CNN
F 3 "" H 15100 1000 50  0001 C CNN
	1    15100 1000
	1    0    0    -1  
$EndComp
Connection ~ 15100 1000
Wire Wire Line
	15100 1000 14750 1000
$Comp
L power:-12V #PWR?
U 1 1 5ED63DE2
P 15100 1900
AR Path="/5ED63DE2" Ref="#PWR?"  Part="1" 
AR Path="/5E97E639/5ED63DE2" Ref="#PWR035"  Part="1" 
F 0 "#PWR035" H 15100 2000 50  0001 C CNN
F 1 "-12V" H 15115 2073 50  0000 C CNN
F 2 "" H 15100 1900 50  0001 C CNN
F 3 "" H 15100 1900 50  0001 C CNN
	1    15100 1900
	-1   0    0    1   
$EndComp
Connection ~ 15100 1900
Wire Wire Line
	15100 1900 14750 1900
Wire Wire Line
	15350 1500 15650 1500
Wire Wire Line
	15650 1500 15650 1650
Wire Wire Line
	14850 1500 14550 1500
Wire Wire Line
	14550 1500 14550 1650
$Comp
L power:GND #PWR?
U 1 1 5ED63DEE
P 15650 1650
AR Path="/5ED63DEE" Ref="#PWR?"  Part="1" 
AR Path="/5E97E639/5ED63DEE" Ref="#PWR038"  Part="1" 
F 0 "#PWR038" H 15650 1400 50  0001 C CNN
F 1 "GND" H 15655 1477 50  0000 C CNN
F 2 "" H 15650 1650 50  0001 C CNN
F 3 "" H 15650 1650 50  0001 C CNN
	1    15650 1650
	1    0    0    -1  
$EndComp
$Comp
L power:GND #PWR?
U 1 1 5ED63DF4
P 14550 1650
AR Path="/5ED63DF4" Ref="#PWR?"  Part="1" 
AR Path="/5E97E639/5ED63DF4" Ref="#PWR033"  Part="1" 
F 0 "#PWR033" H 14550 1400 50  0001 C CNN
F 1 "GND" H 14555 1477 50  0000 C CNN
F 2 "" H 14550 1650 50  0001 C CNN
F 3 "" H 14550 1650 50  0001 C CNN
	1    14550 1650
	1    0    0    -1  
$EndComp
$Comp
L Connector_Generic:Conn_01x04 J?
U 1 1 5ED63DFA
P 13650 1450
AR Path="/5ED63DFA" Ref="J?"  Part="1" 
AR Path="/5E97E639/5ED63DFA" Ref="J8"  Part="1" 
F 0 "J8" H 13730 1442 50  0000 L CNN
F 1 "SIGNALS_BOTTOM" H 13730 1351 50  0000 L CNN
F 2 "Connector_PinSocket_2.54mm:PinSocket_1x04_P2.54mm_Vertical" H 13650 1450 50  0001 C CNN
F 3 "~" H 13650 1450 50  0001 C CNN
	1    13650 1450
	1    0    0    -1  
$EndComp
Text Label 13450 1350 2    50   ~ 0
MODULATOR_BOTTOM
Text Label 13450 1450 2    50   ~ 0
CARRIER_BOTTOM
Text Label 13450 1550 2    50   ~ 0
OFFSET_BOTTOM
Text Label 13450 1650 2    50   ~ 0
OUTPUT_BOTTOM
Wire Notes Line
	15950 600  15950 2250
Wire Notes Line
	15950 2250 12500 2250
Wire Notes Line
	12500 2250 12500 600 
Wire Notes Line
	12500 600  15950 600 
Text Notes 12600 750  0    50   ~ 0
Top/bottom connectors
Wire Wire Line
	6350 6100 7150 6100
Connection ~ 7150 6100
Text Notes 4500 3700 0    50   ~ 0
What the switch does:\n- When multiplying, the OpAmp has a "normal" feedback loop\n- When dividing, the AD633 is put into the feedback loop
Wire Notes Line
	13800 2400 15950 2400
Wire Notes Line
	15950 2400 15950 4350
Wire Notes Line
	15950 4350 13800 4350
Wire Notes Line
	13800 4350 13800 2400
Wire Wire Line
	5350 4750 6350 4750
Wire Wire Line
	6350 4400 6350 4750
Connection ~ 6350 4750
Wire Wire Line
	6350 4750 6500 4750
$Comp
L Switch:SW_DPDT_x2 SW?
U 1 1 5F9FE694
P 5550 4300
AR Path="/5F9FE694" Ref="SW?"  Part="1" 
AR Path="/5E97E639/5F9FE694" Ref="SW1"  Part="1" 
F 0 "SW1" H 5500 4100 50  0000 C CNN
F 1 "SW_DPDT_x2" H 5500 4000 50  0000 C CNN
F 2 "Button_Switch_THT:SW_NKK_G1xJP" H 5550 4300 50  0001 C CNN
F 3 "" H 5550 4300 50  0001 C CNN
	1    5550 4300
	1    0    0    1   
$EndComp
$Comp
L Switch:SW_DPDT_x2 SW?
U 2 1 5F9FE69A
P 8800 6200
AR Path="/5F9FE69A" Ref="SW?"  Part="2" 
AR Path="/5E97E639/5F9FE69A" Ref="SW1"  Part="2" 
F 0 "SW1" H 8500 5950 50  0000 C CNN
F 1 "SW_DPDT_x2" H 8500 6050 50  0000 C CNN
F 2 "Button_Switch_THT:SW_NKK_G1xJP" H 8800 6200 50  0001 C CNN
F 3 "" H 8800 6200 50  0001 C CNN
	2    8800 6200
	-1   0    0    -1  
$EndComp
Text Label 5500 8700 2    50   ~ 0
OFFSET_BOTTOM
Wire Wire Line
	5200 4300 5350 4300
Wire Wire Line
	7150 4200 7150 6100
Wire Wire Line
	5750 4200 7150 4200
Text Notes 650  1600 0    100  ~ 0
The bottom board contains:\n- The multiplier (AD633)\n- Modulator buffer\n- Carrier buffer
Text Notes 600  900  0    200  Italic 40
Bottom board\n
Text Notes 4200 4050 0    50   ~ 0
ADD A CAPACITOR HERE ?
Wire Wire Line
	5900 8700 5800 8700
Wire Wire Line
	5800 8400 6050 8400
Wire Wire Line
	6600 8400 6350 8400
$Comp
L Device:R R?
U 1 1 5FB5F92C
P 6200 8400
AR Path="/5FB5F92C" Ref="R?"  Part="1" 
AR Path="/5E97E639/5FB5F92C" Ref="R16"  Part="1" 
F 0 "R16" V 6100 8400 50  0000 C CNN
F 1 "56K" V 6200 8400 50  0000 C CNN
F 2 "Resistor_THT:R_Axial_DIN0207_L6.3mm_D2.5mm_P10.16mm_Horizontal" V 6130 8400 50  0001 C CNN
F 3 "~" H 6200 8400 50  0001 C CNN
	1    6200 8400
	0    1    1    0   
$EndComp
Wire Wire Line
	5850 8900 5850 8950
Wire Wire Line
	5900 8900 5850 8900
$Comp
L power:GND #PWR?
U 1 1 5FB5F934
P 5850 8950
AR Path="/5FB5F934" Ref="#PWR?"  Part="1" 
AR Path="/5E97E639/5FB5F934" Ref="#PWR015"  Part="1" 
F 0 "#PWR015" H 5850 8700 50  0001 C CNN
F 1 "GND" H 5855 8777 50  0000 C CNN
F 2 "" H 5850 8950 50  0001 C CNN
F 3 "" H 5850 8950 50  0001 C CNN
	1    5850 8950
	1    0    0    -1  
$EndComp
Wire Wire Line
	6600 8800 6500 8800
Connection ~ 6600 8800
Wire Wire Line
	6600 8400 6600 8800
Wire Wire Line
	5800 8700 5800 8400
$Comp
L Amplifier_Operational:TL072 U?
U 1 1 5FB5F93F
P 6200 8800
AR Path="/5FB5F93F" Ref="U?"  Part="1" 
AR Path="/5E97E639/5FB5F93F" Ref="U3"  Part="1" 
F 0 "U3" H 6200 9150 50  0000 C CNN
F 1 "TL072" H 6200 9050 50  0000 C CNN
F 2 "Package_DIP:DIP-8_W7.62mm_Socket_LongPads" H 6200 8800 50  0001 C CNN
F 3 "http://www.ti.com/lit/ds/symlink/tl071.pdf" H 6200 8800 50  0001 C CNN
	1    6200 8800
	1    0    0    1   
$EndComp
Connection ~ 5800 8700
Wire Wire Line
	5500 8700 5800 8700
Text Notes 5350 9400 0    100  ~ 0
OFFSET BUFFER
Wire Wire Line
	12350 6300 12200 6300
$Comp
L Device:R R?
U 1 1 5FB9092B
P 12050 6300
AR Path="/5FB9092B" Ref="R?"  Part="1" 
AR Path="/5E97E639/5FB9092B" Ref="R20"  Part="1" 
F 0 "R20" V 11950 6300 50  0000 C CNN
F 1 "1K" V 12050 6300 50  0000 C CNN
F 2 "Resistor_THT:R_Axial_DIN0207_L6.3mm_D2.5mm_P10.16mm_Horizontal" V 11980 6300 50  0001 C CNN
F 3 "~" H 12050 6300 50  0001 C CNN
	1    12050 6300
	0    1    1    0   
$EndComp
Wire Wire Line
	11650 6300 11650 5850
Wire Wire Line
	11650 5850 11250 5850
Connection ~ 11650 6300
Wire Wire Line
	11650 6300 11600 6300
$Comp
L Device:R R?
U 1 1 5FB90935
P 11100 5850
AR Path="/5FB90935" Ref="R?"  Part="1" 
AR Path="/5E97E639/5FB90935" Ref="R19"  Part="1" 
F 0 "R19" V 11000 5850 50  0000 C CNN
F 1 "100K" V 11100 5850 50  0000 C CNN
F 2 "Resistor_THT:R_Axial_DIN0207_L6.3mm_D2.5mm_P10.16mm_Horizontal" V 11030 5850 50  0001 C CNN
F 3 "~" H 11100 5850 50  0001 C CNN
	1    11100 5850
	0    1    1    0   
$EndComp
Wire Wire Line
	10950 5850 10750 5850
Wire Wire Line
	10750 6200 11000 6200
Connection ~ 10750 6200
$Comp
L power:GND #PWR?
U 1 1 5FB9093F
P 10900 6500
AR Path="/5FB9093F" Ref="#PWR?"  Part="1" 
AR Path="/5E97E639/5FB9093F" Ref="#PWR027"  Part="1" 
F 0 "#PWR027" H 10900 6250 50  0001 C CNN
F 1 "GND" H 10905 6327 50  0000 C CNN
F 2 "" H 10900 6500 50  0001 C CNN
F 3 "" H 10900 6500 50  0001 C CNN
	1    10900 6500
	1    0    0    -1  
$EndComp
Wire Wire Line
	11000 6400 10900 6400
Wire Wire Line
	10900 6400 10900 6500
$Comp
L Device:R R?
U 1 1 5FB90947
P 10350 6200
AR Path="/5FB90947" Ref="R?"  Part="1" 
AR Path="/5E97E639/5FB90947" Ref="R18"  Part="1" 
F 0 "R18" V 10250 6200 50  0000 C CNN
F 1 "10K" V 10350 6200 50  0000 C CNN
F 2 "Resistor_THT:R_Axial_DIN0207_L6.3mm_D2.5mm_P10.16mm_Horizontal" V 10280 6200 50  0001 C CNN
F 3 "~" H 10350 6200 50  0001 C CNN
	1    10350 6200
	0    1    1    0   
$EndComp
$Comp
L Device:D D?
U 1 1 5FB90953
P 10100 6700
AR Path="/5FB90953" Ref="D?"  Part="1" 
AR Path="/5E97E639/5FB90953" Ref="D2"  Part="1" 
F 0 "D2" V 10054 6779 50  0000 L CNN
F 1 "1N4148" V 10145 6779 50  0000 L CNN
F 2 "Diode_THT:D_DO-35_SOD27_P7.62mm_Horizontal" H 10100 6700 50  0001 C CNN
F 3 "~" H 10100 6700 50  0001 C CNN
	1    10100 6700
	0    1    1    0   
$EndComp
$Comp
L Device:D D?
U 1 1 5FB90959
P 9850 6700
AR Path="/5FB90959" Ref="D?"  Part="1" 
AR Path="/5E97E639/5FB90959" Ref="D1"  Part="1" 
F 0 "D1" V 9900 6900 50  0000 R CNN
F 1 "1N4148" V 9800 7050 50  0000 R CNN
F 2 "Diode_THT:D_DO-35_SOD27_P7.62mm_Horizontal" H 9850 6700 50  0001 C CNN
F 3 "~" H 9850 6700 50  0001 C CNN
	1    9850 6700
	0    -1   -1   0   
$EndComp
Wire Wire Line
	10100 6450 10100 6550
Wire Wire Line
	10100 6850 10100 6950
Wire Wire Line
	10100 6950 9950 6950
Wire Wire Line
	9850 6950 9850 6850
$Comp
L power:GND #PWR?
U 1 1 5FB90965
P 9950 7050
AR Path="/5FB90965" Ref="#PWR?"  Part="1" 
AR Path="/5E97E639/5FB90965" Ref="#PWR025"  Part="1" 
F 0 "#PWR025" H 9950 6800 50  0001 C CNN
F 1 "GND" H 9955 6877 50  0000 C CNN
F 2 "" H 9950 7050 50  0001 C CNN
F 3 "" H 9950 7050 50  0001 C CNN
	1    9950 7050
	1    0    0    -1  
$EndComp
Wire Wire Line
	9950 7050 9950 6950
Connection ~ 9950 6950
Wire Wire Line
	9950 6950 9850 6950
$Comp
L Device:C C?
U 1 1 5FB90973
P 11100 5550
AR Path="/5FB90973" Ref="C?"  Part="1" 
AR Path="/5E97E639/5FB90973" Ref="C9"  Part="1" 
F 0 "C9" V 10848 5550 50  0000 C CNN
F 1 "47pF" V 10939 5550 50  0000 C CNN
F 2 "Capacitor_THT:C_Disc_D7.0mm_W2.5mm_P5.00mm" H 11138 5400 50  0001 C CNN
F 3 "~" H 11100 5550 50  0001 C CNN
	1    11100 5550
	0    1    1    0   
$EndComp
Wire Wire Line
	11650 5850 11650 5550
Wire Wire Line
	11650 5550 11250 5550
Connection ~ 11650 5850
Wire Wire Line
	10950 5550 10750 5550
Wire Wire Line
	10750 5550 10750 5850
Connection ~ 10750 5850
Text Notes 10550 7150 0    100  ~ 0
OUTPUT & CLIPPING STAGE
$Comp
L Amplifier_Operational:TL072 U?
U 2 1 5FB90980
P 11300 6300
AR Path="/5FB90980" Ref="U?"  Part="2" 
AR Path="/5E97E639/5FB90980" Ref="U3"  Part="2" 
F 0 "U3" H 11300 6650 50  0000 C CNN
F 1 "TL072" H 11300 6550 50  0000 C CNN
F 2 "Package_DIP:DIP-8_W7.62mm_Socket_LongPads" H 11300 6300 50  0001 C CNN
F 3 "http://www.ti.com/lit/ds/symlink/tl071.pdf" H 11300 6300 50  0001 C CNN
	2    11300 6300
	1    0    0    1   
$EndComp
Wire Wire Line
	10500 6200 10750 6200
Wire Wire Line
	11650 6300 11900 6300
Text Label 12350 6300 0    50   ~ 0
OUTPUT_BOTTOM
$Comp
L Amplifier_Operational:TL072 U?
U 3 1 5FC273EB
P 8350 1550
AR Path="/5FC273EB" Ref="U?"  Part="3" 
AR Path="/5E97E639/5FC273EB" Ref="U1"  Part="3" 
F 0 "U1" H 8308 1596 50  0000 L CNN
F 1 "TL072" H 8308 1505 50  0000 L CNN
F 2 "Package_DIP:DIP-8_W7.62mm_Socket_LongPads" H 8350 1550 50  0001 C CNN
F 3 "http://www.ti.com/lit/ds/symlink/tl071.pdf" H 8350 1550 50  0001 C CNN
	3    8350 1550
	1    0    0    -1  
$EndComp
$Comp
L Device:C C?
U 1 1 5FC273F1
P 8700 1350
AR Path="/5FC273F1" Ref="C?"  Part="1" 
AR Path="/5E97E639/5FC273F1" Ref="C5"  Part="1" 
F 0 "C5" H 8750 1550 50  0000 L CNN
F 1 "100n" H 8750 1450 50  0000 L CNN
F 2 "Capacitor_THT:C_Disc_D7.0mm_W2.5mm_P5.00mm" H 8738 1200 50  0001 C CNN
F 3 "~" H 8700 1350 50  0001 C CNN
	1    8700 1350
	1    0    0    -1  
$EndComp
$Comp
L Device:C C?
U 1 1 5FC273F7
P 8700 1750
AR Path="/5FC273F7" Ref="C?"  Part="1" 
AR Path="/5E97E639/5FC273F7" Ref="C6"  Part="1" 
F 0 "C6" H 8750 1650 50  0000 L CNN
F 1 "100n" H 8750 1550 50  0000 L CNN
F 2 "Capacitor_THT:C_Disc_D7.0mm_W2.5mm_P5.00mm" H 8738 1600 50  0001 C CNN
F 3 "~" H 8700 1750 50  0001 C CNN
	1    8700 1750
	1    0    0    -1  
$EndComp
Wire Wire Line
	8250 1250 8250 1150
Wire Wire Line
	8250 1150 8450 1150
Wire Wire Line
	8700 1150 8700 1200
Wire Wire Line
	8700 1900 8700 1950
Wire Wire Line
	8700 1950 8450 1950
Wire Wire Line
	8250 1950 8250 1850
Wire Wire Line
	8700 1600 8700 1550
Wire Wire Line
	8700 1550 9050 1550
Connection ~ 8700 1550
Wire Wire Line
	8700 1550 8700 1500
$Comp
L power:+12V #PWR?
U 1 1 5FC27407
P 8450 1100
AR Path="/5FC27407" Ref="#PWR?"  Part="1" 
AR Path="/5E97E639/5FC27407" Ref="#PWR020"  Part="1" 
F 0 "#PWR020" H 8450 950 50  0001 C CNN
F 1 "+12V" H 8465 1273 50  0000 C CNN
F 2 "" H 8450 1100 50  0001 C CNN
F 3 "" H 8450 1100 50  0001 C CNN
	1    8450 1100
	1    0    0    -1  
$EndComp
Wire Wire Line
	8450 1100 8450 1150
Connection ~ 8450 1150
Wire Wire Line
	8450 1150 8700 1150
$Comp
L power:-12V #PWR?
U 1 1 5FC27410
P 8450 2000
AR Path="/5FC27410" Ref="#PWR?"  Part="1" 
AR Path="/5E97E639/5FC27410" Ref="#PWR021"  Part="1" 
F 0 "#PWR021" H 8450 2100 50  0001 C CNN
F 1 "-12V" H 8465 2173 50  0000 C CNN
F 2 "" H 8450 2000 50  0001 C CNN
F 3 "" H 8450 2000 50  0001 C CNN
	1    8450 2000
	-1   0    0    1   
$EndComp
Wire Wire Line
	8450 1950 8450 2000
Connection ~ 8450 1950
Wire Wire Line
	8450 1950 8250 1950
$Comp
L power:GND #PWR?
U 1 1 5FC56988
P 9050 1600
AR Path="/5FC56988" Ref="#PWR?"  Part="1" 
AR Path="/5E97E639/5FC56988" Ref="#PWR022"  Part="1" 
F 0 "#PWR022" H 9050 1350 50  0001 C CNN
F 1 "GND" H 9055 1427 50  0000 C CNN
F 2 "" H 9050 1600 50  0001 C CNN
F 3 "" H 9050 1600 50  0001 C CNN
	1    9050 1600
	1    0    0    -1  
$EndComp
Wire Wire Line
	9050 1550 9050 1600
Wire Wire Line
	4350 4650 4200 4650
Text Notes 12200 6500 0    50   ~ 0
+/- 5V
Wire Wire Line
	10750 5850 10750 6200
Wire Wire Line
	9000 6200 9500 6200
Wire Wire Line
	9950 6200 10200 6200
Connection ~ 9950 6200
Wire Wire Line
	9950 6450 10100 6450
Connection ~ 9950 6450
Wire Wire Line
	9950 6450 9950 6200
Wire Wire Line
	9800 6200 9950 6200
Wire Wire Line
	9850 6450 9950 6450
Wire Wire Line
	9850 6550 9850 6450
$Comp
L Device:R R?
U 1 1 5FB9094D
P 9650 6200
AR Path="/5FB9094D" Ref="R?"  Part="1" 
AR Path="/5E97E639/5FB9094D" Ref="R17"  Part="1" 
F 0 "R17" V 9550 6200 50  0000 C CNN
F 1 "560R" V 9650 6200 50  0000 C CNN
F 2 "Resistor_THT:R_Axial_DIN0207_L6.3mm_D2.5mm_P10.16mm_Horizontal" V 9580 6200 50  0001 C CNN
F 3 "~" H 9650 6200 50  0001 C CNN
	1    9650 6200
	0    1    1    0   
$EndComp
Text Notes 7500 5800 0    50   ~ 0
What the switch does:\n- When multiplying, the output IS the AD633 output\n- When dividing, the output is the OpAmp output
Wire Wire Line
	6600 8800 7150 8800
Wire Wire Line
	5300 7250 7450 7250
Wire Wire Line
	7150 6100 8600 6100
Wire Wire Line
	6350 6250 7150 6250
Wire Wire Line
	7150 6250 7150 8800
Wire Wire Line
	4850 5950 5650 5950
Text Label 5200 6250 2    50   ~ 0
CARRIER
Wire Wire Line
	5200 6250 5300 6250
Wire Wire Line
	5500 6550 5500 6400
Wire Wire Line
	5500 6100 5650 6100
Connection ~ 5500 6400
Wire Wire Line
	5500 6400 5500 6100
Wire Wire Line
	5500 6400 5650 6400
Wire Wire Line
	5300 6250 5300 7250
Connection ~ 5300 6250
Wire Wire Line
	5300 6250 5650 6250
Wire Wire Line
	7450 6300 8600 6300
Wire Wire Line
	5750 4400 6350 4400
Text Notes 7350 7650 0    50   ~ 0
Try to reduce divide output here, just for global volume.\nWon't solve the problem but should be a bit better.\nReal problem: how to get low divide signals?
Text Notes 5700 2750 0    50   ~ 0
Chip ideas:\nADG1436\nDG403 SOIC\nMAX4622\nTMUX6136
$EndSCHEMATC
