EESchema Schematic File Version 4
EELAYER 30 0
EELAYER END
$Descr A4 11693 8268
encoding utf-8
Sheet 1 2
Title "func()"
Date ""
Rev "rev 1.1"
Comp "phonèmes"
Comment1 "AD633-based ring modulator"
Comment2 "CC-BY-SA"
Comment3 ""
Comment4 ""
$EndDescr
$Comp
L Connector_Generic:Conn_01x01 J2
U 1 1 5E720E96
P 1500 4850
F 0 "J2" H 1420 4625 50  0000 C CNN
F 1 "Modulator_AC" H 1420 4716 50  0000 C CNN
F 2 "Connector_Pin:Pin_D1.0mm_L10.0mm" H 1500 4850 50  0001 C CNN
F 3 "~" H 1500 4850 50  0001 C CNN
	1    1500 4850
	-1   0    0    1   
$EndComp
$Comp
L Connector_Generic:Conn_01x01 J1
U 1 1 5E721035
P 950 6650
F 0 "J1" H 870 6425 50  0000 C CNN
F 1 "Carrier" H 870 6516 50  0000 C CNN
F 2 "Connector_Pin:Pin_D1.0mm_L10.0mm" H 950 6650 50  0001 C CNN
F 3 "~" H 950 6650 50  0001 C CNN
	1    950  6650
	-1   0    0    1   
$EndComp
$Comp
L Device:R_POT RV3
U 1 1 5E7212FE
P 1300 6950
F 0 "RV3" H 1230 6996 50  0000 R CNN
F 1 "C_AMOUNT" H 1230 6905 50  0000 R CNN
F 2 "custom:alpha_9mm_vert" H 1300 6950 50  0001 C CNN
F 3 "~" H 1300 6950 50  0001 C CNN
	1    1300 6950
	1    0    0    1   
$EndComp
Wire Wire Line
	1150 6650 1300 6650
Wire Wire Line
	1300 6650 1300 6800
Wire Wire Line
	1300 7100 1300 7200
$Comp
L power:GND #PWR05
U 1 1 5E72146C
P 1300 7200
F 0 "#PWR05" H 1300 6950 50  0001 C CNN
F 1 "GND" H 1305 7027 50  0000 C CNN
F 2 "" H 1300 7200 50  0001 C CNN
F 3 "" H 1300 7200 50  0001 C CNN
	1    1300 7200
	1    0    0    -1  
$EndComp
$Comp
L Device:R_POT RV4
U 1 1 5E7227CB
P 1700 5100
F 0 "RV4" H 1630 5146 50  0000 R CNN
F 1 "M_AMOUNT" H 1630 5055 50  0000 R CNN
F 2 "custom:alpha_9mm_vert" H 1700 5100 50  0001 C CNN
F 3 "~" H 1700 5100 50  0001 C CNN
	1    1700 5100
	1    0    0    1   
$EndComp
Wire Wire Line
	1700 4850 1700 4950
Wire Wire Line
	1700 5250 1700 5350
$Comp
L power:GND #PWR06
U 1 1 5E7227D5
P 1700 5350
F 0 "#PWR06" H 1700 5100 50  0001 C CNN
F 1 "GND" H 1705 5177 50  0000 C CNN
F 2 "" H 1700 5350 50  0001 C CNN
F 3 "" H 1700 5350 50  0001 C CNN
	1    1700 5350
	1    0    0    -1  
$EndComp
$Comp
L Device:R R9
U 1 1 5E7227DB
P 2500 5100
F 0 "R9" V 2400 5100 50  0000 C CNN
F 1 "100K" V 2500 5100 50  0000 C CNN
F 2 "Resistor_THT:R_Axial_DIN0207_L6.3mm_D2.5mm_P10.16mm_Horizontal" V 2430 5100 50  0001 C CNN
F 3 "~" H 2500 5100 50  0001 C CNN
	1    2500 5100
	0    1    1    0   
$EndComp
Wire Wire Line
	2650 5100 2800 5100
Wire Wire Line
	2800 5100 2800 4500
$Comp
L Device:C C2
U 1 1 5E724F1E
P 2100 5100
F 0 "C2" V 2350 5100 50  0000 C CNN
F 1 "0.47uF" V 2250 5100 50  0000 C CNN
F 2 "Capacitor_THT:C_Disc_D8.0mm_W5.0mm_P5.00mm" H 2138 4950 50  0001 C CNN
F 3 "~" H 2100 5100 50  0001 C CNN
	1    2100 5100
	0    1    1    0   
$EndComp
$Comp
L Connector_Generic:Conn_01x01 J3
U 1 1 5E73F7B6
P 1650 2000
F 0 "J3" H 1570 1775 50  0000 C CNN
F 1 "Offset_mod" H 1570 1866 50  0000 C CNN
F 2 "Connector_Pin:Pin_D1.0mm_L10.0mm" H 1650 2000 50  0001 C CNN
F 3 "~" H 1650 2000 50  0001 C CNN
	1    1650 2000
	-1   0    0    1   
$EndComp
$Comp
L Device:R R10
U 1 1 5E7402B5
P 2550 1500
F 0 "R10" V 2450 1500 50  0000 C CNN
F 1 "360K" V 2550 1500 50  0000 C CNN
F 2 "Resistor_THT:R_Axial_DIN0207_L6.3mm_D2.5mm_P10.16mm_Horizontal" V 2480 1500 50  0001 C CNN
F 3 "~" H 2550 1500 50  0001 C CNN
	1    2550 1500
	0    1    1    0   
$EndComp
$Comp
L Device:R R11
U 1 1 5E742D41
P 2550 2200
F 0 "R11" V 2450 2200 50  0000 C CNN
F 1 "100K" V 2550 2200 50  0000 C CNN
F 2 "Resistor_THT:R_Axial_DIN0207_L6.3mm_D2.5mm_P10.16mm_Horizontal" V 2480 2200 50  0001 C CNN
F 3 "~" H 2550 2200 50  0001 C CNN
	1    2550 2200
	0    1    1    0   
$EndComp
Wire Wire Line
	2800 2200 2700 2200
$Comp
L Connector_Generic:Conn_01x01 J5
U 1 1 5E756396
P 7350 2950
F 0 "J5" H 7430 2992 50  0000 L CNN
F 1 "Output" H 7430 2901 50  0000 L CNN
F 2 "Connector_Pin:Pin_D1.0mm_L10.0mm" H 7350 2950 50  0001 C CNN
F 3 "~" H 7350 2950 50  0001 C CNN
	1    7350 2950
	1    0    0    -1  
$EndComp
Text Notes 1050 7100 0    50   ~ 0
LOG
Text Notes 1350 5300 0    50   ~ 0
LINEAR\n
$Comp
L Connector_Generic:Conn_01x01 J4
U 1 1 5E7C2127
P 1850 4500
F 0 "J4" H 1770 4275 50  0000 C CNN
F 1 "Modulator_DC" H 1770 4366 50  0000 C CNN
F 2 "Connector_Pin:Pin_D1.0mm_L10.0mm" H 1850 4500 50  0001 C CNN
F 3 "~" H 1850 4500 50  0001 C CNN
	1    1850 4500
	-1   0    0    1   
$EndComp
$Comp
L Device:R R7
U 1 1 5E7F3E68
P 2500 3850
F 0 "R7" V 2400 3850 50  0000 C CNN
F 1 "150K" V 2500 3850 50  0000 C CNN
F 2 "Resistor_THT:R_Axial_DIN0207_L6.3mm_D2.5mm_P10.16mm_Horizontal" V 2430 3850 50  0001 C CNN
F 3 "~" H 2500 3850 50  0001 C CNN
	1    2500 3850
	0    1    1    0   
$EndComp
Wire Wire Line
	2800 3850 2650 3850
$Comp
L Device:R_POT RV2
U 1 1 5E82397E
P 1250 1500
F 0 "RV2" H 1180 1546 50  0000 R CNN
F 1 "OFFSET" H 1180 1455 50  0000 R CNN
F 2 "custom:alpha_9mm_vert" H 1250 1500 50  0001 C CNN
F 3 "~" H 1250 1500 50  0001 C CNN
	1    1250 1500
	1    0    0    1   
$EndComp
$Comp
L Device:R R3
U 1 1 5E823985
P 1250 1100
F 0 "R3" V 1350 1100 50  0000 C CNN
F 1 "10K" V 1250 1100 50  0000 C CNN
F 2 "Resistor_THT:R_Axial_DIN0207_L6.3mm_D2.5mm_P10.16mm_Horizontal" V 1180 1100 50  0001 C CNN
F 3 "~" H 1250 1100 50  0001 C CNN
	1    1250 1100
	1    0    0    -1  
$EndComp
$Comp
L Device:R R4
U 1 1 5E82398C
P 1250 1900
F 0 "R4" V 1150 1900 50  0000 C CNN
F 1 "10K" V 1250 1900 50  0000 C CNN
F 2 "Resistor_THT:R_Axial_DIN0207_L6.3mm_D2.5mm_P10.16mm_Horizontal" V 1180 1900 50  0001 C CNN
F 3 "~" H 1250 1900 50  0001 C CNN
	1    1250 1900
	1    0    0    -1  
$EndComp
$Comp
L power:+12V #PWR03
U 1 1 5E823993
P 1250 900
F 0 "#PWR03" H 1250 750 50  0001 C CNN
F 1 "+12V" H 1265 1073 50  0000 C CNN
F 2 "" H 1250 900 50  0001 C CNN
F 3 "" H 1250 900 50  0001 C CNN
	1    1250 900 
	1    0    0    -1  
$EndComp
$Comp
L power:-12V #PWR04
U 1 1 5E823999
P 1250 2100
F 0 "#PWR04" H 1250 2200 50  0001 C CNN
F 1 "-12V" H 1265 2273 50  0000 C CNN
F 2 "" H 1250 2100 50  0001 C CNN
F 3 "" H 1250 2100 50  0001 C CNN
	1    1250 2100
	-1   0    0    1   
$EndComp
Wire Wire Line
	1250 1250 1250 1350
Text Notes 1050 1650 0    50   ~ 0
LIN
$Comp
L Device:R_POT RV5
U 1 1 5E829557
P 2150 2200
F 0 "RV5" H 2080 2246 50  0000 R CNN
F 1 "OFFSET_AMNT" H 2080 2155 50  0000 R CNN
F 2 "custom:alpha_9mm_vert" H 2150 2200 50  0001 C CNN
F 3 "~" H 2150 2200 50  0001 C CNN
	1    2150 2200
	1    0    0    1   
$EndComp
Wire Wire Line
	1850 2000 2150 2000
Wire Wire Line
	2150 2000 2150 2050
$Comp
L power:GND #PWR07
U 1 1 5E844A23
P 2150 2400
F 0 "#PWR07" H 2150 2150 50  0001 C CNN
F 1 "GND" H 2155 2227 50  0000 C CNN
F 2 "" H 2150 2400 50  0001 C CNN
F 3 "" H 2150 2400 50  0001 C CNN
	1    2150 2400
	1    0    0    -1  
$EndComp
Wire Wire Line
	2150 2400 2150 2350
Wire Wire Line
	2800 1500 2700 1500
Text Notes 1950 2350 0    50   ~ 0
LIN
Wire Wire Line
	1850 5100 1950 5100
Wire Wire Line
	2050 4500 2350 4500
Wire Wire Line
	2250 5100 2350 5100
$Comp
L Mechanical:MountingHole H1
U 1 1 5E979F9B
P 10500 650
F 0 "H1" H 10600 696 50  0000 L CNN
F 1 "MountingHole" H 10600 605 50  0000 L CNN
F 2 "custom:banana_hole" H 10500 650 50  0001 C CNN
F 3 "~" H 10500 650 50  0001 C CNN
	1    10500 650 
	1    0    0    -1  
$EndComp
$Comp
L Mechanical:MountingHole H2
U 1 1 5E97A588
P 10500 850
F 0 "H2" H 10600 896 50  0000 L CNN
F 1 "MountingHole" H 10600 805 50  0000 L CNN
F 2 "custom:banana_hole" H 10500 850 50  0001 C CNN
F 3 "~" H 10500 850 50  0001 C CNN
	1    10500 850 
	1    0    0    -1  
$EndComp
$Comp
L Mechanical:MountingHole H3
U 1 1 5E97A640
P 10500 1050
F 0 "H3" H 10600 1096 50  0000 L CNN
F 1 "MountingHole" H 10600 1005 50  0000 L CNN
F 2 "custom:banana_hole" H 10500 1050 50  0001 C CNN
F 3 "~" H 10500 1050 50  0001 C CNN
	1    10500 1050
	1    0    0    -1  
$EndComp
$Comp
L Mechanical:MountingHole H4
U 1 1 5E97A6CA
P 10500 1250
F 0 "H4" H 10600 1296 50  0000 L CNN
F 1 "MountingHole" H 10600 1205 50  0000 L CNN
F 2 "custom:banana_hole" H 10500 1250 50  0001 C CNN
F 3 "~" H 10500 1250 50  0001 C CNN
	1    10500 1250
	1    0    0    -1  
$EndComp
$Comp
L Mechanical:MountingHole H5
U 1 1 5E97AB44
P 10500 1450
F 0 "H5" H 10600 1496 50  0000 L CNN
F 1 "MountingHole" H 10600 1405 50  0000 L CNN
F 2 "custom:banana_hole" H 10500 1450 50  0001 C CNN
F 3 "~" H 10500 1450 50  0001 C CNN
	1    10500 1450
	1    0    0    -1  
$EndComp
$Sheet
S 5150 850  800  5300
U 5E97E639
F0 "bottom" 50
F1 "bottom.sch" 50
$EndSheet
$Comp
L Mechanical:MountingHole HS1
U 1 1 5E97F086
P 9550 650
F 0 "HS1" H 9650 696 50  0000 L CNN
F 1 "MountingHole" H 9650 605 50  0000 L CNN
F 2 "MountingHole:MountingHole_3.2mm_M3" H 9550 650 50  0001 C CNN
F 3 "~" H 9550 650 50  0001 C CNN
	1    9550 650 
	1    0    0    -1  
$EndComp
$Comp
L Mechanical:MountingHole HS2
U 1 1 5E97F11E
P 9550 850
F 0 "HS2" H 9650 896 50  0000 L CNN
F 1 "MountingHole" H 9650 805 50  0000 L CNN
F 2 "MountingHole:MountingHole_3.2mm_M3" H 9550 850 50  0001 C CNN
F 3 "~" H 9550 850 50  0001 C CNN
	1    9550 850 
	1    0    0    -1  
$EndComp
Text Notes 1550 6600 0    100  ~ 0
CARRIER INPUT
Connection ~ 2800 4500
Wire Wire Line
	1450 6950 1850 6950
Wire Wire Line
	2800 3850 2800 4500
Wire Wire Line
	2650 4500 2800 4500
$Comp
L Connector_Generic:Conn_02x03_Odd_Even J6
U 1 1 5ED26F36
P 10150 4750
F 0 "J6" H 10200 5067 50  0000 C CNN
F 1 "SUPPLY_TOP" H 10200 4976 50  0000 C CNN
F 2 "Connector_PinSocket_2.54mm:PinSocket_2x03_P2.54mm_Vertical" H 10150 4750 50  0001 C CNN
F 3 "~" H 10150 4750 50  0001 C CNN
	1    10150 4750
	1    0    0    -1  
$EndComp
Wire Wire Line
	10450 4650 10550 4650
Wire Wire Line
	10550 4650 10550 4250
Wire Wire Line
	10550 4250 10200 4250
Wire Wire Line
	9850 4250 9850 4650
Wire Wire Line
	9850 4650 9950 4650
Wire Wire Line
	10450 4850 10550 4850
Wire Wire Line
	10550 4850 10550 5150
Wire Wire Line
	10550 5150 10200 5150
Wire Wire Line
	9850 5150 9850 4850
Wire Wire Line
	9850 4850 9950 4850
$Comp
L power:+12V #PWR09
U 1 1 5ED2A6EC
P 10200 4250
F 0 "#PWR09" H 10200 4100 50  0001 C CNN
F 1 "+12V" H 10215 4423 50  0000 C CNN
F 2 "" H 10200 4250 50  0001 C CNN
F 3 "" H 10200 4250 50  0001 C CNN
	1    10200 4250
	1    0    0    -1  
$EndComp
Connection ~ 10200 4250
Wire Wire Line
	10200 4250 9850 4250
$Comp
L power:-12V #PWR010
U 1 1 5ED2A954
P 10200 5150
F 0 "#PWR010" H 10200 5250 50  0001 C CNN
F 1 "-12V" H 10215 5323 50  0000 C CNN
F 2 "" H 10200 5150 50  0001 C CNN
F 3 "" H 10200 5150 50  0001 C CNN
	1    10200 5150
	-1   0    0    1   
$EndComp
Connection ~ 10200 5150
Wire Wire Line
	10200 5150 9850 5150
Wire Wire Line
	10450 4750 10750 4750
Wire Wire Line
	10750 4750 10750 4900
Wire Wire Line
	9950 4750 9650 4750
Wire Wire Line
	9650 4750 9650 4900
$Comp
L power:GND #PWR011
U 1 1 5ED2E546
P 10750 4900
F 0 "#PWR011" H 10750 4650 50  0001 C CNN
F 1 "GND" H 10755 4727 50  0000 C CNN
F 2 "" H 10750 4900 50  0001 C CNN
F 3 "" H 10750 4900 50  0001 C CNN
	1    10750 4900
	1    0    0    -1  
$EndComp
$Comp
L power:GND #PWR08
U 1 1 5ED2E6EB
P 9650 4900
F 0 "#PWR08" H 9650 4650 50  0001 C CNN
F 1 "GND" H 9655 4727 50  0000 C CNN
F 2 "" H 9650 4900 50  0001 C CNN
F 3 "" H 9650 4900 50  0001 C CNN
	1    9650 4900
	1    0    0    -1  
$EndComp
$Comp
L Connector_Generic:Conn_01x04 J7
U 1 1 5ED3091E
P 10250 5750
F 0 "J7" H 10330 5742 50  0000 L CNN
F 1 "SIGNALS_TOP" H 10330 5651 50  0000 L CNN
F 2 "Connector_PinSocket_2.54mm:PinSocket_1x04_P2.54mm_Vertical" H 10250 5750 50  0001 C CNN
F 3 "~" H 10250 5750 50  0001 C CNN
	1    10250 5750
	1    0    0    -1  
$EndComp
Text Label 3250 4500 0    50   ~ 0
MODULATOR_TOP
Text Label 2800 6950 0    50   ~ 0
CARRIER_TOP
Text Label 10050 5650 2    50   ~ 0
MODULATOR_TOP
Text Label 10050 5750 2    50   ~ 0
CARRIER_TOP
Text Label 10050 5850 2    50   ~ 0
OFFSET_TOP
Text Notes 6800 5750 0    100  ~ 0
The top board contrains:\n- Offset buffer\n- Output buffer
Text Label 7000 2950 2    50   ~ 0
OUTPUT_TOP
Text Label 10050 5950 2    50   ~ 0
OUTPUT_TOP
Text Notes 10200 6350 0    50   ~ 0
Top/bottom connectors
Text Notes 1700 3600 0    50   ~ 0
De-linearizing resistors for easier zeroing
Text Notes 6750 5150 0    200  Italic 40
Top board
Wire Notes Line
	9250 3850 11150 3850
Wire Notes Line
	11150 3850 11150 6450
Wire Notes Line
	11150 6450 9250 6450
Wire Notes Line
	9250 6450 9250 3850
Text Notes 6800 6300 0    50   ~ 0
V1.1:\n- Potentiometers are now clockwise (except RV1)\n- Tweaked some value to get better inputs/outputs levels\n- New layout, makes more sense
$Comp
L Device:R R8
U 1 1 5E7C20B9
P 2500 4500
F 0 "R8" V 2400 4500 50  0000 C CNN
F 1 "150K" V 2500 4500 50  0000 C CNN
F 2 "Resistor_THT:R_Axial_DIN0207_L6.3mm_D2.5mm_P10.16mm_Horizontal" V 2430 4500 50  0001 C CNN
F 3 "~" H 2500 4500 50  0001 C CNN
	1    2500 4500
	0    1    1    0   
$EndComp
$Comp
L Device:C C1
U 1 1 5F0C5D7C
P 2000 6950
F 0 "C1" V 2250 6950 50  0000 C CNN
F 1 "0.47uF" V 2150 6950 50  0000 C CNN
F 2 "Capacitor_THT:C_Disc_D8.0mm_W5.0mm_P5.00mm" H 2038 6800 50  0001 C CNN
F 3 "~" H 2000 6950 50  0001 C CNN
	1    2000 6950
	0    1    1    0   
$EndComp
Wire Wire Line
	2150 6950 2800 6950
Text Notes 2050 1100 0    100  ~ 0
OFFSET CONTROL
Wire Wire Line
	2800 4500 3250 4500
Wire Wire Line
	2400 2200 2300 2200
Wire Wire Line
	1250 1650 1250 1750
Wire Wire Line
	1250 2100 1250 2050
Wire Wire Line
	2400 1500 1400 1500
Wire Wire Line
	1250 950  1250 900 
Wire Wire Line
	1650 3650 1650 3850
Connection ~ 1650 3850
Wire Wire Line
	1650 3850 1650 4050
Wire Wire Line
	1650 3850 2350 3850
Wire Wire Line
	1350 3850 1650 3850
Wire Wire Line
	1650 4050 1600 4050
Wire Wire Line
	1600 3650 1650 3650
Wire Wire Line
	1200 4400 1200 4450
Wire Wire Line
	1200 4050 1200 4100
Connection ~ 1200 4050
Wire Wire Line
	1300 4050 1200 4050
Connection ~ 1200 3650
Wire Wire Line
	1200 3650 1200 3600
Wire Wire Line
	1200 3300 1200 3250
Wire Wire Line
	1200 3650 1300 3650
$Comp
L Device:R R6
U 1 1 5E94FA05
P 1450 4050
F 0 "R6" V 1550 4050 50  0000 C CNN
F 1 "10K" V 1450 4050 50  0000 C CNN
F 2 "Resistor_THT:R_Axial_DIN0207_L6.3mm_D2.5mm_P10.16mm_Horizontal" V 1380 4050 50  0001 C CNN
F 3 "~" H 1450 4050 50  0001 C CNN
	1    1450 4050
	0    -1   -1   0   
$EndComp
$Comp
L Device:R R5
U 1 1 5E94F975
P 1450 3650
F 0 "R5" V 1550 3650 50  0000 C CNN
F 1 "10K" V 1450 3650 50  0000 C CNN
F 2 "Resistor_THT:R_Axial_DIN0207_L6.3mm_D2.5mm_P10.16mm_Horizontal" V 1380 3650 50  0001 C CNN
F 3 "~" H 1450 3650 50  0001 C CNN
	1    1450 3650
	0    -1   -1   0   
$EndComp
Text Notes 1550 3350 0    100  ~ 0
MODULATOR INPUT
Text Notes 850  4000 0    50   ~ 0
LINEAR
Wire Wire Line
	1200 4000 1200 4050
Wire Wire Line
	1200 3650 1200 3700
$Comp
L power:-12V #PWR02
U 1 1 5E737573
P 1200 4450
F 0 "#PWR02" H 1200 4550 50  0001 C CNN
F 1 "-12V" H 1215 4623 50  0000 C CNN
F 2 "" H 1200 4450 50  0001 C CNN
F 3 "" H 1200 4450 50  0001 C CNN
	1    1200 4450
	-1   0    0    1   
$EndComp
$Comp
L power:+12V #PWR01
U 1 1 5E737542
P 1200 3250
F 0 "#PWR01" H 1200 3100 50  0001 C CNN
F 1 "+12V" H 1215 3423 50  0000 C CNN
F 2 "" H 1200 3250 50  0001 C CNN
F 3 "" H 1200 3250 50  0001 C CNN
	1    1200 3250
	1    0    0    -1  
$EndComp
$Comp
L Device:R R2
U 1 1 5E735F61
P 1200 4250
F 0 "R2" V 1100 4250 50  0000 C CNN
F 1 "10K" V 1200 4250 50  0000 C CNN
F 2 "Resistor_THT:R_Axial_DIN0207_L6.3mm_D2.5mm_P10.16mm_Horizontal" V 1130 4250 50  0001 C CNN
F 3 "~" H 1200 4250 50  0001 C CNN
	1    1200 4250
	1    0    0    -1  
$EndComp
$Comp
L Device:R R1
U 1 1 5E735476
P 1200 3450
F 0 "R1" V 1300 3450 50  0000 C CNN
F 1 "10K" V 1200 3450 50  0000 C CNN
F 2 "Resistor_THT:R_Axial_DIN0207_L6.3mm_D2.5mm_P10.16mm_Horizontal" V 1130 3450 50  0001 C CNN
F 3 "~" H 1200 3450 50  0001 C CNN
	1    1200 3450
	1    0    0    -1  
$EndComp
$Comp
L Device:R_POT RV1
U 1 1 5E735037
P 1200 3850
F 0 "RV1" H 1130 3896 50  0000 R CNN
F 1 "INIT" H 1130 3805 50  0000 R CNN
F 2 "custom:alpha_9mm_vert" H 1200 3850 50  0001 C CNN
F 3 "~" H 1200 3850 50  0001 C CNN
	1    1200 3850
	1    0    0    -1  
$EndComp
Text Notes 550  7700 0    50   ~ 0
All pots 100K
Text Label 2850 1850 0    50   ~ 0
OFFSET_TOP
Wire Wire Line
	2800 1500 2800 1850
Wire Wire Line
	2850 1850 2800 1850
Connection ~ 2800 1850
Wire Wire Line
	2800 1850 2800 2200
Wire Wire Line
	7150 2950 7000 2950
$EndSCHEMATC
